%!PS-Adobe-2.0 EPSF-2.0
%%Title: bump.eps
%%Creator: fig2dev Version 3.2 Patchlevel 1
%%CreationDate: Thu May  6 19:21:49 1999
%%For: aspuru@oxido (Alan Aspuru Guzik)
%%Orientation: Portrait
%%BoundingBox: 0 0 236 236
%%Pages: 0
%%BeginSetup
%%EndSetup
%%Magnification: 1.0000
%%EndComments
/$F2psDict 200 dict def
$F2psDict begin
$F2psDict /mtrx matrix put
/col-1 {0 setgray} bind def
/col0 {0.000 0.000 0.000 srgb} bind def
/col1 {0.000 0.000 1.000 srgb} bind def
/col2 {0.000 1.000 0.000 srgb} bind def
/col3 {0.000 1.000 1.000 srgb} bind def
/col4 {1.000 0.000 0.000 srgb} bind def
/col5 {1.000 0.000 1.000 srgb} bind def
/col6 {1.000 1.000 0.000 srgb} bind def
/col7 {1.000 1.000 1.000 srgb} bind def
/col8 {0.000 0.000 0.560 srgb} bind def
/col9 {0.000 0.000 0.690 srgb} bind def
/col10 {0.000 0.000 0.820 srgb} bind def
/col11 {0.530 0.810 1.000 srgb} bind def
/col12 {0.000 0.560 0.000 srgb} bind def
/col13 {0.000 0.690 0.000 srgb} bind def
/col14 {0.000 0.820 0.000 srgb} bind def
/col15 {0.000 0.560 0.560 srgb} bind def
/col16 {0.000 0.690 0.690 srgb} bind def
/col17 {0.000 0.820 0.820 srgb} bind def
/col18 {0.560 0.000 0.000 srgb} bind def
/col19 {0.690 0.000 0.000 srgb} bind def
/col20 {0.820 0.000 0.000 srgb} bind def
/col21 {0.560 0.000 0.560 srgb} bind def
/col22 {0.690 0.000 0.690 srgb} bind def
/col23 {0.820 0.000 0.820 srgb} bind def
/col24 {0.500 0.190 0.000 srgb} bind def
/col25 {0.630 0.250 0.000 srgb} bind def
/col26 {0.750 0.380 0.000 srgb} bind def
/col27 {1.000 0.500 0.500 srgb} bind def
/col28 {1.000 0.630 0.630 srgb} bind def
/col29 {1.000 0.750 0.750 srgb} bind def
/col30 {1.000 0.880 0.880 srgb} bind def
/col31 {1.000 0.840 0.000 srgb} bind def

end
save
-16.0 291.0 translate
1 -1 scale

/cp {closepath} bind def
/ef {eofill} bind def
/gr {grestore} bind def
/gs {gsave} bind def
/sa {save} bind def
/rs {restore} bind def
/l {lineto} bind def
/m {moveto} bind def
/rm {rmoveto} bind def
/n {newpath} bind def
/s {stroke} bind def
/sh {show} bind def
/slc {setlinecap} bind def
/slj {setlinejoin} bind def
/slw {setlinewidth} bind def
/srgb {setrgbcolor} bind def
/rot {rotate} bind def
/sc {scale} bind def
/sd {setdash} bind def
/ff {findfont} bind def
/sf {setfont} bind def
/scf {scalefont} bind def
/sw {stringwidth} bind def
/tr {translate} bind def
/tnt {dup dup currentrgbcolor
  4 -2 roll dup 1 exch sub 3 -1 roll mul add
  4 -2 roll dup 1 exch sub 3 -1 roll mul add
  4 -2 roll dup 1 exch sub 3 -1 roll mul add srgb}
  bind def
/shd {dup dup currentrgbcolor 4 -2 roll mul 4 -2 roll mul
  4 -2 roll mul srgb} bind def
/$F2psBegin {$F2psDict begin /$F2psEnteredState save def} def
/$F2psEnd {$F2psEnteredState restore end} def
%%EndProlog

$F2psBegin
10 setmiterlimit
n -1000 5842 m -1000 -1000 l 5197 -1000 l 5197 5842 l cp clip
 0.06000 0.06000 sc
% Polyline
7.500 slw
n 285 4830 m 1485 3630 l gs col0 s gr 
% Polyline
n 2985 4830 m 4185 3630 l 4185 3630 l gs col0 s gr 
% Polyline
n 2985 2130 m 4185 930 l gs col0 s gr 
% Polyline
n 4185 930 m 4185 3630 l gs col0 s gr 
% Polyline
n 1485 3630 m 4185 3630 l gs col0 s gr 
% Polyline
n 3881 3630 m 3889 3630 l gs col0 s gr
% Polyline
n 285 2130 m 2985 2130 l gs col0 s gr 
% Polyline
n 1485 4530 m 2085 3930 l 2985 3930 l 2385 4530 l 1485 4530 l 1485 4080 l
 2385 4080 l 2385 4530 l 2385 4080 l 2985 3480 l 2085 3480 l
 1485 4080 l gs col0 s gr 
% Polyline
n 1631 4230 m 1639 4230 l gs col0 s gr
% Polyline
n 2085 3480 m 2085 3930 l gs col0 s gr 
% Polyline
gs  clippath
2655 4200 m 2685 4080 l 2715 4200 l 2715 4065 l 2655 4065 l cp
2715 4410 m 2685 4530 l 2655 4410 l 2655 4545 l 2715 4545 l cp
clip
n 2685 4530 m 2685 4080 l gs col0 s gr gr

% arrowhead
n 2715 4410 m 2685 4530 l 2655 4410 l 2685 4410 l 2715 4410 l  cp gs 0.00 setgray ef gr  col0 s
% arrowhead
n 2655 4200 m 2685 4080 l 2715 4200 l 2685 4200 l 2655 4200 l  cp gs 0.00 setgray ef gr  col0 s
% Polyline
gs  clippath
1687 4586 m 1740 4575 l 1729 4628 l 1772 4586 l 1729 4543 l cp
1643 4714 m 1590 4725 l 1601 4672 l 1558 4714 l 1601 4757 l cp
clip
n 1590 4725 m 1740 4575 l gs col0 s gr gr

% arrowhead
n 1643 4714 m 1590 4725 l 1601 4672 l 1622 4693 l 1643 4714 l  cp gs 0.00 setgray ef gr  col0 s
% arrowhead
n 1687 4586 m 1740 4575 l 1729 4628 l 1708 4607 l 1687 4586 l  cp gs 0.00 setgray ef gr  col0 s
% Polyline
n 285 2130 m 285 4830 l 2985 4830 l 2985 2130 l 2985 2130 l gs col0 s gr 
% Polyline
gs  clippath
1320 4515 m 1440 4545 l 1320 4575 l 1455 4575 l 1455 4515 l cp
735 4575 m 615 4545 l 735 4515 l 600 4515 l 600 4575 l cp
clip
n 615 4545 m 1440 4545 l gs col0 s gr gr

% arrowhead
n 735 4575 m 615 4545 l 735 4515 l 735 4545 l 735 4575 l  cp gs 0.00 setgray ef gr  col0 s
% arrowhead
n 1320 4515 m 1440 4545 l 1320 4575 l 1320 4545 l 1320 4515 l  cp gs 0.00 setgray ef gr  col0 s
% Polyline
gs  clippath
3540 4050 m 3660 4080 l 3540 4110 l 3675 4110 l 3675 4050 l cp
3030 4110 m 2910 4080 l 3030 4050 l 2895 4050 l 2895 4110 l cp
clip
n 2910 4080 m 3660 4080 l gs col0 s gr gr

% arrowhead
n 3030 4110 m 2910 4080 l 3030 4050 l  col0 s
% arrowhead
n 3540 4050 m 3660 4080 l 3540 4110 l  col0 s
% Polyline
n 285 2130 m 1485 930 l 4185 930 l gs col0 s gr 
% Polyline
n 1485 3630 m 1485 930 l gs col0 s gr 
% Polyline
gs  clippath
2347 3686 m 2400 3675 l 2389 3728 l 2432 3686 l 2389 3643 l cp
2303 3814 m 2250 3825 l 2261 3772 l 2218 3814 l 2261 3857 l cp
clip
n 2250 3825 m 2400 3675 l gs col0 s gr gr

% arrowhead
n 2303 3814 m 2250 3825 l 2261 3772 l 2282 3793 l 2303 3814 l  cp gs 0.00 setgray ef gr  col0 s
% arrowhead
n 2347 3686 m 2400 3675 l 2389 3728 l 2368 3707 l 2347 3686 l  cp gs 0.00 setgray ef gr  col0 s
/Times-Bold ff 180.00 scf sf
2835 4380 m
gs 1 -1 sc (h) col0 sh gr
/Times-Bold ff 180.00 scf sf
1815 4725 m
gs 1 -1 sc (a) col0 sh gr
/Times-Bold ff 180.00 scf sf
1027 4440 m
gs 1 -1 sc (a) col0 sh gr
/Times-Bold ff 180.00 scf sf
3285 4005 m
gs 1 -1 sc (b) col0 sh gr
/Times-Bold ff 180.00 scf sf
2505 3840 m
gs 1 -1 sc (b) col0 sh gr
$F2psEnd
rs
