%!PS-Adobe-2.0 EPSF-2.0
%%Title: caminantes.eps
%%Creator: fig2dev Version 3.2 Patchlevel 1
%%CreationDate: Wed Jun  2 15:59:40 1999
%%For: aspuru@oxido (Alan Aspuru Guzik)
%%Orientation: Portrait
%%BoundingBox: 0 0 182 137
%%Pages: 0
%%BeginSetup
%%EndSetup
%%Magnification: 1.0000
%%EndComments
/$F2psDict 200 dict def
$F2psDict begin
$F2psDict /mtrx matrix put
/col-1 {0 setgray} bind def
/col0 {0.000 0.000 0.000 srgb} bind def
/col1 {0.000 0.000 1.000 srgb} bind def
/col2 {0.000 1.000 0.000 srgb} bind def
/col3 {0.000 1.000 1.000 srgb} bind def
/col4 {1.000 0.000 0.000 srgb} bind def
/col5 {1.000 0.000 1.000 srgb} bind def
/col6 {1.000 1.000 0.000 srgb} bind def
/col7 {1.000 1.000 1.000 srgb} bind def
/col8 {0.000 0.000 0.560 srgb} bind def
/col9 {0.000 0.000 0.690 srgb} bind def
/col10 {0.000 0.000 0.820 srgb} bind def
/col11 {0.530 0.810 1.000 srgb} bind def
/col12 {0.000 0.560 0.000 srgb} bind def
/col13 {0.000 0.690 0.000 srgb} bind def
/col14 {0.000 0.820 0.000 srgb} bind def
/col15 {0.000 0.560 0.560 srgb} bind def
/col16 {0.000 0.690 0.690 srgb} bind def
/col17 {0.000 0.820 0.820 srgb} bind def
/col18 {0.560 0.000 0.000 srgb} bind def
/col19 {0.690 0.000 0.000 srgb} bind def
/col20 {0.820 0.000 0.000 srgb} bind def
/col21 {0.560 0.000 0.560 srgb} bind def
/col22 {0.690 0.000 0.690 srgb} bind def
/col23 {0.820 0.000 0.820 srgb} bind def
/col24 {0.500 0.190 0.000 srgb} bind def
/col25 {0.630 0.250 0.000 srgb} bind def
/col26 {0.750 0.380 0.000 srgb} bind def
/col27 {1.000 0.500 0.500 srgb} bind def
/col28 {1.000 0.630 0.630 srgb} bind def
/col29 {1.000 0.750 0.750 srgb} bind def
/col30 {1.000 0.880 0.880 srgb} bind def
/col31 {1.000 0.840 0.000 srgb} bind def

end
save
-8.0 154.0 translate
1 -1 scale

/cp {closepath} bind def
/ef {eofill} bind def
/gr {grestore} bind def
/gs {gsave} bind def
/sa {save} bind def
/rs {restore} bind def
/l {lineto} bind def
/m {moveto} bind def
/rm {rmoveto} bind def
/n {newpath} bind def
/s {stroke} bind def
/sh {show} bind def
/slc {setlinecap} bind def
/slj {setlinejoin} bind def
/slw {setlinewidth} bind def
/srgb {setrgbcolor} bind def
/rot {rotate} bind def
/sc {scale} bind def
/sd {setdash} bind def
/ff {findfont} bind def
/sf {setfont} bind def
/scf {scalefont} bind def
/sw {stringwidth} bind def
/tr {translate} bind def
/tnt {dup dup currentrgbcolor
  4 -2 roll dup 1 exch sub 3 -1 roll mul add
  4 -2 roll dup 1 exch sub 3 -1 roll mul add
  4 -2 roll dup 1 exch sub 3 -1 roll mul add srgb}
  bind def
/shd {dup dup currentrgbcolor 4 -2 roll mul 4 -2 roll mul
  4 -2 roll mul srgb} bind def
 /DrawEllipse {
	/endangle exch def
	/startangle exch def
	/yrad exch def
	/xrad exch def
	/y exch def
	/x exch def
	/savematrix mtrx currentmatrix def
	x y tr xrad yrad sc 0 0 1 startangle endangle arc
	closepath
	savematrix setmatrix
	} def

/$F2psBegin {$F2psDict begin /$F2psEnteredState save def} def
/$F2psEnd {$F2psEnteredState restore end} def
%%EndProlog

$F2psBegin
10 setmiterlimit
n -1000 3562 m -1000 -1000 l 4162 -1000 l 4162 3562 l cp clip
 0.06000 0.06000 sc
7.500 slw
% Ellipse
n 600 900 75 75 0 360 DrawEllipse gs 0.00 setgray ef gr gs col0 s gr

% Ellipse
n 2400 2100 75 75 0 360 DrawEllipse gs 0.00 setgray ef gr gs col0 s gr

% Ellipse
n 2925 1619 75 75 0 360 DrawEllipse gs 0.00 setgray ef gr gs col0 s gr

% Polyline
gs  clippath
2880 2370 m 3000 2400 l 2880 2430 l 3015 2430 l 3015 2370 l cp
clip
n 300 2400 m 3000 2400 l gs col0 s gr gr

% arrowhead
n 2880 2370 m 3000 2400 l 2880 2430 l 2880 2400 l 2880 2370 l  cp gs 0.00 setgray ef gr  col0 s
% Polyline
gs  clippath
270 420 m 300 300 l 330 420 l 330 285 l 270 285 l cp
clip
n 300 2400 m 300 300 l gs col0 s gr gr

% arrowhead
n 270 420 m 300 300 l 330 420 l 300 420 l 270 420 l  cp gs 0.00 setgray ef gr  col0 s
% Polyline
 [60 30 15 30] 0 sd
gs  clippath
1813 1227 m 1800 1350 l 1753 1235 l 1772 1369 l 1832 1361 l cp
clip
n 600 900 m 900 1350 l 1200 600 l 1650 1050 l 1350 1350 l 900 900 l
 1950 600 l 1650 300 l 1800 1350 l gs col0 s gr gr
 [] 0 sd
% arrowhead
n 1813 1227 m 1800 1350 l 1753 1235 l 1783 1231 l 1813 1227 l  cp gs col7 1.00 shd ef gr  col0 s
% Polyline
gs  clippath
256 2486 m 150 2550 l 214 2444 l 118 2539 l 161 2582 l cp
clip
n 300 2400 m 150 2550 l gs col0 s gr gr

% arrowhead
n 256 2486 m 150 2550 l 214 2444 l 235 2465 l 256 2486 l  cp gs 0.00 setgray ef gr  col0 s
% Polyline
 [45 22 15 22] 0 sd
gs  clippath
664 1756 m 600 1650 l 706 1714 l 611 1618 l 568 1661 l cp
clip
n 2400 2100 m 1800 2100 l 1950 1800 l 2100 2250 l 2700 2250 l 2100 1950 l
 2400 1500 l 1650 1500 l 1050 2100 l 1200 1650 l 1500 1950 l
 1350 2250 l 900 2250 l 750 1800 l 600 1650 l gs col0 s gr gr
 [] 0 sd
% arrowhead
n 664 1756 m 600 1650 l 706 1714 l 685 1735 l 664 1756 l  cp gs col7 1.00 shd ef gr  col0 s
% Polyline
 [45 22 15 22] 0 sd
gs  clippath
2911 1547 m 3000 1500 l 2953 1589 l 3032 1511 l 2989 1468 l cp
2630 506 m 2550 600 l 2577 479 l 2516 600 l 2570 627 l cp
clip
n 2550 600 m 2700 300 l 2850 750 l 2850 1050 l 2550 1050 l 2550 900 l
 3150 600 l 3000 1050 l 2850 1350 l 2550 1350 l 2100 900 l
 2400 750 l 2250 1350 l 3000 1950 l 2550 1950 l 3000 1500 l gs col0 s gr gr
 [] 0 sd
% arrowhead
n 2630 506 m 2550 600 l 2577 479 l 2604 493 l 2630 506 l  cp gs col7 1.00 shd ef gr  col0 s
% arrowhead
n 2911 1547 m 3000 1500 l 2953 1589 l 2915 1585 l 2911 1547 l  cp gs col7 1.00 shd ef gr  col0 s
$F2psEnd
rs
