#FIG 3.2
Landscape
Center
Inches
Letter  
100.00
Single
-2
1200 2
1 3 0 1 0 0 100 0 20 0.000 1 0.0000 600 900 75 75 600 900 675 900
1 3 0 1 0 0 100 0 20 0.000 1 0.0000 2400 2100 75 75 2400 2100 2475 2100
1 3 0 1 0 0 100 0 20 0.000 1 0.0000 2925 1619 75 75 2925 1619 3000 1619
2 1 0 1 0 7 100 0 -1 0.000 0 0 -1 1 0 2
	1 1 1.00 60.00 120.00
	 300 2400 3000 2400
2 1 0 1 0 7 100 0 -1 0.000 0 0 -1 1 0 2
	1 1 1.00 60.00 120.00
	 300 2400 300 300
2 1 3 1 0 7 100 0 -1 4.000 0 0 -1 1 0 9
	1 0 1.00 60.00 120.00
	 600 900 900 1350 1200 600 1650 1050 1350 1350 900 900
	 1950 600 1650 300 1800 1350
2 1 0 1 0 7 100 0 -1 0.000 0 0 -1 1 0 2
	1 1 1.00 60.00 120.00
	 300 2400 150 2550
2 1 3 1 0 7 100 0 -1 3.000 0 0 -1 1 0 15
	1 0 1.00 60.00 120.00
	 2400 2100 1800 2100 1950 1800 2100 2250 2700 2250 2100 1950
	 2400 1500 1650 1500 1050 2100 1200 1650 1500 1950 1350 2250
	 900 2250 750 1800 600 1650
2 1 3 1 0 7 100 0 -1 3.000 0 0 -1 1 1 16
	3 0 1.00 60.00 120.00
	1 0 1.00 60.00 120.00
	 2550 600 2700 300 2850 750 2850 1050 2550 1050 2550 900
	 3150 600 3000 1050 2850 1350 2550 1350 2100 900 2400 750
	 2250 1350 3000 1950 2550 1950 3000 1500
