%!PS-Adobe-2.0 EPSF-2.0
%%Title: caminatas.eps
%%Creator: fig2dev Version 3.2 Patchlevel 1
%%CreationDate: Wed May 12 15:03:00 1999
%%For: aspuru@oxido (Alan Aspuru Guzik)
%%Orientation: Portrait
%%BoundingBox: 0 0 308 327
%%Pages: 0
%%BeginSetup
%%EndSetup
%%Magnification: 1.0000
%%EndComments
/$F2psDict 200 dict def
$F2psDict begin
$F2psDict /mtrx matrix put
/col-1 {0 setgray} bind def
/col0 {0.000 0.000 0.000 srgb} bind def
/col1 {0.000 0.000 1.000 srgb} bind def
/col2 {0.000 1.000 0.000 srgb} bind def
/col3 {0.000 1.000 1.000 srgb} bind def
/col4 {1.000 0.000 0.000 srgb} bind def
/col5 {1.000 0.000 1.000 srgb} bind def
/col6 {1.000 1.000 0.000 srgb} bind def
/col7 {1.000 1.000 1.000 srgb} bind def
/col8 {0.000 0.000 0.560 srgb} bind def
/col9 {0.000 0.000 0.690 srgb} bind def
/col10 {0.000 0.000 0.820 srgb} bind def
/col11 {0.530 0.810 1.000 srgb} bind def
/col12 {0.000 0.560 0.000 srgb} bind def
/col13 {0.000 0.690 0.000 srgb} bind def
/col14 {0.000 0.820 0.000 srgb} bind def
/col15 {0.000 0.560 0.560 srgb} bind def
/col16 {0.000 0.690 0.690 srgb} bind def
/col17 {0.000 0.820 0.820 srgb} bind def
/col18 {0.560 0.000 0.000 srgb} bind def
/col19 {0.690 0.000 0.000 srgb} bind def
/col20 {0.820 0.000 0.000 srgb} bind def
/col21 {0.560 0.000 0.560 srgb} bind def
/col22 {0.690 0.000 0.690 srgb} bind def
/col23 {0.820 0.000 0.820 srgb} bind def
/col24 {0.500 0.190 0.000 srgb} bind def
/col25 {0.630 0.250 0.000 srgb} bind def
/col26 {0.750 0.380 0.000 srgb} bind def
/col27 {1.000 0.500 0.500 srgb} bind def
/col28 {1.000 0.630 0.630 srgb} bind def
/col29 {1.000 0.750 0.750 srgb} bind def
/col30 {1.000 0.880 0.880 srgb} bind def
/col31 {1.000 0.840 0.000 srgb} bind def

end
save
1.0 325.0 translate
1 -1 scale

/cp {closepath} bind def
/ef {eofill} bind def
/gr {grestore} bind def
/gs {gsave} bind def
/sa {save} bind def
/rs {restore} bind def
/l {lineto} bind def
/m {moveto} bind def
/rm {rmoveto} bind def
/n {newpath} bind def
/s {stroke} bind def
/sh {show} bind def
/slc {setlinecap} bind def
/slj {setlinejoin} bind def
/slw {setlinewidth} bind def
/srgb {setrgbcolor} bind def
/rot {rotate} bind def
/sc {scale} bind def
/sd {setdash} bind def
/ff {findfont} bind def
/sf {setfont} bind def
/scf {scalefont} bind def
/sw {stringwidth} bind def
/tr {translate} bind def
/tnt {dup dup currentrgbcolor
  4 -2 roll dup 1 exch sub 3 -1 roll mul add
  4 -2 roll dup 1 exch sub 3 -1 roll mul add
  4 -2 roll dup 1 exch sub 3 -1 roll mul add srgb}
  bind def
/shd {dup dup currentrgbcolor 4 -2 roll mul 4 -2 roll mul
  4 -2 roll mul srgb} bind def
/reencdict 12 dict def /ReEncode { reencdict begin
/newcodesandnames exch def /newfontname exch def /basefontname exch def
/basefontdict basefontname findfont def /newfont basefontdict maxlength dict def
basefontdict { exch dup /FID ne { dup /Encoding eq
{ exch dup length array copy newfont 3 1 roll put }
{ exch newfont 3 1 roll put } ifelse } { pop pop } ifelse } forall
newfont /FontName newfontname put newcodesandnames aload pop
128 1 255 { newfont /Encoding get exch /.notdef put } for
newcodesandnames length 2 idiv { newfont /Encoding get 3 1 roll put } repeat
newfontname newfont definefont pop end } def
/isovec [
8#200 /grave 8#201 /acute 8#202 /circumflex 8#203 /tilde
8#204 /macron 8#205 /breve 8#206 /dotaccent 8#207 /dieresis
8#210 /ring 8#211 /cedilla 8#212 /hungarumlaut 8#213 /ogonek 8#214 /caron
8#220 /dotlessi 8#230 /oe 8#231 /OE
8#240 /space 8#241 /exclamdown 8#242 /cent 8#243 /sterling
8#244 /currency 8#245 /yen 8#246 /brokenbar 8#247 /section 8#250 /dieresis
8#251 /copyright 8#252 /ordfeminine 8#253 /guillemotleft 8#254 /logicalnot
8#255 /endash 8#256 /registered 8#257 /macron 8#260 /degree 8#261 /plusminus
8#262 /twosuperior 8#263 /threesuperior 8#264 /acute 8#265 /mu 8#266 /paragraph
8#267 /periodcentered 8#270 /cedilla 8#271 /onesuperior 8#272 /ordmasculine
8#273 /guillemotright 8#274 /onequarter 8#275 /onehalf
8#276 /threequarters 8#277 /questiondown 8#300 /Agrave 8#301 /Aacute
8#302 /Acircumflex 8#303 /Atilde 8#304 /Adieresis 8#305 /Aring
8#306 /AE 8#307 /Ccedilla 8#310 /Egrave 8#311 /Eacute
8#312 /Ecircumflex 8#313 /Edieresis 8#314 /Igrave 8#315 /Iacute
8#316 /Icircumflex 8#317 /Idieresis 8#320 /Eth 8#321 /Ntilde 8#322 /Ograve
8#323 /Oacute 8#324 /Ocircumflex 8#325 /Otilde 8#326 /Odieresis 8#327 /multiply
8#330 /Oslash 8#331 /Ugrave 8#332 /Uacute 8#333 /Ucircumflex
8#334 /Udieresis 8#335 /Yacute 8#336 /Thorn 8#337 /germandbls 8#340 /agrave
8#341 /aacute 8#342 /acircumflex 8#343 /atilde 8#344 /adieresis 8#345 /aring
8#346 /ae 8#347 /ccedilla 8#350 /egrave 8#351 /eacute
8#352 /ecircumflex 8#353 /edieresis 8#354 /igrave 8#355 /iacute
8#356 /icircumflex 8#357 /idieresis 8#360 /eth 8#361 /ntilde 8#362 /ograve
8#363 /oacute 8#364 /ocircumflex 8#365 /otilde 8#366 /odieresis 8#367 /divide
8#370 /oslash 8#371 /ugrave 8#372 /uacute 8#373 /ucircumflex
8#374 /udieresis 8#375 /yacute 8#376 /thorn 8#377 /ydieresis] def
/Times-Bold /Times-Bold-iso isovec ReEncode
/$F2psBegin {$F2psDict begin /$F2psEnteredState save def} def
/$F2psEnd {$F2psEnteredState restore end} def
%%EndProlog

$F2psBegin
10 setmiterlimit
n -1000 6412 m -1000 -1000 l 6112 -1000 l 6112 6412 l cp clip
 0.06000 0.06000 sc
/Times-Bold-iso ff 180.00 scf sf
1500 3300 m
gs 1 -1 sc (estadisticas) col0 sh gr
/Times-Bold-iso ff 180.00 scf sf
1900 3275 m
gs 1 -1 sc (\264) col0 sh gr
% Polyline
7.500 slw
n 1200 1800 m 3000 1800 l gs col0 s gr 
% Polyline
n 1200 1200 m 2985 1200 l 2985 3600 l 1200 3600 l cp gs col0 s gr 
% Polyline
 [15 45] 45 sd
n 1200 3000 m 3000 3000 l gs col0 s gr  [] 0 sd
/Times-Bold-iso ff 180.00 scf sf
1500 1500 m
gs 1 -1 sc (MonteCarlo) col0 sh gr
/Times-Bold-iso ff 180.00 scf sf
1500 2100 m
gs 1 -1 sc (tipo) col0 sh gr
/Times-Bold-iso ff 180.00 scf sf
1500 2400 m
gs 1 -1 sc (bloques) col0 sh gr
/Times-Bold-iso ff 180.00 scf sf
1500 2700 m
gs 1 -1 sc (pasos) col0 sh gr
% Polyline
n 3600 3000 m 4800 3000 l 4800 3600 l 3600 3600 l cp gs col0 s gr 
% Polyline
n 3600 3300 m 4800 3300 l gs col0 s gr 
/Times-Bold-iso ff 180.00 scf sf
3990 3210 m
gs 1 -1 sc (Nodo) col0 sh gr
% Polyline
n 3600 2100 m 4800 2100 l 4800 2700 l 3600 2700 l cp gs col0 s gr 
% Polyline
n 3600 2400 m 4800 2400 l gs col0 s gr 
/Times-Bold-iso ff 180.00 scf sf
3990 2310 m
gs 1 -1 sc (Nodo) col0 sh gr
% Polyline
n 3600 315 m 4800 315 l 4800 915 l 3600 915 l cp gs col0 s gr 
% Polyline
n 3600 615 m 4800 615 l gs col0 s gr 
/Times-Bold-iso ff 180.00 scf sf
3990 525 m
gs 1 -1 sc (Nodo) col0 sh gr
/Times-Bold-iso ff 180.00 scf sf
3750 4815 m
gs 1 -1 sc (funcion) col0 sh gr
/Times-Bold-iso ff 180.00 scf sf
4170 4808 m
gs 1 -1 sc (\264) col0 sh gr
/Times-Bold-iso ff 180.00 scf sf
1665 5100 m
gs 1 -1 sc (funcion) col0 sh gr
/Times-Bold-iso ff 180.00 scf sf
2085 5093 m
gs 1 -1 sc (\264) col0 sh gr
% Polyline
n 1500 300 m 2700 300 l 2700 900 l 1500 900 l cp gs col0 s gr 
% Polyline
n 1500 600 m 2700 600 l gs col0 s gr 
% Polyline
gs  clippath
2130 1080 m 2100 1200 l 2070 1080 l 2070 1215 l 2130 1215 l cp
clip
n 2100 900 m 2100 1200 l gs col0 s gr gr

% arrowhead
n 2130 1080 m 2100 1200 l 2070 1080 l 2100 1080 l 2130 1080 l  cp gs 0.00 setgray ef gr  col0 s
% Polyline
gs  clippath
720 780 m 600 750 l 720 720 l 585 720 l 585 780 l cp
clip
n 1500 750 m 600 750 l gs col0 s gr gr

% arrowhead
n 720 780 m 600 750 l 720 720 l 720 750 l 720 780 l  cp gs 0.00 setgray ef gr  col0 s
% Polyline
gs  clippath
3480 720 m 3600 750 l 3480 780 l 3615 780 l 3615 720 l cp
clip
n 2700 750 m 3600 750 l gs col0 s gr gr

% arrowhead
n 3480 720 m 3600 750 l 3480 780 l 3480 750 l 3480 720 l  cp gs 0.00 setgray ef gr  col0 s
% Polyline
n 0 900 m 600 900 l 600 300 l 0 300 l 0 600 l gs col0 s gr 
% Polyline
n 600 600 m 0 600 l gs col0 s gr 
% Polyline
gs  clippath
3480 3270 m 3600 3300 l 3480 3330 l 3615 3330 l 3615 3270 l cp
clip
n 2700 3300 m 3600 3300 l gs col0 s gr gr

% arrowhead
n 3480 3270 m 3600 3300 l 3480 3330 l 3480 3300 l 3480 3270 l  cp gs 0.00 setgray ef gr  col0 s
% Polyline
gs  clippath
4920 2430 m 4800 2400 l 4920 2370 l 4785 2370 l 4785 2430 l cp
clip
n 4800 3300 m 5100 3300 l 5100 2400 l 4800 2400 l gs col0 s gr gr

% arrowhead
n 4920 2430 m 4800 2400 l 4920 2370 l 4920 2400 l 4920 2430 l  cp gs 0.00 setgray ef gr  col0 s
% Polyline
gs  clippath
1380 870 m 1500 900 l 1380 930 l 1515 930 l 1515 870 l cp
clip
n 600 900 m 1500 900 l gs col0 s gr gr

% arrowhead
n 1380 870 m 1500 900 l 1380 930 l 1380 900 l 1380 870 l  cp gs 0.00 setgray ef gr  col0 s
% Polyline
gs  clippath
2820 930 m 2700 900 l 2820 870 l 2685 870 l 2685 930 l cp
clip
n 3600 900 m 2700 900 l gs col0 s gr gr

% arrowhead
n 2820 930 m 2700 900 l 2820 870 l 2820 900 l 2820 930 l  cp gs 0.00 setgray ef gr  col0 s
% Polyline
gs  clippath
2820 4230 m 2700 4200 l 2820 4170 l 2685 4170 l 2685 4230 l cp
clip
n 4200 3600 m 4200 4200 l 2700 4200 l gs col0 s gr gr

% arrowhead
n 2820 4230 m 2700 4200 l 2820 4170 l 2820 4200 l 2820 4230 l  cp gs 0.00 setgray ef gr  col0 s
% Polyline
gs  clippath
4920 3180 m 4800 3150 l 4920 3120 l 4785 3120 l 4785 3180 l cp
clip
n 4800 2550 m 4950 2550 l 4950 3150 l 4800 3150 l gs col0 s gr gr

% arrowhead
n 4920 3180 m 4800 3150 l 4920 3120 l 4920 3150 l 4920 3180 l  cp gs 0.00 setgray ef gr  col0 s
% Polyline
n 3300 4500 m 4800 4500 l 4800 5400 l 3300 5400 l cp gs col0 s gr 
% Polyline
n 3300 5100 m 4800 5100 l gs col0 s gr 
% Polyline
n 1200 3900 m 2700 3900 l 2700 5400 l 1200 5400 l cp gs col0 s gr 
% Polyline
n 1200 4500 m 2700 4500 l gs col0 s gr 
% Polyline
gs  clippath
3180 5070 m 3300 5100 l 3180 5130 l 3315 5130 l 3315 5070 l cp
clip
n 2400 5100 m 3300 5100 l gs col0 s gr gr

% arrowhead
n 3180 5070 m 3300 5100 l 3180 5130 l 3180 5100 l 3180 5070 l  cp gs 0.00 setgray ef gr  col0 s
% Polyline
n 0 300 m 0 900 l gs col0 s gr 
/Times-Bold-iso ff 180.00 scf sf
1875 540 m
gs 1 -1 sc (Nodo) col0 sh gr
/Times-Bold-iso ff 180.00 scf sf
2205 1110 m
gs 1 -1 sc (Datos) col0 sh gr
/Times-Bold-iso ff 180.00 scf sf
690 1125 m
gs 1 -1 sc (Siguiente) col0 sh gr
/Times-Bold-iso ff 180.00 scf sf
795 600 m
gs 1 -1 sc (Previo) col0 sh gr
/Times-Bold-iso ff 180.00 scf sf
3030 1125 m
gs 1 -1 sc (Previo) col0 sh gr
/Times-Bold-iso ff 180.00 scf sf
2820 510 m
gs 1 -1 sc (Siguiente) col0 sh gr
/Times-Bold-iso ff 180.00 scf sf
1500 4215 m
gs 1 -1 sc (Estadistica) col0 sh gr
/Times-Bold-iso ff 180.00 scf sf
1965 4200 m
gs 1 -1 sc (\264) col0 sh gr
/Times-Bold-iso ff 180.00 scf sf
1950 150 m
gs 1 -1 sc (Lista   \(Caminata\)) col0 sh gr
$F2psEnd
rs
