%!PS-Adobe-2.0 EPSF-2.0
%%Title: cuspide.eps
%%Creator: fig2dev Version 3.2 Patchlevel 1
%%CreationDate: Wed Jun  2 15:52:40 1999
%%For: aspuru@oxido (Alan Aspuru Guzik)
%%Orientation: Portrait
%%BoundingBox: 0 0 218 132
%%Pages: 0
%%BeginSetup
%%EndSetup
%%Magnification: 1.0000
%%EndComments
/$F2psDict 200 dict def
$F2psDict begin
$F2psDict /mtrx matrix put
/col-1 {0 setgray} bind def
/col0 {0.000 0.000 0.000 srgb} bind def
/col1 {0.000 0.000 1.000 srgb} bind def
/col2 {0.000 1.000 0.000 srgb} bind def
/col3 {0.000 1.000 1.000 srgb} bind def
/col4 {1.000 0.000 0.000 srgb} bind def
/col5 {1.000 0.000 1.000 srgb} bind def
/col6 {1.000 1.000 0.000 srgb} bind def
/col7 {1.000 1.000 1.000 srgb} bind def
/col8 {0.000 0.000 0.560 srgb} bind def
/col9 {0.000 0.000 0.690 srgb} bind def
/col10 {0.000 0.000 0.820 srgb} bind def
/col11 {0.530 0.810 1.000 srgb} bind def
/col12 {0.000 0.560 0.000 srgb} bind def
/col13 {0.000 0.690 0.000 srgb} bind def
/col14 {0.000 0.820 0.000 srgb} bind def
/col15 {0.000 0.560 0.560 srgb} bind def
/col16 {0.000 0.690 0.690 srgb} bind def
/col17 {0.000 0.820 0.820 srgb} bind def
/col18 {0.560 0.000 0.000 srgb} bind def
/col19 {0.690 0.000 0.000 srgb} bind def
/col20 {0.820 0.000 0.000 srgb} bind def
/col21 {0.560 0.000 0.560 srgb} bind def
/col22 {0.690 0.000 0.690 srgb} bind def
/col23 {0.820 0.000 0.820 srgb} bind def
/col24 {0.500 0.190 0.000 srgb} bind def
/col25 {0.630 0.250 0.000 srgb} bind def
/col26 {0.750 0.380 0.000 srgb} bind def
/col27 {1.000 0.500 0.500 srgb} bind def
/col28 {1.000 0.630 0.630 srgb} bind def
/col29 {1.000 0.750 0.750 srgb} bind def
/col30 {1.000 0.880 0.880 srgb} bind def
/col31 {1.000 0.840 0.000 srgb} bind def

end
save
-17.0 140.0 translate
1 -1 scale

/cp {closepath} bind def
/ef {eofill} bind def
/gr {grestore} bind def
/gs {gsave} bind def
/sa {save} bind def
/rs {restore} bind def
/l {lineto} bind def
/m {moveto} bind def
/rm {rmoveto} bind def
/n {newpath} bind def
/s {stroke} bind def
/sh {show} bind def
/slc {setlinecap} bind def
/slj {setlinejoin} bind def
/slw {setlinewidth} bind def
/srgb {setrgbcolor} bind def
/rot {rotate} bind def
/sc {scale} bind def
/sd {setdash} bind def
/ff {findfont} bind def
/sf {setfont} bind def
/scf {scalefont} bind def
/sw {stringwidth} bind def
/tr {translate} bind def
/tnt {dup dup currentrgbcolor
  4 -2 roll dup 1 exch sub 3 -1 roll mul add
  4 -2 roll dup 1 exch sub 3 -1 roll mul add
  4 -2 roll dup 1 exch sub 3 -1 roll mul add srgb}
  bind def
/shd {dup dup currentrgbcolor 4 -2 roll mul 4 -2 roll mul
  4 -2 roll mul srgb} bind def
/$F2psBegin {$F2psDict begin /$F2psEnteredState save def} def
/$F2psEnd {$F2psEnteredState restore end} def
%%EndProlog

$F2psBegin
10 setmiterlimit
n -1000 3325 m -1000 -1000 l 4912 -1000 l 4912 3325 l cp clip
 0.06000 0.06000 sc
% Polyline
7.500 slw
n 300 2100 m 3900 2100 l gs col0 s gr 
% Polyline
 [15 45] 45 sd
n 2100 150 m 2100 2100 l gs col0 s gr  [] 0 sd
% Polyline
n 2100 300 m 2101 302 l 2102 306 l 2105 315 l 2109 328 l 2116 346 l
 2124 371 l 2134 401 l 2146 437 l 2161 479 l 2177 525 l
 2195 576 l 2214 630 l 2235 686 l 2256 744 l 2278 802 l
 2300 860 l 2322 917 l 2344 973 l 2366 1027 l 2388 1078 l
 2409 1128 l 2430 1175 l 2451 1219 l 2472 1261 l 2492 1300 l
 2512 1337 l 2532 1372 l 2552 1404 l 2572 1435 l 2592 1464 l
 2613 1491 l 2634 1517 l 2655 1542 l 2677 1565 l 2700 1588 l
 2725 1610 l 2750 1632 l 2777 1653 l 2804 1673 l 2833 1692 l
 2863 1710 l 2896 1728 l 2930 1746 l 2966 1763 l 3004 1779 l
 3044 1796 l 3087 1812 l 3133 1828 l 3181 1844 l 3231 1859 l
 3283 1875 l 3338 1890 l 3393 1906 l 3449 1920 l 3506 1935 l
 3561 1948 l 3615 1961 l 3666 1973 l 3713 1984 l 3756 1994 l
 3793 2002 l 3825 2009 l 3851 2015 l 3870 2019 l 3884 2022 l
 3893 2024 l 3898 2025 l 3900 2025 l gs col0 s gr 
% Polyline
n 300 2025 m 302 2025 l 307 2024 l 316 2022 l 330 2019 l 349 2015 l
 375 2009 l 407 2002 l 444 1994 l 487 1984 l 534 1973 l
 585 1961 l 639 1948 l 694 1935 l 751 1920 l 807 1906 l
 863 1890 l 917 1875 l 969 1859 l 1019 1844 l 1067 1828 l
 1113 1812 l 1156 1796 l 1196 1779 l 1234 1763 l 1270 1746 l
 1304 1728 l 1337 1710 l 1367 1692 l 1396 1673 l 1423 1653 l
 1450 1632 l 1475 1610 l 1500 1588 l 1523 1565 l 1545 1542 l
 1566 1517 l 1587 1491 l 1608 1464 l 1628 1435 l 1648 1404 l
 1668 1372 l 1688 1337 l 1708 1300 l 1728 1261 l 1749 1219 l
 1770 1175 l 1791 1128 l 1812 1078 l 1834 1027 l 1856 973 l
 1878 917 l 1900 860 l 1922 802 l 1944 744 l 1965 686 l
 1986 630 l 2005 576 l 2023 525 l 2039 479 l 2054 437 l
 2066 401 l 2076 371 l 2084 346 l 2091 328 l 2095 315 l
 2098 306 l 2099 302 l 2100 300 l gs col0 s gr 
/Symbol ff 180.00 scf sf
2325 600 m
gs 1 -1 sc (y) col0 sh gr
/Times-Bold ff 180.00 scf sf
2175 2325 m
gs 1 -1 sc (r) col0 sh gr
$F2psEnd
rs
