%!PS-Adobe-2.0 EPSF-2.0
%%Title: dimensions.eps
%%Creator: fig2dev Version 3.2 Patchlevel 1
%%CreationDate: Mon May 10 10:39:14 1999
%%For: aspuru@oxido (Alan Aspuru Guzik)
%%Orientation: Portrait
%%BoundingBox: 0 0 191 209
%%Pages: 0
%%BeginSetup
%%EndSetup
%%Magnification: 1.0000
%%EndComments
/$F2psDict 200 dict def
$F2psDict begin
$F2psDict /mtrx matrix put
/col-1 {0 setgray} bind def
/col0 {0.000 0.000 0.000 srgb} bind def
/col1 {0.000 0.000 1.000 srgb} bind def
/col2 {0.000 1.000 0.000 srgb} bind def
/col3 {0.000 1.000 1.000 srgb} bind def
/col4 {1.000 0.000 0.000 srgb} bind def
/col5 {1.000 0.000 1.000 srgb} bind def
/col6 {1.000 1.000 0.000 srgb} bind def
/col7 {1.000 1.000 1.000 srgb} bind def
/col8 {0.000 0.000 0.560 srgb} bind def
/col9 {0.000 0.000 0.690 srgb} bind def
/col10 {0.000 0.000 0.820 srgb} bind def
/col11 {0.530 0.810 1.000 srgb} bind def
/col12 {0.000 0.560 0.000 srgb} bind def
/col13 {0.000 0.690 0.000 srgb} bind def
/col14 {0.000 0.820 0.000 srgb} bind def
/col15 {0.000 0.560 0.560 srgb} bind def
/col16 {0.000 0.690 0.690 srgb} bind def
/col17 {0.000 0.820 0.820 srgb} bind def
/col18 {0.560 0.000 0.000 srgb} bind def
/col19 {0.690 0.000 0.000 srgb} bind def
/col20 {0.820 0.000 0.000 srgb} bind def
/col21 {0.560 0.000 0.560 srgb} bind def
/col22 {0.690 0.000 0.690 srgb} bind def
/col23 {0.820 0.000 0.820 srgb} bind def
/col24 {0.500 0.190 0.000 srgb} bind def
/col25 {0.630 0.250 0.000 srgb} bind def
/col26 {0.750 0.380 0.000 srgb} bind def
/col27 {1.000 0.500 0.500 srgb} bind def
/col28 {1.000 0.630 0.630 srgb} bind def
/col29 {1.000 0.750 0.750 srgb} bind def
/col30 {1.000 0.880 0.880 srgb} bind def
/col31 {1.000 0.840 0.000 srgb} bind def

end
save
-8.0 208.0 translate
1 -1 scale

/cp {closepath} bind def
/ef {eofill} bind def
/gr {grestore} bind def
/gs {gsave} bind def
/sa {save} bind def
/rs {restore} bind def
/l {lineto} bind def
/m {moveto} bind def
/rm {rmoveto} bind def
/n {newpath} bind def
/s {stroke} bind def
/sh {show} bind def
/slc {setlinecap} bind def
/slj {setlinejoin} bind def
/slw {setlinewidth} bind def
/srgb {setrgbcolor} bind def
/rot {rotate} bind def
/sc {scale} bind def
/sd {setdash} bind def
/ff {findfont} bind def
/sf {setfont} bind def
/scf {scalefont} bind def
/sw {stringwidth} bind def
/tr {translate} bind def
/tnt {dup dup currentrgbcolor
  4 -2 roll dup 1 exch sub 3 -1 roll mul add
  4 -2 roll dup 1 exch sub 3 -1 roll mul add
  4 -2 roll dup 1 exch sub 3 -1 roll mul add srgb}
  bind def
/shd {dup dup currentrgbcolor 4 -2 roll mul 4 -2 roll mul
  4 -2 roll mul srgb} bind def
/$F2psBegin {$F2psDict begin /$F2psEnteredState save def} def
/$F2psEnd {$F2psEnteredState restore end} def
%%EndProlog

$F2psBegin
10 setmiterlimit
n -1000 4462 m -1000 -1000 l 4312 -1000 l 4312 4462 l cp clip
 0.06000 0.06000 sc
% Polyline
7.500 slw
n 300 900 m 2400 900 l 2400 3000 l 300 3000 l cp gs col0 s gr 
% Polyline
n 900 300 m 3000 300 l 3000 2400 l 900 2400 l cp gs col0 s gr 
% Polyline
n 300 900 m 900 300 l gs col0 s gr 
% Polyline
n 2400 900 m 3000 300 l gs col0 s gr 
% Polyline
n 2400 3000 m 3000 2400 l gs col0 s gr 
% Polyline
n 300 3000 m 900 2400 l gs col0 s gr 
% Polyline
n 1650 0 m 1650 3450 l gs col0 s gr 
% Polyline
n 150 1650 m 3300 1650 l gs col0 s gr 
% Polyline
n 1650 1650 m 1050 2250 l gs col0 s gr 
% Polyline
n 1650 1650 m 2100 1200 l gs col0 s gr 
% Polyline
n 2100 3000 m 2100 3000 l 2100 2700 l 2100 2700 l cp gs col0 s gr 
% Polyline
n 2100 2700 m 2400 2700 l gs col0 s gr 
% Polyline
n 2550 2850 m 2550 2550 l gs col0 s gr 
% Polyline
n 2400 2700 m 2550 2550 l gs col0 s gr 
% Polyline
n 2100 2700 m 2250 2550 l gs col0 s gr 
% Polyline
n 2250 2550 m 2550 2550 l gs col0 s gr 
% Polyline
n 1800 3000 m 1800 2850 l gs col0 s gr 
% Polyline
n 1500 3000 m 1500 2850 l gs col0 s gr 
% Polyline
n 1200 3000 m 1200 2850 l gs col0 s gr 
% Polyline
n 900 3000 m 900 2850 l gs col0 s gr 
% Polyline
n 896 3000 m 904 3000 l gs col0 s gr
% Polyline
n 600 3000 m 600 2850 l gs col0 s gr 
% Polyline
n 2396 2400 m 2404 2400 l gs col0 s gr
% Polyline
n 2400 2100 m 2250 2100 l gs col0 s gr 
% Polyline
n 2400 1800 m 2250 1800 l gs col0 s gr 
% Polyline
n 2400 1500 m 2250 1500 l gs col0 s gr 
% Polyline
n 2400 1200 m 2250 1200 l gs col0 s gr 
% Polyline
n 2246 1350 m 2254 1350 l gs col0 s gr
% Polyline
gs  clippath
1380 570 m 1500 600 l 1380 630 l 1515 630 l 1515 570 l cp
870 630 m 750 600 l 870 570 l 735 570 l 735 630 l cp
clip
n 750 600 m 1500 600 l gs col0 s gr gr

% arrowhead
n 870 630 m 750 600 l 870 570 l 870 600 l 870 630 l  cp gs 0.00 setgray ef gr  col0 s
% arrowhead
n 1380 570 m 1500 600 l 1380 630 l 1380 600 l 1380 570 l  cp gs 0.00 setgray ef gr  col0 s
% Polyline
gs  clippath
2430 570 m 2550 600 l 2430 630 l 2565 630 l 2565 570 l cp
1920 630 m 1800 600 l 1920 570 l 1785 570 l 1785 630 l cp
clip
n 1800 600 m 2550 600 l gs col0 s gr gr

% arrowhead
n 1920 630 m 1800 600 l 1920 570 l 1920 600 l 1920 630 l  cp gs 0.00 setgray ef gr  col0 s
% arrowhead
n 2430 570 m 2550 600 l 2430 630 l 2430 600 l 2430 570 l  cp gs 0.00 setgray ef gr  col0 s
/Times-Bold ff 180.00 scf sf
1020 840 m
gs 1 -1 sc (a) col0 sh gr
/Times-Bold ff 180.00 scf sf
2190 525 m
gs 1 -1 sc (b) col0 sh gr
/Times-Bold ff 180.00 scf sf
1740 1920 m
gs 1 -1 sc (\(0,0,0\)) col0 sh gr
/Times-Bold ff 180.00 scf sf
600 3270 m
gs 1 -1 sc (n) col0 sh gr
$F2psEnd
rs
