#FIG 3.2
Landscape
Center
Inches
Letter  
100.00
Single
-2
1200 2
2 1 0 1 0 7 100 0 -1 0.000 0 0 -1 0 0 8
	 300 3000 1200 3000 1200 2100 2100 2100 2100 1200 3000 1200
	 3000 300 3900 300
2 1 0 1 0 7 100 0 -1 0.000 0 0 -1 0 0 4
	 300 3000 0 2700 900 2700 1200 3000
2 1 0 1 0 7 100 0 -1 0.000 0 0 -1 0 0 3
	 900 2700 900 1800 1200 2100
2 1 0 1 0 7 100 0 -1 0.000 0 0 -1 0 0 3
	 900 1800 1800 1800 2100 2100
2 1 0 1 0 7 100 0 -1 0.000 0 0 -1 0 0 3
	 1800 1800 1800 900 1800 900
2 1 0 1 0 7 100 0 -1 0.000 0 0 -1 0 0 2
	 1800 900 2100 1200
2 1 0 1 0 7 100 0 -1 0.000 0 0 -1 0 0 2
	 1800 900 2700 900
2 1 0 1 0 7 100 0 -1 0.000 0 0 -1 0 0 2
	 2700 900 3000 1200
2 1 0 1 0 7 100 0 -1 0.000 0 0 -1 0 0 3
	 2700 900 2700 0 2700 0
2 1 0 1 0 7 100 0 -1 0.000 0 0 -1 0 0 2
	 2700 0 3000 300
2 1 0 1 0 7 100 0 -1 0.000 0 0 -1 0 0 2
	 2700 0 3600 0
2 1 0 1 0 7 100 0 -1 0.000 0 0 -1 0 0 2
	 3600 0 3900 300
4 0 0 100 0 2 12 0.0000 0 135 1170 1500 2700 Nivel Cuantico\001
4 0 0 100 0 2 12 0.0000 0 180 1545 2400 1650 Nivel Mesoscopico\001
4 0 0 100 0 2 12 0.0000 0 180 2385 1500 2925 Atomos,  Moleculas y Solidos\001
4 0 0 100 0 2 12 0.0000 0 165 1665 2400 1950 Fracturas, Defectos\001
4 0 0 100 0 2 12 0.0000 0 165 1740 2400 2175 Reacciones Quimicas\001
4 0 0 100 0 2 12 0.0000 0 180 1620 3300 750 Nivel Macroscopico\001
4 0 0 100 0 2 12 0.0000 0 165 1545 3300 975 Puentes, Turbinas,\001
4 0 0 100 0 2 12 0.0000 0 180 1650 3300 1200 Medicinas,  Biologia\001
4 0 0 100 0 2 12 0.0000 0 30 60 2850 4200 \264\001
4 0 0 100 0 2 12 0.0000 0 30 60 2430 3540 \264\001
4 0 0 100 0 2 12 0.0000 0 30 60 2625 2918 \264\001
4 0 0 100 0 2 12 0.0000 0 30 60 1560 2902 \264\001
4 0 0 100 0 2 12 0.0000 0 30 60 3383 2910 \264\001
4 0 0 100 0 2 12 0.0000 0 30 60 2220 2692 \264\001
4 0 0 100 0 2 12 0.0000 0 30 60 3487 1650 \264\001
4 0 0 100 0 2 12 0.0000 0 30 60 3600 2175 \264\001
4 0 0 100 0 2 12 0.0000 0 30 60 4770 1177 \264\001
4 0 0 100 0 2 12 0.0000 0 30 60 4470 735 \264\001
