%!PS-Adobe-2.0 EPSF-2.0
%%Creator: gnuplot
%%DocumentFonts: Helvetica
%%BoundingBox: 50 50 410 302
%%EndComments
/gnudict 40 dict def
gnudict begin
/Color false def
/Solid false def
/gnulinewidth 5.000 def
/vshift -46 def
/dl {10 mul} def
/hpt 31.5 def
/vpt 31.5 def
/M {moveto} bind def
/L {lineto} bind def
/R {rmoveto} bind def
/V {rlineto} bind def
/vpt2 vpt 2 mul def
/hpt2 hpt 2 mul def
/Lshow { currentpoint stroke M
  0 vshift R show } def
/Rshow { currentpoint stroke M
  dup stringwidth pop neg vshift R show } def
/Cshow { currentpoint stroke M
  dup stringwidth pop -2 div vshift R show } def
/DL { Color {setrgbcolor Solid {pop []} if 0 setdash }
 {pop pop pop Solid {pop []} if 0 setdash} ifelse } def
/BL { stroke gnulinewidth 2 mul setlinewidth } def
/AL { stroke gnulinewidth 2 div setlinewidth } def
/PL { stroke gnulinewidth setlinewidth } def
/LTb { BL [] 0 0 0 DL } def
/LTa { AL [1 dl 2 dl] 0 setdash 0 0 0 setrgbcolor } def
/LT0 { PL [] 0 1 0 DL } def
/LT1 { PL [4 dl 2 dl] 0 0 1 DL } def
/LT2 { PL [2 dl 3 dl] 1 0 0 DL } def
/LT3 { PL [1 dl 1.5 dl] 1 0 1 DL } def
/LT4 { PL [5 dl 2 dl 1 dl 2 dl] 0 1 1 DL } def
/LT5 { PL [4 dl 3 dl 1 dl 3 dl] 1 1 0 DL } def
/LT6 { PL [2 dl 2 dl 2 dl 4 dl] 0 0 0 DL } def
/LT7 { PL [2 dl 2 dl 2 dl 2 dl 2 dl 4 dl] 1 0.3 0 DL } def
/LT8 { PL [2 dl 2 dl 2 dl 2 dl 2 dl 2 dl 2 dl 4 dl] 0.5 0.5 0.5 DL } def
/P { stroke [] 0 setdash
  currentlinewidth 2 div sub M
  0 currentlinewidth V stroke } def
/D { stroke [] 0 setdash 2 copy vpt add M
  hpt neg vpt neg V hpt vpt neg V
  hpt vpt V hpt neg vpt V closepath stroke
  P } def
/A { stroke [] 0 setdash vpt sub M 0 vpt2 V
  currentpoint stroke M
  hpt neg vpt neg R hpt2 0 V stroke
  } def
/B { stroke [] 0 setdash 2 copy exch hpt sub exch vpt add M
  0 vpt2 neg V hpt2 0 V 0 vpt2 V
  hpt2 neg 0 V closepath stroke
  P } def
/C { stroke [] 0 setdash exch hpt sub exch vpt add M
  hpt2 vpt2 neg V currentpoint stroke M
  hpt2 neg 0 R hpt2 vpt2 V stroke } def
/T { stroke [] 0 setdash 2 copy vpt 1.12 mul add M
  hpt neg vpt -1.62 mul V
  hpt 2 mul 0 V
  hpt neg vpt 1.62 mul V closepath stroke
  P  } def
/S { 2 copy A C} def
end
%%EndProlog
gnudict begin
gsave
50 50 translate
0.050 0.050 scale
0 setgray
/Helvetica findfont 140 scalefont setfont
newpath
LTa
672 211 M
0 4758 V
LTb
672 211 M
63 0 V
6234 0 R
-63 0 V
588 211 M
(0.05) Rshow
672 644 M
63 0 V
6234 0 R
-63 0 V
588 644 M
(0.1) Rshow
672 1076 M
63 0 V
6234 0 R
-63 0 V
-6318 0 R
(0.15) Rshow
672 1509 M
63 0 V
6234 0 R
-63 0 V
-6318 0 R
(0.2) Rshow
672 1941 M
63 0 V
6234 0 R
-63 0 V
-6318 0 R
(0.25) Rshow
672 2374 M
63 0 V
6234 0 R
-63 0 V
-6318 0 R
(0.3) Rshow
672 2806 M
63 0 V
6234 0 R
-63 0 V
-6318 0 R
(0.35) Rshow
672 3239 M
63 0 V
6234 0 R
-63 0 V
-6318 0 R
(0.4) Rshow
672 3671 M
63 0 V
6234 0 R
-63 0 V
-6318 0 R
(0.45) Rshow
672 4104 M
63 0 V
6234 0 R
-63 0 V
-6318 0 R
(0.5) Rshow
672 4536 M
63 0 V
6234 0 R
-63 0 V
-6318 0 R
(0.55) Rshow
672 4969 M
63 0 V
6234 0 R
-63 0 V
-6318 0 R
(0.6) Rshow
672 211 M
0 63 V
0 4695 R
0 -63 V
672 71 M
(0) Cshow
1302 211 M
0 63 V
0 4695 R
0 -63 V
1302 71 M
(10) Cshow
1931 211 M
0 63 V
0 4695 R
0 -63 V
1931 71 M
(20) Cshow
2561 211 M
0 63 V
0 4695 R
0 -63 V
2561 71 M
(30) Cshow
3191 211 M
0 63 V
0 4695 R
0 -63 V
3191 71 M
(40) Cshow
3820 211 M
0 63 V
0 4695 R
0 -63 V
3820 71 M
(50) Cshow
4450 211 M
0 63 V
0 4695 R
0 -63 V
4450 71 M
(60) Cshow
5080 211 M
0 63 V
0 4695 R
0 -63 V
5080 71 M
(70) Cshow
5710 211 M
0 63 V
0 4695 R
0 -63 V
5710 71 M
(80) Cshow
6339 211 M
0 63 V
0 4695 R
0 -63 V
6339 71 M
(90) Cshow
6969 211 M
0 63 V
0 4695 R
0 -63 V
6969 71 M
(100) Cshow
672 211 M
6297 0 V
0 4758 V
-6297 0 V
672 211 L
LT0
6486 4766 M
(0.5) Rshow
6570 4766 M
252 0 V
735 4104 M
63 0 V
63 0 V
63 0 V
63 0 V
63 0 V
63 0 V
63 0 V
63 0 V
63 0 V
63 0 V
63 0 V
63 0 V
63 0 V
63 0 V
63 0 V
62 0 V
63 0 V
63 0 V
63 0 V
63 0 V
63 0 V
63 0 V
63 0 V
63 0 V
63 0 V
63 0 V
63 0 V
63 0 V
63 0 V
63 0 V
63 0 V
63 0 V
63 0 V
63 0 V
63 0 V
63 0 V
63 0 V
63 0 V
63 0 V
63 0 V
63 0 V
63 0 V
63 0 V
63 0 V
63 0 V
63 0 V
63 0 V
63 0 V
62 0 V
63 0 V
63 0 V
63 0 V
63 0 V
63 0 V
63 0 V
63 0 V
63 0 V
63 0 V
63 0 V
63 0 V
63 0 V
63 0 V
63 0 V
63 0 V
63 0 V
63 0 V
63 0 V
63 0 V
63 0 V
63 0 V
63 0 V
63 0 V
63 0 V
63 0 V
63 0 V
63 0 V
63 0 V
63 0 V
63 0 V
63 0 V
63 0 V
63 0 V
62 0 V
63 0 V
63 0 V
63 0 V
63 0 V
63 0 V
63 0 V
63 0 V
63 0 V
63 0 V
63 0 V
63 0 V
63 0 V
63 0 V
63 0 V
63 0 V
63 0 V
LT1
6486 4626 M
("s1") Rshow
6654 4626 D
735 609 D
798 1458 D
861 2186 D
924 2661 D
987 2827 D
1050 3217 D
1113 3601 D
1176 3752 D
1239 3977 D
1302 4256 D
1365 4239 D
1428 4328 D
1491 4426 D
1554 4337 D
1617 4294 D
1680 4187 D
1742 4199 D
1805 4294 D
1868 4073 D
1931 3767 D
1994 3983 D
2057 4103 D
2120 4314 D
2183 4104 D
2246 4142 D
2309 4186 D
2372 4402 D
2435 4125 D
2498 4154 D
2561 4333 D
2624 4250 D
2687 4040 D
2750 4032 D
2813 4107 D
2876 3846 D
2939 3601 D
3002 3591 D
3065 3571 D
3128 3525 D
3191 3566 D
3254 3650 D
3317 3673 D
3380 3823 D
3443 3998 D
3506 3904 D
3569 3883 D
3632 3822 D
3695 4046 D
3758 3989 D
3820 3986 D
3883 3989 D
3946 3937 D
4009 4031 D
4072 4090 D
4135 4129 D
4198 4072 D
4261 3823 D
4324 3895 D
4387 3976 D
4450 4135 D
4513 4094 D
4576 3973 D
4639 4192 D
4702 4171 D
4765 4223 D
4828 4281 D
4891 4356 D
4954 4561 D
5017 4291 D
5080 4200 D
5143 4307 D
5206 4235 D
5269 3991 D
5332 3965 D
5395 4025 D
5458 4035 D
5521 4181 D
5584 4001 D
5647 4026 D
5710 4117 D
5773 4156 D
5836 4252 D
5899 4216 D
5961 4032 D
6024 4009 D
6087 4212 D
6150 4452 D
6213 4165 D
6276 4028 D
6339 4155 D
6402 4360 D
6465 4095 D
6528 4085 D
6591 4024 D
6654 3981 D
6717 3992 D
6780 4038 D
6843 4070 D
6906 4122 D
6969 3928 D
stroke
grestore
end
showpage
%%Trailer
