%!PS-Adobe-2.0 EPSF-2.0
%%Creator: gnuplot
%%DocumentFonts: Helvetica
%%BoundingBox: 50 50 410 302
%%EndComments
/gnudict 40 dict def
gnudict begin
/Color false def
/Solid false def
/gnulinewidth 5.000 def
/vshift -46 def
/dl {10 mul} def
/hpt 31.5 def
/vpt 31.5 def
/M {moveto} bind def
/L {lineto} bind def
/R {rmoveto} bind def
/V {rlineto} bind def
/vpt2 vpt 2 mul def
/hpt2 hpt 2 mul def
/Lshow { currentpoint stroke M
  0 vshift R show } def
/Rshow { currentpoint stroke M
  dup stringwidth pop neg vshift R show } def
/Cshow { currentpoint stroke M
  dup stringwidth pop -2 div vshift R show } def
/DL { Color {setrgbcolor Solid {pop []} if 0 setdash }
 {pop pop pop Solid {pop []} if 0 setdash} ifelse } def
/BL { stroke gnulinewidth 2 mul setlinewidth } def
/AL { stroke gnulinewidth 2 div setlinewidth } def
/PL { stroke gnulinewidth setlinewidth } def
/LTb { BL [] 0 0 0 DL } def
/LTa { AL [1 dl 2 dl] 0 setdash 0 0 0 setrgbcolor } def
/LT0 { PL [] 0 1 0 DL } def
/LT1 { PL [4 dl 2 dl] 0 0 1 DL } def
/LT2 { PL [2 dl 3 dl] 1 0 0 DL } def
/LT3 { PL [1 dl 1.5 dl] 1 0 1 DL } def
/LT4 { PL [5 dl 2 dl 1 dl 2 dl] 0 1 1 DL } def
/LT5 { PL [4 dl 3 dl 1 dl 3 dl] 1 1 0 DL } def
/LT6 { PL [2 dl 2 dl 2 dl 4 dl] 0 0 0 DL } def
/LT7 { PL [2 dl 2 dl 2 dl 2 dl 2 dl 4 dl] 1 0.3 0 DL } def
/LT8 { PL [2 dl 2 dl 2 dl 2 dl 2 dl 2 dl 2 dl 4 dl] 0.5 0.5 0.5 DL } def
/P { stroke [] 0 setdash
  currentlinewidth 2 div sub M
  0 currentlinewidth V stroke } def
/D { stroke [] 0 setdash 2 copy vpt add M
  hpt neg vpt neg V hpt vpt neg V
  hpt vpt V hpt neg vpt V closepath stroke
  P } def
/A { stroke [] 0 setdash vpt sub M 0 vpt2 V
  currentpoint stroke M
  hpt neg vpt neg R hpt2 0 V stroke
  } def
/B { stroke [] 0 setdash 2 copy exch hpt sub exch vpt add M
  0 vpt2 neg V hpt2 0 V 0 vpt2 V
  hpt2 neg 0 V closepath stroke
  P } def
/C { stroke [] 0 setdash exch hpt sub exch vpt add M
  hpt2 vpt2 neg V currentpoint stroke M
  hpt2 neg 0 R hpt2 vpt2 V stroke } def
/T { stroke [] 0 setdash 2 copy vpt 1.12 mul add M
  hpt neg vpt -1.62 mul V
  hpt 2 mul 0 V
  hpt neg vpt 1.62 mul V closepath stroke
  P  } def
/S { 2 copy A C} def
end
%%EndProlog
gnudict begin
gsave
50 50 translate
0.050 0.050 scale
0 setgray
/Helvetica findfont 140 scalefont setfont
newpath
LTa
672 211 M
6297 0 V
-3149 0 R
0 4758 V
LTb
672 211 M
63 0 V
6234 0 R
-63 0 V
588 211 M
(0) Rshow
672 806 M
63 0 V
6234 0 R
-63 0 V
588 806 M
(0.1) Rshow
672 1401 M
63 0 V
6234 0 R
-63 0 V
-6318 0 R
(0.2) Rshow
672 1995 M
63 0 V
6234 0 R
-63 0 V
-6318 0 R
(0.3) Rshow
672 2590 M
63 0 V
6234 0 R
-63 0 V
-6318 0 R
(0.4) Rshow
672 3185 M
63 0 V
6234 0 R
-63 0 V
-6318 0 R
(0.5) Rshow
672 3780 M
63 0 V
6234 0 R
-63 0 V
-6318 0 R
(0.6) Rshow
672 4374 M
63 0 V
6234 0 R
-63 0 V
-6318 0 R
(0.7) Rshow
672 4969 M
63 0 V
6234 0 R
-63 0 V
-6318 0 R
(0.8) Rshow
1122 211 M
0 63 V
0 4695 R
0 -63 V
1122 71 M
(-3) Cshow
2021 211 M
0 63 V
0 4695 R
0 -63 V
2021 71 M
(-2) Cshow
2921 211 M
0 63 V
0 4695 R
0 -63 V
2921 71 M
(-1) Cshow
3820 211 M
0 63 V
0 4695 R
0 -63 V
3820 71 M
(0) Cshow
4720 211 M
0 63 V
0 4695 R
0 -63 V
4720 71 M
(1) Cshow
5620 211 M
0 63 V
0 4695 R
0 -63 V
5620 71 M
(2) Cshow
6519 211 M
0 63 V
0 4695 R
0 -63 V
6519 71 M
(3) Cshow
672 211 M
6297 0 V
0 4758 V
-6297 0 V
672 211 L
LT0
6486 4766 M
(pi**\(-0.25\)*exp\(-x**2/2\)) Rshow
6570 4766 M
252 0 V
672 221 M
64 2 V
63 4 V
64 4 V
63 5 V
64 7 V
64 7 V
63 10 V
64 11 V
63 14 V
64 16 V
64 20 V
63 23 V
64 27 V
63 31 V
64 37 V
64 42 V
63 49 V
64 55 V
64 63 V
63 70 V
64 79 V
63 89 V
64 97 V
64 107 V
63 117 V
64 127 V
63 137 V
64 147 V
64 155 V
63 165 V
64 172 V
63 179 V
64 184 V
64 188 V
63 191 V
64 192 V
63 190 V
64 187 V
64 181 V
63 174 V
64 164 V
63 152 V
64 139 V
64 122 V
63 105 V
64 86 V
63 65 V
64 44 V
64 23 V
63 0 V
64 -23 V
64 -44 V
63 -65 V
64 -86 V
63 -105 V
64 -122 V
64 -139 V
63 -152 V
64 -164 V
63 -174 V
64 -181 V
64 -187 V
63 -190 V
64 -192 V
63 -191 V
64 -188 V
64 -184 V
63 -179 V
64 -172 V
63 -165 V
64 -155 V
64 -147 V
63 -137 V
64 -127 V
63 -117 V
64 -107 V
64 -97 V
63 -89 V
64 -79 V
63 -70 V
64 -63 V
64 -55 V
63 -49 V
64 -42 V
64 -37 V
63 -31 V
64 -27 V
63 -23 V
64 -20 V
64 -16 V
63 -14 V
64 -11 V
63 -10 V
64 -7 V
64 -7 V
63 -5 V
64 -4 V
63 -4 V
64 -2 V
LT1
6486 4626 M
("psi") Rshow
6654 4626 D
717 222 D
771 224 D
825 228 D
879 232 D
933 236 D
987 241 D
1041 247 D
1095 257 D
1149 267 D
1203 278 D
1257 288 D
1311 304 D
1365 319 D
1419 336 D
1473 365 D
1527 388 D
1581 412 D
1635 446 D
1689 479 D
1742 526 D
1796 574 D
1850 620 D
1904 670 D
1958 731 D
2012 798 D
2066 876 D
2120 947 D
2174 1045 D
2228 1138 D
2282 1235 D
2336 1357 D
2390 1461 D
2444 1597 D
2498 1722 D
2552 1846 D
2606 2010 D
2660 2127 D
2714 2300 D
2768 2452 D
2822 2615 D
2876 2787 D
2930 2926 D
2984 3107 D
3038 3280 D
3092 3410 D
3146 3602 D
3200 3755 D
3254 3878 D
3308 4038 D
3362 4121 D
3416 4258 D
3470 4345 D
3524 4465 D
3578 4540 D
3632 4607 D
3686 4615 D
3740 4672 D
3794 4649 D
3847 4692 D
3901 4696 D
3955 4653 D
4009 4610 D
4063 4520 D
4117 4432 D
4171 4343 D
4225 4227 D
4279 4105 D
4333 4021 D
4387 3869 D
4441 3729 D
4495 3590 D
4549 3424 D
4603 3248 D
4657 3087 D
4711 2947 D
4765 2776 D
4819 2618 D
4873 2459 D
4927 2281 D
4981 2165 D
5035 2005 D
5089 1859 D
5143 1713 D
5197 1593 D
5251 1456 D
5305 1345 D
5359 1243 D
5413 1133 D
5467 1042 D
5521 945 D
5575 870 D
5629 790 D
5683 723 D
5737 659 D
5791 615 D
5845 559 D
5899 523 D
5952 480 D
6006 438 D
6060 412 D
6114 383 D
6168 361 D
6222 336 D
6276 318 D
6330 301 D
6384 288 D
6438 277 D
6492 266 D
6546 255 D
6600 249 D
6654 243 D
6708 236 D
6762 234 D
6816 228 D
6870 225 D
6924 221 D
stroke
grestore
end
showpage
%%Trailer
