%!PS-Adobe-2.0 EPSF-2.0
%%Creator: gnuplot
%%DocumentFonts: Helvetica
%%BoundingBox: 50 50 410 302
%%EndComments
/gnudict 40 dict def
gnudict begin
/Color false def
/Solid false def
/gnulinewidth 5.000 def
/vshift -46 def
/dl {10 mul} def
/hpt 31.5 def
/vpt 31.5 def
/M {moveto} bind def
/L {lineto} bind def
/R {rmoveto} bind def
/V {rlineto} bind def
/vpt2 vpt 2 mul def
/hpt2 hpt 2 mul def
/Lshow { currentpoint stroke M
  0 vshift R show } def
/Rshow { currentpoint stroke M
  dup stringwidth pop neg vshift R show } def
/Cshow { currentpoint stroke M
  dup stringwidth pop -2 div vshift R show } def
/DL { Color {setrgbcolor Solid {pop []} if 0 setdash }
 {pop pop pop Solid {pop []} if 0 setdash} ifelse } def
/BL { stroke gnulinewidth 2 mul setlinewidth } def
/AL { stroke gnulinewidth 2 div setlinewidth } def
/PL { stroke gnulinewidth setlinewidth } def
/LTb { BL [] 0 0 0 DL } def
/LTa { AL [1 dl 2 dl] 0 setdash 0 0 0 setrgbcolor } def
/LT0 { PL [] 0 1 0 DL } def
/LT1 { PL [4 dl 2 dl] 0 0 1 DL } def
/LT2 { PL [2 dl 3 dl] 1 0 0 DL } def
/LT3 { PL [1 dl 1.5 dl] 1 0 1 DL } def
/LT4 { PL [5 dl 2 dl 1 dl 2 dl] 0 1 1 DL } def
/LT5 { PL [4 dl 3 dl 1 dl 3 dl] 1 1 0 DL } def
/LT6 { PL [2 dl 2 dl 2 dl 4 dl] 0 0 0 DL } def
/LT7 { PL [2 dl 2 dl 2 dl 2 dl 2 dl 4 dl] 1 0.3 0 DL } def
/LT8 { PL [2 dl 2 dl 2 dl 2 dl 2 dl 2 dl 2 dl 4 dl] 0.5 0.5 0.5 DL } def
/P { stroke [] 0 setdash
  currentlinewidth 2 div sub M
  0 currentlinewidth V stroke } def
/D { stroke [] 0 setdash 2 copy vpt add M
  hpt neg vpt neg V hpt vpt neg V
  hpt vpt V hpt neg vpt V closepath stroke
  P } def
/A { stroke [] 0 setdash vpt sub M 0 vpt2 V
  currentpoint stroke M
  hpt neg vpt neg R hpt2 0 V stroke
  } def
/B { stroke [] 0 setdash 2 copy exch hpt sub exch vpt add M
  0 vpt2 neg V hpt2 0 V 0 vpt2 V
  hpt2 neg 0 V closepath stroke
  P } def
/C { stroke [] 0 setdash exch hpt sub exch vpt add M
  hpt2 vpt2 neg V currentpoint stroke M
  hpt2 neg 0 R hpt2 vpt2 V stroke } def
/T { stroke [] 0 setdash 2 copy vpt 1.12 mul add M
  hpt neg vpt -1.62 mul V
  hpt 2 mul 0 V
  hpt neg vpt 1.62 mul V closepath stroke
  P  } def
/S { 2 copy A C} def
end
%%EndProlog
gnudict begin
gsave
50 50 translate
0.050 0.050 scale
0 setgray
/Helvetica findfont 140 scalefont setfont
newpath
LTa
672 211 M
6297 0 V
672 211 M
0 4758 V
LTb
672 4969 M
63 0 V
6234 0 R
-63 0 V
-6318 0 R
(-0.2) Rshow
672 3780 M
63 0 V
6234 0 R
-63 0 V
-6318 0 R
(-0.15) Rshow
672 2590 M
63 0 V
6234 0 R
-63 0 V
-6318 0 R
(-0.1) Rshow
672 1401 M
63 0 V
6234 0 R
-63 0 V
-6318 0 R
(-0.05) Rshow
672 211 M
63 0 V
6234 0 R
-63 0 V
588 211 M
(0) Rshow
672 211 M
0 63 V
0 4695 R
0 -63 V
672 71 M
(0) Cshow
1722 211 M
0 63 V
0 4695 R
0 -63 V
1722 71 M
(20) Cshow
2771 211 M
0 63 V
0 4695 R
0 -63 V
2771 71 M
(40) Cshow
3821 211 M
0 63 V
0 4695 R
0 -63 V
3821 71 M
(60) Cshow
4870 211 M
0 63 V
0 4695 R
0 -63 V
4870 71 M
(80) Cshow
5920 211 M
0 63 V
0 4695 R
0 -63 V
5920 71 M
(100) Cshow
6969 211 M
0 63 V
0 4695 R
0 -63 V
6969 71 M
(120) Cshow
672 211 M
6297 0 V
0 4758 V
-6297 0 V
672 211 L
LT0
6486 4766 M
(Eo) Rshow
6570 4766 M
252 0 V
724 3185 M
63 0 V
63 0 V
62 0 V
63 0 V
62 0 V
63 0 V
62 0 V
63 0 V
62 0 V
63 0 V
62 0 V
63 0 V
63 0 V
62 0 V
63 0 V
62 0 V
63 0 V
62 0 V
63 0 V
62 0 V
63 0 V
62 0 V
63 0 V
63 0 V
62 0 V
63 0 V
62 0 V
63 0 V
62 0 V
63 0 V
62 0 V
63 0 V
62 0 V
63 0 V
63 0 V
62 0 V
63 0 V
62 0 V
63 0 V
62 0 V
63 0 V
62 0 V
63 0 V
62 0 V
63 0 V
63 0 V
62 0 V
63 0 V
62 0 V
63 0 V
62 0 V
63 0 V
62 0 V
63 0 V
63 0 V
62 0 V
63 0 V
62 0 V
63 0 V
62 0 V
63 0 V
62 0 V
63 0 V
62 0 V
63 0 V
63 0 V
62 0 V
63 0 V
62 0 V
63 0 V
62 0 V
63 0 V
62 0 V
63 0 V
62 0 V
63 0 V
63 0 V
62 0 V
63 0 V
62 0 V
63 0 V
62 0 V
63 0 V
62 0 V
63 0 V
62 0 V
63 0 V
63 0 V
62 0 V
63 0 V
62 0 V
63 0 V
62 0 V
63 0 V
62 0 V
63 0 V
62 0 V
63 0 V
63 0 V
LT1
6486 4626 M
(Simulacion DMC) Rshow
6654 4626 D
724 2449 D
777 3665 D
829 3601 D
882 3405 D
934 3548 D
987 3567 D
1039 3547 D
1092 3284 D
1144 3001 D
1197 3584 D
1249 3596 D
1302 3428 D
1354 3109 D
1407 3272 D
1459 3208 D
1512 3106 D
1564 2707 D
1617 3259 D
1669 3114 D
1722 3202 D
1774 3439 D
1826 3422 D
1879 3490 D
1931 3093 D
1984 2939 D
2036 3291 D
2089 3491 D
2141 3245 D
2194 2910 D
2246 3358 D
2299 3529 D
2351 3186 D
2404 3312 D
2456 2979 D
2509 2897 D
2561 3013 D
2614 3004 D
2666 3275 D
2719 3227 D
2771 3350 D
2823 3325 D
2876 2923 D
2928 3240 D
2981 3223 D
3033 3318 D
3086 3188 D
3138 3186 D
3191 3175 D
3243 3401 D
3296 3192 D
3348 3541 D
3401 3382 D
3453 3025 D
3506 3382 D
3558 3011 D
3611 3232 D
3663 3101 D
3716 3447 D
3768 3527 D
3821 3227 D
3873 3340 D
3925 2917 D
3978 2641 D
4030 3189 D
4083 3108 D
4135 3010 D
4188 3678 D
4240 3562 D
4293 3227 D
4345 3346 D
4398 2853 D
4450 3454 D
4503 3239 D
4555 3158 D
4608 3176 D
4660 3311 D
4713 3591 D
4765 3085 D
4818 3602 D
4870 3418 D
4922 3380 D
4975 3179 D
5027 3635 D
5080 3262 D
5132 3012 D
5185 3073 D
5237 2917 D
5290 3091 D
5342 2839 D
5395 3200 D
5447 3306 D
5500 3617 D
5552 3211 D
5605 3674 D
5657 3373 D
5710 2825 D
5762 3204 D
5815 3212 D
5867 3116 D
5920 3486 D
5972 2565 D
6024 3251 D
6077 3462 D
6129 3534 D
6182 3509 D
6234 3557 D
6287 3152 D
6339 3065 D
6392 3155 D
6444 3037 D
6497 3320 D
6549 3051 D
6602 2830 D
6654 3228 D
6707 3247 D
6759 3636 D
6812 3315 D
6864 3132 D
6917 3117 D
stroke
grestore
end
showpage
%%Trailer
