%!PS-Adobe-2.0 EPSF-2.0
%%Creator: gnuplot
%%DocumentFonts: Helvetica
%%BoundingBox: 50 50 410 302
%%EndComments
/gnudict 40 dict def
gnudict begin
/Color false def
/Solid false def
/gnulinewidth 5.000 def
/vshift -46 def
/dl {10 mul} def
/hpt 31.5 def
/vpt 31.5 def
/M {moveto} bind def
/L {lineto} bind def
/R {rmoveto} bind def
/V {rlineto} bind def
/vpt2 vpt 2 mul def
/hpt2 hpt 2 mul def
/Lshow { currentpoint stroke M
  0 vshift R show } def
/Rshow { currentpoint stroke M
  dup stringwidth pop neg vshift R show } def
/Cshow { currentpoint stroke M
  dup stringwidth pop -2 div vshift R show } def
/DL { Color {setrgbcolor Solid {pop []} if 0 setdash }
 {pop pop pop Solid {pop []} if 0 setdash} ifelse } def
/BL { stroke gnulinewidth 2 mul setlinewidth } def
/AL { stroke gnulinewidth 2 div setlinewidth } def
/PL { stroke gnulinewidth setlinewidth } def
/LTb { BL [] 0 0 0 DL } def
/LTa { AL [1 dl 2 dl] 0 setdash 0 0 0 setrgbcolor } def
/LT0 { PL [] 0 1 0 DL } def
/LT1 { PL [4 dl 2 dl] 0 0 1 DL } def
/LT2 { PL [2 dl 3 dl] 1 0 0 DL } def
/LT3 { PL [1 dl 1.5 dl] 1 0 1 DL } def
/LT4 { PL [5 dl 2 dl 1 dl 2 dl] 0 1 1 DL } def
/LT5 { PL [4 dl 3 dl 1 dl 3 dl] 1 1 0 DL } def
/LT6 { PL [2 dl 2 dl 2 dl 4 dl] 0 0 0 DL } def
/LT7 { PL [2 dl 2 dl 2 dl 2 dl 2 dl 4 dl] 1 0.3 0 DL } def
/LT8 { PL [2 dl 2 dl 2 dl 2 dl 2 dl 2 dl 2 dl 4 dl] 0.5 0.5 0.5 DL } def
/P { stroke [] 0 setdash
  currentlinewidth 2 div sub M
  0 currentlinewidth V stroke } def
/D { stroke [] 0 setdash 2 copy vpt add M
  hpt neg vpt neg V hpt vpt neg V
  hpt vpt V hpt neg vpt V closepath stroke
  P } def
/A { stroke [] 0 setdash vpt sub M 0 vpt2 V
  currentpoint stroke M
  hpt neg vpt neg R hpt2 0 V stroke
  } def
/B { stroke [] 0 setdash 2 copy exch hpt sub exch vpt add M
  0 vpt2 neg V hpt2 0 V 0 vpt2 V
  hpt2 neg 0 V closepath stroke
  P } def
/C { stroke [] 0 setdash exch hpt sub exch vpt add M
  hpt2 vpt2 neg V currentpoint stroke M
  hpt2 neg 0 R hpt2 vpt2 V stroke } def
/T { stroke [] 0 setdash 2 copy vpt 1.12 mul add M
  hpt neg vpt -1.62 mul V
  hpt 2 mul 0 V
  hpt neg vpt 1.62 mul V closepath stroke
  P  } def
/S { 2 copy A C} def
end
%%EndProlog
gnudict begin
gsave
50 50 translate
0.050 0.050 scale
0 setgray
/Helvetica findfont 140 scalefont setfont
newpath
LTa
672 211 M
6297 0 V
-3778 0 R
0 4758 V
LTb
672 211 M
63 0 V
6234 0 R
-63 0 V
588 211 M
(0) Rshow
672 891 M
63 0 V
6234 0 R
-63 0 V
588 891 M
(0.1) Rshow
672 1570 M
63 0 V
6234 0 R
-63 0 V
-6318 0 R
(0.2) Rshow
672 2250 M
63 0 V
6234 0 R
-63 0 V
-6318 0 R
(0.3) Rshow
672 2930 M
63 0 V
6234 0 R
-63 0 V
-6318 0 R
(0.4) Rshow
672 3610 M
63 0 V
6234 0 R
-63 0 V
-6318 0 R
(0.5) Rshow
672 4289 M
63 0 V
6234 0 R
-63 0 V
-6318 0 R
(0.6) Rshow
672 4969 M
63 0 V
6234 0 R
-63 0 V
-6318 0 R
(0.7) Rshow
672 211 M
0 63 V
0 4695 R
0 -63 V
672 71 M
(-4) Cshow
1931 211 M
0 63 V
0 4695 R
0 -63 V
1931 71 M
(-2) Cshow
3191 211 M
0 63 V
0 4695 R
0 -63 V
3191 71 M
(0) Cshow
4450 211 M
0 63 V
0 4695 R
0 -63 V
4450 71 M
(2) Cshow
5710 211 M
0 63 V
0 4695 R
0 -63 V
5710 71 M
(4) Cshow
6969 211 M
0 63 V
0 4695 R
0 -63 V
6969 71 M
(6) Cshow
672 211 M
6297 0 V
0 4758 V
-6297 0 V
672 211 L
LT0
6486 4766 M
(sqrt\(2\)*exp\(-exp\(-x\)-\(x/2\)\)) Rshow
6570 4766 M
252 0 V
672 211 M
64 0 V
63 0 V
64 0 V
63 0 V
64 0 V
64 0 V
63 0 V
64 0 V
63 0 V
64 0 V
64 0 V
63 0 V
64 0 V
63 0 V
64 0 V
64 1 V
63 1 V
64 2 V
64 5 V
63 10 V
64 16 V
63 28 V
64 43 V
64 62 V
63 86 V
64 114 V
63 143 V
64 174 V
64 203 V
63 229 V
64 251 V
63 268 V
64 277 V
64 280 V
63 276 V
64 267 V
63 250 V
64 231 V
64 207 V
63 182 V
64 153 V
63 126 V
64 98 V
64 71 V
63 45 V
64 21 V
63 0 V
64 -21 V
64 -38 V
63 -54 V
64 -67 V
64 -79 V
63 -88 V
64 -95 V
63 -102 V
64 -107 V
64 -109 V
63 -112 V
64 -114 V
63 -114 V
64 -113 V
64 -112 V
63 -111 V
64 -109 V
63 -107 V
64 -104 V
64 -102 V
63 -98 V
64 -95 V
63 -92 V
64 -89 V
64 -86 V
63 -83 V
64 -79 V
63 -76 V
64 -73 V
64 -70 V
63 -67 V
64 -64 V
63 -62 V
64 -58 V
64 -56 V
63 -54 V
64 -51 V
64 -48 V
63 -47 V
64 -44 V
63 -42 V
64 -40 V
64 -39 V
63 -36 V
64 -35 V
63 -33 V
64 -31 V
64 -30 V
63 -29 V
64 -27 V
63 -26 V
64 -25 V
LT1
6486 4626 M
(Simulacion ) Rshow
6654 4626 D
678 211 D
716 211 D
754 211 D
792 211 D
829 211 D
867 211 D
905 211 D
943 211 D
981 211 D
1018 211 D
1056 211 D
1094 211 D
1132 211 D
1169 211 D
1207 211 D
1245 211 D
1283 211 D
1321 211 D
1358 211 D
1396 211 D
1434 211 D
1472 211 D
1510 211 D
1547 211 D
1585 211 D
1623 211 D
1661 211 D
1698 211 D
1736 212 D
1774 212 D
1812 214 D
1850 217 D
1887 218 D
1925 225 D
1963 231 D
2001 239 D
2038 252 D
2076 275 D
2114 298 D
2152 330 D
2190 369 D
2227 421 D
2265 476 D
2303 536 D
2341 611 D
2378 716 D
2416 820 D
2454 939 D
2492 1038 D
2530 1185 D
2567 1323 D
2605 1483 D
2643 1637 D
2681 1801 D
2719 1985 D
2756 2145 D
2794 2316 D
2832 2469 D
2870 2701 D
2907 2834 D
2945 3009 D
2983 3162 D
3021 3237 D
3059 3396 D
3096 3557 D
3134 3683 D
3172 3718 D
3210 3869 D
3247 3992 D
3285 4050 D
3323 4128 D
3361 4179 D
3399 4199 D
3436 4301 D
3474 4309 D
3512 4352 D
3550 4381 D
3588 4328 D
3625 4332 D
3663 4342 D
3701 4326 D
3739 4313 D
3776 4289 D
3814 4250 D
3852 4229 D
3890 4202 D
3928 4102 D
3965 4083 D
4003 3997 D
4041 3956 D
4079 3954 D
4116 3889 D
4154 3776 D
4192 3743 D
4230 3654 D
4268 3614 D
4305 3511 D
4343 3488 D
4381 3436 D
4419 3330 D
4456 3228 D
4494 3160 D
4532 3104 D
4570 3045 D
4608 2981 D
4645 2931 D
4683 2859 D
4721 2763 D
4759 2708 D
4797 2677 D
4834 2568 D
4872 2521 D
4910 2474 D
4948 2401 D
4985 2380 D
5023 2310 D
5061 2207 D
5099 2198 D
5137 2146 D
5174 2057 D
5212 2038 D
5250 1990 D
5288 1917 D
5325 1875 D
5363 1822 D
5401 1768 D
5439 1716 D
5477 1677 D
5514 1676 D
5552 1646 D
5590 1605 D
5628 1554 D
5666 1509 D
5703 1438 D
5741 1440 D
5779 1410 D
5817 1368 D
5854 1324 D
5892 1308 D
5930 1254 D
5968 1235 D
6006 1219 D
6043 1190 D
6081 1130 D
6119 1134 D
6157 1089 D
6194 1060 D
6232 1038 D
6270 1013 D
6308 985 D
6346 972 D
6383 955 D
6421 923 D
6459 901 D
6497 876 D
6535 865 D
6572 840 D
6610 829 D
6648 791 D
6686 795 D
6723 770 D
6761 745 D
6799 743 D
6837 722 D
6875 703 D
6912 670 D
6950 211 D
stroke
grestore
end
showpage
%%Trailer
