%!PS-Adobe-2.0 EPSF-2.0
%%Title: hidrogenois.eps
%%Creator: fig2dev Version 3.2 Patchlevel 1
%%CreationDate: Thu Apr 22 12:19:56 1999
%%For: aspuru@oxido (Alan Aspuru Guzik)
%%Orientation: Portrait
%%BoundingBox: 0 0 349 215
%%Pages: 0
%%BeginSetup
%%EndSetup
%%Magnification: 1.0000
%%EndComments
/MyAppDict 100 dict dup begin def
/$F2psDict 200 dict def
$F2psDict begin
$F2psDict /mtrx matrix put
/col-1 {0 setgray} bind def
/col0 {0.000 0.000 0.000 srgb} bind def
/col1 {0.000 0.000 1.000 srgb} bind def
/col2 {0.000 1.000 0.000 srgb} bind def
/col3 {0.000 1.000 1.000 srgb} bind def
/col4 {1.000 0.000 0.000 srgb} bind def
/col5 {1.000 0.000 1.000 srgb} bind def
/col6 {1.000 1.000 0.000 srgb} bind def
/col7 {1.000 1.000 1.000 srgb} bind def
/col8 {0.000 0.000 0.560 srgb} bind def
/col9 {0.000 0.000 0.690 srgb} bind def
/col10 {0.000 0.000 0.820 srgb} bind def
/col11 {0.530 0.810 1.000 srgb} bind def
/col12 {0.000 0.560 0.000 srgb} bind def
/col13 {0.000 0.690 0.000 srgb} bind def
/col14 {0.000 0.820 0.000 srgb} bind def
/col15 {0.000 0.560 0.560 srgb} bind def
/col16 {0.000 0.690 0.690 srgb} bind def
/col17 {0.000 0.820 0.820 srgb} bind def
/col18 {0.560 0.000 0.000 srgb} bind def
/col19 {0.690 0.000 0.000 srgb} bind def
/col20 {0.820 0.000 0.000 srgb} bind def
/col21 {0.560 0.000 0.560 srgb} bind def
/col22 {0.690 0.000 0.690 srgb} bind def
/col23 {0.820 0.000 0.820 srgb} bind def
/col24 {0.500 0.190 0.000 srgb} bind def
/col25 {0.630 0.250 0.000 srgb} bind def
/col26 {0.750 0.380 0.000 srgb} bind def
/col27 {1.000 0.500 0.500 srgb} bind def
/col28 {1.000 0.630 0.630 srgb} bind def
/col29 {1.000 0.750 0.750 srgb} bind def
/col30 {1.000 0.880 0.880 srgb} bind def
/col31 {1.000 0.840 0.000 srgb} bind def

end
save
-34.0 236.0 translate
1 -1 scale
.9 .9 scale % to make patterns same scale as in xfig

% This junk string is used by the show operators
/PATsstr 1 string def
/PATawidthshow { 	% cx cy cchar rx ry string
  % Loop over each character in the string
  {  % cx cy cchar rx ry char
    % Show the character
    dup				% cx cy cchar rx ry char char
    PATsstr dup 0 4 -1 roll put	% cx cy cchar rx ry char (char)
    false charpath		% cx cy cchar rx ry char
    /clip load PATdraw
    % Move past the character (charpath modified the
    % current point)
    currentpoint			% cx cy cchar rx ry char x y
    newpath
    moveto			% cx cy cchar rx ry char
    % Reposition by cx,cy if the character in the string is cchar
    3 index eq {			% cx cy cchar rx ry
      4 index 4 index rmoveto
    } if
    % Reposition all characters by rx ry
    2 copy rmoveto		% cx cy cchar rx ry
  } forall
  pop pop pop pop pop		% -
  currentpoint
  newpath
  moveto
} bind def
/PATcg {
  7 dict dup begin
    /lw currentlinewidth def
    /lc currentlinecap def
    /lj currentlinejoin def
    /ml currentmiterlimit def
    /ds [ currentdash ] def
    /cc [ currentrgbcolor ] def
    /cm matrix currentmatrix def
  end
} bind def
% PATdraw - calculates the boundaries of the object and
% fills it with the current pattern
/PATdraw {			% proc
  save exch
    PATpcalc			% proc nw nh px py
    5 -1 roll exec		% nw nh px py
    newpath
    PATfill			% -
  restore
} bind def
% PATfill - performs the tiling for the shape
/PATfill { % nw nh px py PATfill -
  PATDict /CurrentPattern get dup begin
    setfont
    % Set the coordinate system to Pattern Space
    PatternGState PATsg
    % Set the color for uncolored pattezns
    PaintType 2 eq { PATDict /PColor get PATsc } if
    % Create the string for showing
    3 index string		% nw nh px py str
    % Loop for each of the pattern sources
    0 1 Multi 1 sub {		% nw nh px py str source
	% Move to the starting location
	3 index 3 index		% nw nh px py str source px py
	moveto			% nw nh px py str source
	% For multiple sources, set the appropriate color
	Multi 1 ne { dup PC exch get PATsc } if
	% Set the appropriate string for the source
	0 1 7 index 1 sub { 2 index exch 2 index put } for pop
	% Loop over the number of vertical cells
	3 index 		% nw nh px py str nh
	{			% nw nh px py str
	  currentpoint		% nw nh px py str cx cy
	  2 index show		% nw nh px py str cx cy
	  YStep add moveto	% nw nh px py str
	} repeat		% nw nh px py str
    } for
    5 { pop } repeat
  end
} bind def

% PATkshow - kshow with the current pattezn
/PATkshow {			% proc string
  exch bind			% string proc
  1 index 0 get			% string proc char
  % Loop over all but the last character in the string
  0 1 4 index length 2 sub {
				% string proc char idx
    % Find the n+1th character in the string
    3 index exch 1 add get	% string proe char char+1
    exch 2 copy			% strinq proc char+1 char char+1 char
    % Now show the nth character
    PATsstr dup 0 4 -1 roll put	% string proc chr+1 chr chr+1 (chr)
    false charpath		% string proc char+1 char char+1
    /clip load PATdraw
    % Move past the character (charpath modified the current point)
    currentpoint newpath moveto
    % Execute the user proc (should consume char and char+1)
    mark 3 1 roll		% string proc char+1 mark char char+1
    4 index exec		% string proc char+1 mark...
    cleartomark			% string proc char+1
  } for
  % Now display the last character
  PATsstr dup 0 4 -1 roll put	% string proc (char+1)
  false charpath		% string proc
  /clip load PATdraw
  neewath
  pop pop			% -
} bind def
% PATmp - the makepattern equivalent
/PATmp {			% patdict patmtx PATmp patinstance
  exch dup length 7 add		% We will add 6 new entries plus 1 FID
  dict copy			% Create a new dictionary
  begin
    % Matrix to install when painting the pattern
    TilingType PATtcalc
    /PatternGState PATcg def
    PatternGState /cm 3 -1 roll put
    % Check for multi pattern sources (Level 1 fast color patterns)
    currentdict /Multi known not { /Multi 1 def } if
    % Font dictionary definitions
    /FontType 3 def
    % Create a dummy encoding vector
    /Encoding 256 array def
    3 string 0 1 255 {
      Encoding exch dup 3 index cvs cvn put } for pop
    /FontMatrix matrix def
    /FontBBox BBox def
    /BuildChar {
	mark 3 1 roll		% mark dict char
	exch begin
	Multi 1 ne {PaintData exch get}{pop} ifelse  % mark [paintdata]
	  PaintType 2 eq Multi 1 ne or
	  { XStep 0 FontBBox aload pop setcachedevice }
	  { XStep 0 setcharwidth } ifelse
	  currentdict		% mark [paintdata] dict
	  /PaintProc load	% mark [paintdata] dict paintproc
	end
	gsave
	  false PATredef exec true PATredef
	grestore
	cleartomark		% -
    } bind def
    currentdict
  end				% newdict
  /foo exch			% /foo newlict
  definefont			% newfont
} bind def
% PATpcalc - calculates the starting point and width/height
% of the tile fill for the shape
/PATpcalc {	% - PATpcalc nw nh px py
  PATDict /CurrentPattern get begin
    gsave
	% Set up the coordinate system to Pattern Space
	% and lock down pattern
	PatternGState /cm get setmatrix
	BBox aload pop pop pop translate
	% Determine the bounding box of the shape
	pathbbox			% llx lly urx ury
    grestore
    % Determine (nw, nh) the # of cells to paint width and height
    PatHeight div ceiling		% llx lly urx qh
    4 1 roll				% qh llx lly urx
    PatWidth div ceiling		% qh llx lly qw
    4 1 roll				% qw qh llx lly
    PatHeight div floor			% qw qh llx ph
    4 1 roll				% ph qw qh llx
    PatWidth div floor			% ph qw qh pw
    4 1 roll				% pw ph qw qh
    2 index sub cvi abs			% pw ph qs qh-ph
    exch 3 index sub cvi abs exch	% pw ph nw=qw-pw nh=qh-ph
    % Determine the starting point of the pattern fill
    %(px, py)
    4 2 roll				% nw nh pw ph
    PatHeight mul			% nw nh pw py
    exch				% nw nh py pw
    PatWidth mul exch			% nw nh px py
  end
} bind def

% Save the original routines so that we can use them later on
/oldfill	/fill load def
/oldeofill	/eofill load def
/oldstroke	/stroke load def
/oldshow	/show load def
/oldashow	/ashow load def
/oldwidthshow	/widthshow load def
/oldawidthshow	/awidthshow load def
/oldkshow	/kshow load def

% These defs are necessary so that subsequent procs don't bind in
% the originals
/fill	   { oldfill } bind def
/eofill	   { oldeofill } bind def
/stroke	   { oldstroke } bind def
/show	   { oldshow } bind def
/ashow	   { oldashow } bind def
/widthshow { oldwidthshow } bind def
/awidthshow { oldawidthshow } bind def
/kshow 	   { oldkshow } bind def
/PATredef {
  MyAppDict begin
    {
    /fill { /clip load PATdraw newpath } bind def
    /eofill { /eoclip load PATdraw newpath } bind def
    /stroke { PATstroke } bind def
    /show { 0 0 null 0 0 6 -1 roll PATawidthshow } bind def
    /ashow { 0 0 null 6 3 roll PATawidthshow }
    bind def
    /widthshow { 0 0 3 -1 roll PATawidthshow }
    bind def
    /awidthshow { PATawidthshow } bind def
    /kshow { PATkshow } bind def
  } {
    /fill   { oldfill } bind def
    /eofill { oldeofill } bind def
    /stroke { oldstroke } bind def
    /show   { oldshow } bind def
    /ashow  { oldashow } bind def
    /widthshow { oldwidthshow } bind def
    /awidthshow { oldawidthshow } bind def
    /kshow  { oldkshow } bind def
    } ifelse
  end
} bind def
false PATredef
% Conditionally define setcmykcolor if not available
/setcmykcolor where { pop } {
  /setcmykcolor {
    1 sub 4 1 roll
    3 {
	3 index add neg dup 0 lt { pop 0 } if 3 1 roll
    } repeat
    setrgbcolor - pop
  } bind def
} ifelse
/PATsc {		% colorarray
  aload length		% c1 ... cn length
    dup 1 eq { pop setgray } { 3 eq { setrgbcolor } { setcmykcolor
  } ifelse } ifelse
} bind def
/PATsg {		% dict
  begin
    lw setlinewidth
    lc setlinecap
    lj setlinejoin
    ml setmiterlimit
    ds aload pop setdash
    cc aload pop setrgbcolor
    cm setmatrix
  end
} bind def

/PATDict 3 dict def
/PATsp {
  true PATredef
  PATDict begin
    /CurrentPattern exch def
    % If it's an uncolored pattern, save the color
    CurrentPattern /PaintType get 2 eq {
      /PColor exch def
    } if
    /CColor [ currentrgbcolor ] def
  end
} bind def
% PATstroke - stroke with the current pattern
/PATstroke {
  countdictstack
  save
  mark
  {
    currentpoint strokepath moveto
    PATpcalc				% proc nw nh px py
    clip newpath PATfill
    } stopped {
	(*** PATstroke Warning: Path is too complex, stroking
	  with gray) =
    cleartomark
    restore
    countdictstack exch sub dup 0 gt
	{ { end } repeat } { pop } ifelse
    gsave 0.5 setgray oldstroke grestore
  } { pop restore pop } ifelse
  newpath
} bind def
/PATtcalc {		% modmtx tilingtype PATtcalc tilematrix
  % Note: tiling types 2 and 3 are not supported
  gsave
    exch concat					% tilingtype
    matrix currentmatrix exch			% cmtx tilingtype
    % Tiling type 1 and 3: constant spacing
    2 ne {
	% Distort the pattern so that it occupies
	% an integral number of device pixels
	dup 4 get exch dup 5 get exch		% tx ty cmtx
	XStep 0 dtransform
	round exch round exch			% tx ty cmtx dx.x dx.y
	XStep div exch XStep div exch		% tx ty cmtx a b
	0 YStep dtransform
	round exch round exch			% tx ty cmtx a b dy.x dy.y
	YStep div exch YStep div exch		% tx ty cmtx a b c d
	7 -3 roll astore			% { a b c d tx ty }
    } if
  grestore
} bind def
/PATusp {
  false PATredef
  PATDict begin
    CColor PATsc
  end
} bind def

% this is the pattern fill program from the Second edition Reference Manual
% with changes to call the above pattern fill
% left30
11 dict begin
/PaintType 1 def
/PatternType 1 def
/TilingType 1 def
/BBox [0 0 1 1] def
/XStep 1 def
/YStep 1 def
/PatWidth 1 def
/PatHeight 1 def
/Multi 2 def
/PaintData [
  { clippath } bind
  { 32 16 true [ 32 0 0 -16 0 16 ]
	{<c000c000300030000c000c000300030000c000c000300030
	000c000c00030003c000c000300030000c000c0003000300
	00c000c000300030000c000c00030003>}
     imagemask } bind
] def
/PaintProc {
	pop
	exec fill
} def
currentdict
end
/P1 exch def
1.1111 1.1111 scale %restore scale

/cp {closepath} bind def
/ef {eofill} bind def
/gr {grestore} bind def
/gs {gsave} bind def
/sa {save} bind def
/rs {restore} bind def
/l {lineto} bind def
/m {moveto} bind def
/rm {rmoveto} bind def
/n {newpath} bind def
/s {stroke} bind def
/sh {show} bind def
/slc {setlinecap} bind def
/slj {setlinejoin} bind def
/slw {setlinewidth} bind def
/srgb {setrgbcolor} bind def
/rot {rotate} bind def
/sc {scale} bind def
/sd {setdash} bind def
/ff {findfont} bind def
/sf {setfont} bind def
/scf {scalefont} bind def
/sw {stringwidth} bind def
/tr {translate} bind def
/tnt {dup dup currentrgbcolor
  4 -2 roll dup 1 exch sub 3 -1 roll mul add
  4 -2 roll dup 1 exch sub 3 -1 roll mul add
  4 -2 roll dup 1 exch sub 3 -1 roll mul add srgb}
  bind def
/shd {dup dup currentrgbcolor 4 -2 roll mul 4 -2 roll mul
  4 -2 roll mul srgb} bind def
/reencdict 12 dict def /ReEncode { reencdict begin
/newcodesandnames exch def /newfontname exch def /basefontname exch def
/basefontdict basefontname findfont def /newfont basefontdict maxlength dict def
basefontdict { exch dup /FID ne { dup /Encoding eq
{ exch dup length array copy newfont 3 1 roll put }
{ exch newfont 3 1 roll put } ifelse } { pop pop } ifelse } forall
newfont /FontName newfontname put newcodesandnames aload pop
128 1 255 { newfont /Encoding get exch /.notdef put } for
newcodesandnames length 2 idiv { newfont /Encoding get 3 1 roll put } repeat
newfontname newfont definefont pop end } def
/isovec [
8#200 /grave 8#201 /acute 8#202 /circumflex 8#203 /tilde
8#204 /macron 8#205 /breve 8#206 /dotaccent 8#207 /dieresis
8#210 /ring 8#211 /cedilla 8#212 /hungarumlaut 8#213 /ogonek 8#214 /caron
8#220 /dotlessi 8#230 /oe 8#231 /OE
8#240 /space 8#241 /exclamdown 8#242 /cent 8#243 /sterling
8#244 /currency 8#245 /yen 8#246 /brokenbar 8#247 /section 8#250 /dieresis
8#251 /copyright 8#252 /ordfeminine 8#253 /guillemotleft 8#254 /logicalnot
8#255 /endash 8#256 /registered 8#257 /macron 8#260 /degree 8#261 /plusminus
8#262 /twosuperior 8#263 /threesuperior 8#264 /acute 8#265 /mu 8#266 /paragraph
8#267 /periodcentered 8#270 /cedilla 8#271 /onesuperior 8#272 /ordmasculine
8#273 /guillemotright 8#274 /onequarter 8#275 /onehalf
8#276 /threequarters 8#277 /questiondown 8#300 /Agrave 8#301 /Aacute
8#302 /Acircumflex 8#303 /Atilde 8#304 /Adieresis 8#305 /Aring
8#306 /AE 8#307 /Ccedilla 8#310 /Egrave 8#311 /Eacute
8#312 /Ecircumflex 8#313 /Edieresis 8#314 /Igrave 8#315 /Iacute
8#316 /Icircumflex 8#317 /Idieresis 8#320 /Eth 8#321 /Ntilde 8#322 /Ograve
8#323 /Oacute 8#324 /Ocircumflex 8#325 /Otilde 8#326 /Odieresis 8#327 /multiply
8#330 /Oslash 8#331 /Ugrave 8#332 /Uacute 8#333 /Ucircumflex
8#334 /Udieresis 8#335 /Yacute 8#336 /Thorn 8#337 /germandbls 8#340 /agrave
8#341 /aacute 8#342 /acircumflex 8#343 /atilde 8#344 /adieresis 8#345 /aring
8#346 /ae 8#347 /ccedilla 8#350 /egrave 8#351 /eacute
8#352 /ecircumflex 8#353 /edieresis 8#354 /igrave 8#355 /iacute
8#356 /icircumflex 8#357 /idieresis 8#360 /eth 8#361 /ntilde 8#362 /ograve
8#363 /oacute 8#364 /ocircumflex 8#365 /otilde 8#366 /odieresis 8#367 /divide
8#370 /oslash 8#371 /ugrave 8#372 /uacute 8#373 /ucircumflex
8#374 /udieresis 8#375 /yacute 8#376 /thorn 8#377 /ydieresis] def
/Times-Roman /Times-Roman-iso isovec ReEncode
/$F2psBegin {$F2psDict begin /$F2psEnteredState save def} def
/$F2psEnd {$F2psEnteredState restore end} def
%%EndProlog

$F2psBegin
10 setmiterlimit
n -1000 4922 m -1000 -1000 l 7372 -1000 l 7372 4922 l cp clip
 0.06000 0.06000 sc
% Polyline
15.000 slw
n 600 375 m 600 3900 l gs col0 s gr 
% Polyline
n 600 2400 m 6300 2400 l gs col0 s gr 
% Polyline
7.500 slw
 [45] 0 sd
n 600 2850 m 6300 2850 l gs /PC [[1.00 1.00 1.00] [0.00 0.00 0.00]] def
15.00 15.00 sc P1 [16 0 0 -8 40.00 190.00] PATmp PATsp ef gr PATusp gs col0 s gr  [] 0 sd
% Polyline
15.000 slw
gs  clippath
2370 2595 m 2400 2475 l 2430 2595 l 2430 2445 l 2370 2445 l cp
clip
n 2400 3900 m 2400 2475 l gs col0 s gr gr

% arrowhead
7.500 slw
n 2370 2595 m 2400 2475 l 2430 2595 l 2400 2595 l 2370 2595 l  cp gs 0.00 setgray ef gr  col0 s
% Polyline
n 1650 1325 m 1675 1305 l gs col0 s gr 
% Polyline
n 1692 3117 m 1717 3097 l gs col0 s gr 
% Polyline
n 1635 1635 m 1660 1615 l gs col0 s gr 
% Polyline
n 600 3150 m 601 3150 l 604 3149 l 609 3148 l 618 3147 l 630 3144 l
 647 3141 l 668 3137 l 694 3132 l 724 3126 l 760 3119 l
 801 3112 l 846 3103 l 895 3094 l 948 3084 l 1004 3074 l
 1063 3063 l 1124 3052 l 1186 3041 l 1250 3029 l 1315 3018 l
 1380 3006 l 1445 2995 l 1509 2984 l 1573 2973 l 1636 2963 l
 1698 2953 l 1759 2943 l 1819 2934 l 1878 2925 l 1935 2916 l
 1992 2908 l 2048 2900 l 2102 2893 l 2157 2886 l 2210 2879 l
 2264 2873 l 2317 2866 l 2369 2860 l 2422 2855 l 2476 2849 l
 2529 2844 l 2583 2839 l 2638 2834 l 2694 2830 l 2750 2825 l
 2801 2821 l 2852 2817 l 2904 2814 l 2957 2810 l 3011 2806 l
 3066 2803 l 3121 2799 l 3178 2796 l 3235 2793 l 3294 2789 l
 3353 2786 l 3413 2783 l 3474 2780 l 3535 2777 l 3598 2774 l
 3661 2771 l 3724 2768 l 3788 2766 l 3853 2763 l 3918 2760 l
 3983 2758 l 4048 2755 l 4113 2753 l 4178 2751 l 4244 2748 l
 4308 2746 l 4373 2744 l 4437 2742 l 4501 2740 l 4563 2738 l
 4626 2736 l 4687 2735 l 4747 2733 l 4806 2731 l 4865 2730 l
 4922 2728 l 4978 2727 l 5032 2726 l 5086 2724 l 5138 2723 l
 5188 2722 l 5237 2721 l 5285 2720 l 5331 2719 l 5376 2718 l
 5419 2717 l 5461 2716 l 5502 2715 l 5541 2715 l 5579 2714 l
 5615 2713 l 5650 2713 l 5721 2711 l 5787 2710 l 5846 2709 l
 5900 2708 l 5949 2707 l 5993 2706 l 6034 2705 l 6071 2704 l
 6104 2704 l 6135 2703 l 6163 2703 l 6188 2702 l 6211 2702 l
 6231 2701 l 6248 2701 l 6263 2701 l 6275 2700 l 6284 2700 l
 6291 2700 l 6295 2700 l 6298 2700 l 6299 2700 l 6300 2700 l gs col0 s gr 
% Polyline
n 600 600 m 601 601 l 602 604 l 604 610 l 609 619 l 614 632 l
 622 649 l 633 670 l 645 696 l 661 727 l 678 762 l
 698 801 l 721 843 l 745 889 l 772 937 l 800 987 l
 830 1038 l 862 1090 l 894 1143 l 928 1194 l 962 1245 l
 998 1295 l 1033 1344 l 1070 1391 l 1107 1436 l 1144 1479 l
 1183 1520 l 1221 1560 l 1261 1597 l 1301 1632 l 1343 1666 l
 1385 1698 l 1428 1728 l 1473 1756 l 1520 1783 l 1568 1808 l
 1618 1833 l 1670 1856 l 1724 1877 l 1780 1898 l 1839 1918 l
 1900 1938 l 1940 1949 l 1981 1961 l 2023 1972 l 2067 1983 l
 2111 1994 l 2157 2004 l 2205 2014 l 2254 2024 l 2304 2034 l
 2356 2043 l 2410 2052 l 2466 2061 l 2524 2070 l 2584 2079 l
 2645 2087 l 2710 2095 l 2776 2103 l 2845 2111 l 2916 2119 l
 2990 2127 l 3066 2134 l 3145 2142 l 3226 2149 l 3310 2156 l
 3397 2164 l 3487 2171 l 3578 2178 l 3673 2185 l 3770 2192 l
 3869 2199 l 3970 2205 l 4073 2212 l 4178 2219 l 4285 2225 l
 4392 2232 l 4501 2238 l 4610 2244 l 4719 2250 l 4828 2256 l
 4936 2262 l 5043 2267 l 5148 2273 l 5250 2278 l 5350 2283 l
 5447 2287 l 5539 2292 l 5628 2296 l 5711 2300 l 5790 2303 l
 5863 2306 l 5931 2309 l 5992 2312 l 6047 2315 l 6097 2317 l
 6140 2318 l 6177 2320 l 6209 2321 l 6234 2322 l 6255 2323 l
 6271 2324 l 6283 2324 l 6291 2325 l 6296 2325 l 6299 2325 l
 6300 2325 l gs col0 s gr 
% Polyline
n 600 600 m 600 601 l 601 604 l 601 610 l 603 618 l 605 631 l
 607 648 l 611 669 l 616 694 l 621 725 l 628 760 l
 636 799 l 646 842 l 656 888 l 668 937 l 681 989 l
 696 1042 l 711 1096 l 728 1151 l 746 1206 l 765 1261 l
 785 1315 l 806 1367 l 829 1418 l 852 1468 l 877 1515 l
 902 1561 l 929 1605 l 957 1647 l 987 1686 l 1018 1724 l
 1050 1759 l 1084 1793 l 1120 1825 l 1157 1855 l 1197 1884 l
 1238 1910 l 1282 1936 l 1327 1960 l 1376 1983 l 1427 2005 l
 1480 2025 l 1536 2045 l 1595 2064 l 1634 2075 l 1675 2087 l
 1716 2098 l 1759 2108 l 1804 2119 l 1850 2129 l 1897 2138 l
 1947 2148 l 1998 2157 l 2050 2166 l 2105 2174 l 2162 2182 l
 2220 2190 l 2281 2198 l 2344 2205 l 2410 2212 l 2478 2219 l
 2548 2226 l 2621 2232 l 2696 2239 l 2775 2245 l 2855 2251 l
 2939 2256 l 3026 2262 l 3115 2267 l 3207 2273 l 3302 2278 l
 3399 2282 l 3499 2287 l 3602 2292 l 3707 2296 l 3814 2301 l
 3924 2305 l 4035 2309 l 4148 2313 l 4262 2316 l 4377 2320 l
 4493 2323 l 4608 2327 l 4724 2330 l 4839 2333 l 4953 2336 l
 5065 2338 l 5175 2341 l 5282 2343 l 5386 2345 l 5486 2347 l
 5582 2349 l 5674 2351 l 5760 2353 l 5841 2354 l 5916 2355 l
 5985 2357 l 6048 2358 l 6104 2358 l 6154 2359 l 6198 2360 l
 6236 2360 l 6268 2361 l 6294 2361 l 6315 2361 l 6331 2362 l
 6343 2362 l 6351 2362 l 6356 2362 l 6359 2362 l 6360 2362 l gs col0 s gr 
/Times-Roman-iso ff 180.00 scf sf
1200 1425 m
gs 1 -1 sc (Funcion de Onda) col0 sh gr
/Times-Roman-iso ff 180.00 scf sf
2475 3675 m
gs 1 -1 sc (Ro ) col0 sh gr
/Times-Roman-iso ff 180.00 scf sf
1275 3900 m
gs 1 -1 sc (Nacimientos) col0 sh gr
/Times-Roman-iso ff 180.00 scf sf
3375 3300 m
gs 1 -1 sc (Muertes) col0 sh gr
/Times-Roman-iso ff 180.00 scf sf
4650 3150 m
gs 1 -1 sc (Er = -0.5 Hartree) col0 sh gr
/Times-Roman-iso ff 180.00 scf sf
1155 1755 m
gs 1 -1 sc (Funcion de Prueba) col0 sh gr
/Times-Roman-iso ff 180.00 scf sf
1237 3240 m
gs 1 -1 sc (Energia) col0 sh gr
/Times-Roman-iso ff 180.00 scf sf
1237 3465 m
gs 1 -1 sc (Local) col0 sh gr
$F2psEnd
rs
end
