%!PS-Adobe-3.0 EPSF
%%Title: Maple plot
%%Creator: MapleV 
%%Pages:  1
%%BoundingBox: 0 0 612 792 
%%DocumentNeededResources: font Courier
%%EndComments
20 dict begin
gsave
/m {moveto} def
/l {lineto} def
/C {setrgbcolor} def
/Y /setcmykcolor where { %%ifelse Use built-in operator
       /setcmykcolor get
   }{ %%ifelse Emulate setcmykcolor with setrgbcolor
       { %%def
           1 sub 3 { %%repeat
               3 index add neg dup 0 lt { pop 0 } if 3 1 roll
           } repeat setrgbcolor
       } bind
   } ifelse def
/G {setgray} def
/S {stroke} def
/NP {newpath} def
%%%%This draws a filled polygon and avoids bugs/features
%%%%   of some postscript interpreters
%%%%GHOSTSCRIPT: has a bug in reversepath - removing
%%%%the call to reversepath is a sufficient work around
/P {gsave fill grestore reversepath stroke} def
%%%%This function is needed for drawing text
/stringbbox {gsave NP 0 0 m false charpath flattenpath
   pathbbox 4 2 roll pop pop 1.1 mul cvi exch 1.1 mul 
   cvi exch grestore} def
/thin 3 def
/medium 7 def
/thick 16 def
/boundarythick 20 def %% thickness of bounding box
%%IncludeResource: font Courier
576 36 translate
90 rotate
0.108 0.108 scale
1 setlinejoin
1 setlinecap
0.0 setgray
/inch {72 mul} def
/fheight 0.35 inch neg def
    0 G
medium setlinewidth
[] 0 setdash NP
5885 4031 m
5903 4031 l
5894 4022 m
5894 4040 l
S
NP
5838 4067 m
5856 4067 l
5847 4058 m
5847 4076 l
S
NP
5790 3980 m
5808 3980 l
5799 3971 m
5799 3989 l
S
NP
5743 3954 m
5761 3954 l
5752 3945 m
5752 3963 l
S
NP
5695 3749 m
5713 3749 l
5704 3740 m
5704 3758 l
S
NP
5648 3692 m
5666 3692 l
5657 3683 m
5657 3701 l
S
NP
5601 3738 m
5619 3738 l
5610 3729 m
5610 3747 l
S
NP
5553 3725 m
5571 3725 l
5562 3716 m
5562 3734 l
S
NP
5506 3557 m
5524 3557 l
5515 3548 m
5515 3566 l
S
NP
5458 3805 m
5476 3805 l
5467 3796 m
5467 3814 l
S
NP
5411 3994 m
5429 3994 l
5420 3985 m
5420 4003 l
S
NP
5363 3943 m
5381 3943 l
5372 3934 m
5372 3952 l
S
NP
5316 3912 m
5334 3912 l
5325 3903 m
5325 3921 l
S
NP
5268 3867 m
5286 3867 l
5277 3858 m
5277 3876 l
S
NP
5221 3857 m
5239 3857 l
5230 3848 m
5230 3866 l
S
NP
5173 3898 m
5191 3898 l
5182 3889 m
5182 3907 l
S
NP
5126 3958 m
5144 3958 l
5135 3949 m
5135 3967 l
S
NP
5079 3968 m
5097 3968 l
5088 3959 m
5088 3977 l
S
NP
5031 4225 m
5049 4225 l
5040 4216 m
5040 4234 l
S
NP
4984 4026 m
5002 4026 l
4993 4017 m
4993 4035 l
S
NP
4936 3902 m
4954 3902 l
4945 3893 m
4945 3911 l
S
NP
4889 4036 m
4907 4036 l
4898 4027 m
4898 4045 l
S
NP
4841 4315 m
4859 4315 l
4850 4306 m
4850 4324 l
S
NP
4794 4081 m
4812 4081 l
4803 4072 m
4803 4090 l
S
NP
4746 3884 m
4764 3884 l
4755 3875 m
4755 3893 l
S
NP
4699 3906 m
4717 3906 l
4708 3897 m
4708 3915 l
S
NP
4651 4085 m
4669 4085 l
4660 4076 m
4660 4094 l
S
NP
4604 4120 m
4622 4120 l
4613 4111 m
4613 4129 l
S
NP
4556 4027 m
4574 4027 l
4565 4018 m
4565 4036 l
S
NP
4509 3989 m
4527 3989 l
4518 3980 m
4518 3998 l
S
NP
4462 3900 m
4480 3900 l
4471 3891 m
4471 3909 l
S
NP
4414 3876 m
4432 3876 l
4423 3867 m
4423 3885 l
S
NP
4367 4051 m
4385 4051 l
4376 4042 m
4376 4060 l
S
NP
4319 3909 m
4337 3909 l
4328 3900 m
4328 3918 l
S
NP
4272 3900 m
4290 3900 l
4281 3891 m
4281 3909 l
S
NP
4224 3841 m
4242 3841 l
4233 3832 m
4233 3850 l
S
NP
4177 3867 m
4195 3867 l
4186 3858 m
4186 3876 l
S
NP
4129 4104 m
4147 4104 l
4138 4095 m
4138 4113 l
S
NP
4082 4174 m
4100 4174 l
4091 4165 m
4091 4183 l
S
NP
4034 4069 m
4052 4069 l
4043 4060 m
4043 4078 l
S
NP
3987 4158 m
4005 4158 l
3996 4149 m
3996 4167 l
S
NP
3939 4421 m
3957 4421 l
3948 4412 m
3948 4430 l
S
NP
3892 4222 m
3910 4222 l
3901 4213 m
3901 4231 l
S
NP
3845 4148 m
3863 4148 l
3854 4139 m
3854 4157 l
S
NP
3797 4092 m
3815 4092 l
3806 4083 m
3806 4101 l
S
NP
3750 4042 m
3768 4042 l
3759 4033 m
3759 4051 l
S
NP
3702 4061 m
3720 4061 l
3711 4052 m
3711 4070 l
S
NP
3655 3849 m
3673 3849 l
3664 3840 m
3664 3858 l
S
NP
3607 3967 m
3625 3967 l
3616 3958 m
3616 3976 l
S
NP
3560 4007 m
3578 4007 l
3569 3998 m
3569 4016 l
S
NP
3512 3852 m
3530 3852 l
3521 3843 m
3521 3861 l
S
NP
3465 3773 m
3483 3773 l
3474 3764 m
3474 3782 l
S
NP
3417 3703 m
3435 3703 l
3426 3694 m
3426 3712 l
S
NP
3370 3945 m
3388 3945 l
3379 3936 m
3379 3954 l
S
NP
3322 4001 m
3340 4001 l
3331 3992 m
3331 4010 l
S
NP
3275 3962 m
3293 3962 l
3284 3953 m
3284 3971 l
S
NP
3228 3905 m
3246 3905 l
3237 3896 m
3237 3914 l
S
NP
3180 3814 m
3198 3814 l
3189 3805 m
3189 3823 l
S
NP
3133 3864 m
3151 3864 l
3142 3855 m
3142 3873 l
S
NP
3085 3862 m
3103 3862 l
3094 3853 m
3094 3871 l
S
NP
3038 3864 m
3056 3864 l
3047 3855 m
3047 3873 l
S
NP
2990 3920 m
3008 3920 l
2999 3911 m
2999 3929 l
S
NP
2943 3702 m
2961 3702 l
2952 3693 m
2952 3711 l
S
NP
2895 3761 m
2913 3761 l
2904 3752 m
2904 3770 l
S
NP
2848 3782 m
2866 3782 l
2857 3773 m
2857 3791 l
S
NP
2800 3873 m
2818 3873 l
2809 3864 m
2809 3882 l
S
NP
2753 3703 m
2771 3703 l
2762 3694 m
2762 3712 l
S
NP
2705 3557 m
2723 3557 l
2714 3548 m
2714 3566 l
S
NP
2658 3534 m
2676 3534 l
2667 3525 m
2667 3543 l
S
NP
2611 3453 m
2629 3453 l
2620 3444 m
2620 3462 l
S
NP
2563 3413 m
2581 3413 l
2572 3404 m
2572 3422 l
S
NP
2516 3457 m
2534 3457 l
2525 3448 m
2525 3466 l
S
NP
2468 3478 m
2486 3478 l
2477 3469 m
2477 3487 l
S
NP
2421 3487 m
2439 3487 l
2430 3478 m
2430 3496 l
S
NP
2373 3726 m
2391 3726 l
2382 3717 m
2382 3735 l
S
NP
2326 3979 m
2344 3979 l
2335 3970 m
2335 3988 l
S
NP
2278 3907 m
2296 3907 l
2287 3898 m
2287 3916 l
S
NP
2231 3914 m
2249 3914 l
2240 3905 m
2240 3923 l
S
NP
2183 4118 m
2201 4118 l
2192 4109 m
2192 4127 l
S
NP
2136 4199 m
2154 4199 l
2145 4190 m
2145 4208 l
S
NP
2089 4025 m
2107 4025 l
2098 4016 m
2098 4034 l
S
NP
2041 3997 m
2059 3997 l
2050 3988 m
2050 4006 l
S
NP
1994 4266 m
2012 4266 l
2003 4257 m
2003 4275 l
S
NP
1946 4056 m
1964 4056 l
1955 4047 m
1955 4065 l
S
NP
1899 4013 m
1917 4013 l
1908 4004 m
1908 4022 l
S
NP
1851 3976 m
1869 3976 l
1860 3967 m
1860 3985 l
S
NP
1804 4181 m
1822 4181 l
1813 4172 m
1813 4190 l
S
NP
1756 3975 m
1774 3975 l
1765 3966 m
1765 3984 l
S
NP
1709 3858 m
1727 3858 l
1718 3849 m
1718 3867 l
S
NP
1661 3649 m
1679 3649 l
1670 3640 m
1670 3658 l
S
NP
1614 3946 m
1632 3946 l
1623 3937 m
1623 3955 l
S
NP
1566 4161 m
1584 4161 l
1575 4152 m
1575 4170 l
S
NP
1519 4069 m
1537 4069 l
1528 4060 m
1528 4078 l
S
NP
1472 4057 m
1490 4057 l
1481 4048 m
1481 4066 l
S
NP
1424 4161 m
1442 4161 l
1433 4152 m
1433 4170 l
S
NP
1377 4203 m
1395 4203 l
1386 4194 m
1386 4212 l
S
NP
1329 4290 m
1347 4290 l
1338 4281 m
1338 4299 l
S
NP
1282 4194 m
1300 4194 l
1291 4185 m
1291 4203 l
S
NP
1234 4108 m
1252 4108 l
1243 4099 m
1243 4117 l
S
NP
1187 4124 m
1205 4124 l
1196 4115 m
1196 4133 l
S
NP
1139 3853 m
1157 3853 l
1148 3844 m
1148 3862 l
S
NP
1092 3634 m
1110 3634 l
1101 3625 m
1101 3643 l
S
NP
1044 3487 m
1062 3487 l
1053 3478 m
1053 3496 l
S
NP
997 3113 m
1015 3113 l
1006 3104 m
1006 3122 l
S
NP
949 2734 m
967 2734 l
958 2725 m
958 2743 l
S
NP
902 2573 m
920 2573 l
911 2564 m
911 2582 l
S
NP
855 2111 m
873 2111 l
864 2102 m
864 2120 l
S
NP
807 1402 m
825 1402 l
816 1393 m
816 1411 l
S
NP
760 576 m
778 576 l
769 567 m
769 585 l
S
medium setlinewidth
NP 721 500 m 721 4500 l
S
thin setlinewidth
NP 678 610 m 764 610 l
S
NP 700 778 m 742 778 l
S
NP 700 947 m 742 947 l
S
NP 700 1115 m 742 1115 l
S
NP 700 1283 m 742 1283 l
S
NP 678 1452 m 764 1452 l
S
NP 700 1620 m 742 1620 l
S
NP 700 1788 m 742 1788 l
S
NP 700 1956 m 742 1956 l
S
NP 700 2125 m 742 2125 l
S
NP 678 2293 m 764 2293 l
S
NP 700 2461 m 742 2461 l
S
NP 700 2630 m 742 2630 l
S
NP 700 2798 m 742 2798 l
S
NP 700 2966 m 742 2966 l
S
NP 678 3135 m 764 3135 l
S
NP 700 3303 m 742 3303 l
S
NP 700 3471 m 742 3471 l
S
NP 700 3640 m 742 3640 l
S
NP 700 3808 m 742 3808 l
S
NP 678 3976 m 764 3976 l
S
NP 700 4144 m 742 4144 l
S
NP 700 4313 m 742 4313 l
S
NP 700 4481 m 742 4481 l
S
medium setlinewidth
NP 666 500 m 5999 500 l
S
thin setlinewidth
NP 721 467 m 721 532 l
S
NP 911 483 m 911 516 l
S
NP 1101 483 m 1101 516 l
S
NP 1291 483 m 1291 516 l
S
NP 1481 483 m 1481 516 l
S
NP 1670 467 m 1670 532 l
S
NP 1860 483 m 1860 516 l
S
NP 2050 483 m 2050 516 l
S
NP 2240 483 m 2240 516 l
S
NP 2430 483 m 2430 516 l
S
NP 2620 467 m 2620 532 l
S
NP 2809 483 m 2809 516 l
S
NP 2999 483 m 2999 516 l
S
NP 3189 483 m 3189 516 l
S
NP 3379 483 m 3379 516 l
S
NP 3569 467 m 3569 532 l
S
NP 3759 483 m 3759 516 l
S
NP 3948 483 m 3948 516 l
S
NP 4138 483 m 4138 516 l
S
NP 4328 483 m 4328 516 l
S
NP 4518 467 m 4518 532 l
S
NP 4708 483 m 4708 516 l
S
NP 4898 483 m 4898 516 l
S
NP 5088 483 m 5088 516 l
S
NP 5277 483 m 5277 516 l
S
NP 5467 467 m 5467 532 l
S
NP 5657 483 m 5657 516 l
S
NP 5847 483 m 5847 516 l
S
medium setlinewidth
/Courier findfont 115 scalefont setfont
(0.1) dup stringbbox 2 idiv 610 exch sub exch 678 exch sub exch m show
(0.2) dup stringbbox 2 idiv 1452 exch sub exch 678 exch sub exch m show
(0.3) dup stringbbox 2 idiv 2293 exch sub exch 678 exch sub exch m show
(0.4) dup stringbbox 2 idiv 3135 exch sub exch 678 exch sub exch m show
(0.5) dup stringbbox 2 idiv 3976 exch sub exch 678 exch sub exch m show
(E) dup stringbbox 2 idiv 2500 exch sub exch 508 exch sub exch m show
(0) dup stringbbox 467 exch sub exch pop 721 exch m show
(20) dup stringbbox 467 exch sub exch 2 idiv 1670 exch sub exch m show
(40) dup stringbbox 467 exch sub exch 2 idiv 2620 exch sub exch m show
(60) dup stringbbox 467 exch sub exch 2 idiv 3569 exch sub exch m show
(80) dup stringbbox 467 exch sub exch 2 idiv 4518 exch sub exch m show
(100) dup stringbbox 467 exch sub exch 2 idiv 5467 exch sub exch m show
(Bloques) dup stringbbox 339 exch sub exch 2 idiv 3360 exch sub exch m show

showpage
grestore
end
%%Trailer
%%EOF
