%!PS-Adobe-2.0
%%Title: laberinto.ps
%%Creator: fig2dev Version 3.2 Patchlevel 1
%%CreationDate: Wed Dec 16 16:08:34 1998
%%For: rulox@eros.pquim.unam.mx (Raul Perusquia)
%%Orientation: Portrait
%%BoundingBox: 181 320 431 471
%%Pages: 1
%%BeginSetup
%%IncludeFeature: *PageSize Letter
%%EndSetup
%%Magnification: 1.0000
%%EndComments
/$F2psDict 200 dict def
$F2psDict begin
$F2psDict /mtrx matrix put
/col-1 {0 setgray} bind def
/col0 {0.000 0.000 0.000 srgb} bind def
/col1 {0.000 0.000 1.000 srgb} bind def
/col2 {0.000 1.000 0.000 srgb} bind def
/col3 {0.000 1.000 1.000 srgb} bind def
/col4 {1.000 0.000 0.000 srgb} bind def
/col5 {1.000 0.000 1.000 srgb} bind def
/col6 {1.000 1.000 0.000 srgb} bind def
/col7 {1.000 1.000 1.000 srgb} bind def
/col8 {0.000 0.000 0.560 srgb} bind def
/col9 {0.000 0.000 0.690 srgb} bind def
/col10 {0.000 0.000 0.820 srgb} bind def
/col11 {0.530 0.810 1.000 srgb} bind def
/col12 {0.000 0.560 0.000 srgb} bind def
/col13 {0.000 0.690 0.000 srgb} bind def
/col14 {0.000 0.820 0.000 srgb} bind def
/col15 {0.000 0.560 0.560 srgb} bind def
/col16 {0.000 0.690 0.690 srgb} bind def
/col17 {0.000 0.820 0.820 srgb} bind def
/col18 {0.560 0.000 0.000 srgb} bind def
/col19 {0.690 0.000 0.000 srgb} bind def
/col20 {0.820 0.000 0.000 srgb} bind def
/col21 {0.560 0.000 0.560 srgb} bind def
/col22 {0.690 0.000 0.690 srgb} bind def
/col23 {0.820 0.000 0.820 srgb} bind def
/col24 {0.500 0.190 0.000 srgb} bind def
/col25 {0.630 0.250 0.000 srgb} bind def
/col26 {0.750 0.380 0.000 srgb} bind def
/col27 {1.000 0.500 0.500 srgb} bind def
/col28 {1.000 0.630 0.630 srgb} bind def
/col29 {1.000 0.750 0.750 srgb} bind def
/col30 {1.000 0.880 0.880 srgb} bind def
/col31 {1.000 0.840 0.000 srgb} bind def

end
save
126.0 508.5 translate
1 -1 scale

/cp {closepath} bind def
/ef {eofill} bind def
/gr {grestore} bind def
/gs {gsave} bind def
/sa {save} bind def
/rs {restore} bind def
/l {lineto} bind def
/m {moveto} bind def
/rm {rmoveto} bind def
/n {newpath} bind def
/s {stroke} bind def
/sh {show} bind def
/slc {setlinecap} bind def
/slj {setlinejoin} bind def
/slw {setlinewidth} bind def
/srgb {setrgbcolor} bind def
/rot {rotate} bind def
/sc {scale} bind def
/sd {setdash} bind def
/ff {findfont} bind def
/sf {setfont} bind def
/scf {scalefont} bind def
/sw {stringwidth} bind def
/tr {translate} bind def
/tnt {dup dup currentrgbcolor
  4 -2 roll dup 1 exch sub 3 -1 roll mul add
  4 -2 roll dup 1 exch sub 3 -1 roll mul add
  4 -2 roll dup 1 exch sub 3 -1 roll mul add srgb}
  bind def
/shd {dup dup currentrgbcolor 4 -2 roll mul 4 -2 roll mul
  4 -2 roll mul srgb} bind def
/$F2psBegin {$F2psDict begin /$F2psEnteredState save def} def
/$F2psEnd {$F2psEnteredState restore end} def
%%EndProlog

$F2psBegin
10 setmiterlimit
n -1000 4119 m -1000 -1000 l 6069 -1000 l 6069 4119 l cp clip
 0.06000 0.06000 sc
%%Page: 1 1
% Polyline
45.000 slw
n 975 675 m 5025 675 l 5025 3075 l 975 3075 l cp gs col0 s gr 
% Polyline
30.000 slw
n 975 1950 m 2925 1950 l 2925 3075 l 975 3075 l cp gs col0 s gr 
% Polyline
n 2925 1950 m 5025 1950 l 5025 3075 l 2925 3075 l cp gs col0 s gr 
% Polyline
n 2025 675 m 3900 675 l 3900 1950 l 2025 1950 l cp gs col0 s gr 
% Polyline
n 3225 1950 m 3675 1950 l gs col7 s gr 
% Polyline
n 3900 1200 m 3900 1575 l gs col7 s gr 
% Polyline
n 2025 1200 m 2025 1575 l gs col7 s gr 
% Polyline
n 2700 1950 m 2325 1950 l gs col7 s gr 
% Polyline
n 2925 2325 m 2925 2400 l 2925 2475 l 2925 2550 l 2925 2625 l 2925 2700 l
 2925 2700 l 3000 2700 l 2925 2700 l gs col7 s gr 
% Polyline
n 4350 1950 m 4650 1950 l gs col7 s gr 
% Polyline
n 3150 1950 m 3225 1950 l 3300 1950 l 3375 1950 l gs col0 s gr 
% Polyline
n 3675 1950 m 3600 1950 l 3525 1950 l gs col0 s gr 
/Times-Bold ff 195.00 scf sf
1425 1425 m
gs 1 -1 sc (1) col0 sh gr
/Times-Bold ff 195.00 scf sf
2925 1425 m
gs 1 -1 sc (2) col0 sh gr
/Times-Bold ff 195.00 scf sf
4350 1425 m
gs 1 -1 sc (3) col0 sh gr
/Times-Bold ff 195.00 scf sf
1800 2550 m
gs 1 -1 sc (4) col0 sh gr
/Times-Bold ff 195.00 scf sf
3900 2550 m
gs 1 -1 sc (5) col0 sh gr
$F2psEnd
rs
showpage
