%!PS-Adobe-3.0 EPSF
%%Title: Maple plot
%%Creator: MapleV 
%%Pages:  1
%%BoundingBox: (atend)
%%DocumentNeededResources: font Helvetica
%%EndComments
20 dict begin
gsave
/drawborder false def
/m {moveto} def
/l {lineto} def
/C {setrgbcolor} def
/Y /setcmykcolor where { %%ifelse Use built-in operator
       /setcmykcolor get
   }{ %%ifelse Emulate setcmykcolor with setrgbcolor
       { %%def
           1 sub 3 { %%repeat
               3 index add neg dup 0 lt { pop 0 } if 3 1 roll
           } repeat setrgbcolor
       } bind
   } ifelse def
/G {setgray} def
/S {stroke} def
/NP {newpath} def
%%%%This draws a filled polygon and avoids bugs/features
%%%%   of some postscript interpreters
%%%%GHOSTSCRIPT: has a bug in reversepath - removing
%%%%the call to reversepath is a sufficient work around
/P {gsave fill grestore reversepath stroke} def
%%%%This function is needed for drawing text
/stringbbox {gsave NP 0 0 m false charpath flattenpath
   pathbbox 4 2 roll pop pop 1.1 mul cvi exch 1.1 mul 
   cvi exch grestore} def
/thin 3 def
/medium 7 def
/thick 16 def
/boundarythick 20 def % thichess of bounding box
%%IncludeResource: font Helvetica
288.000000 288.000000 translate
/defaultTitleFont {/Helvetica findfont 517 scalefont setfont} def
/defaultFont {/Helvetica findfont 214 scalefont setfont} def
0.0396 0.0396 scale
1 setlinejoin
1 setlinecap
0.0 setgray
/inch {72 mul} def
/fheight 0.35 inch neg def
    0 G
medium setlinewidth
[] 0 setdash defaultFont
  0.7 G
NP 4072 940 m 4246 914 l
S
NP 3897 909 m 4072 940 l
S
NP 3722 946 m 3897 909 l
S
NP 3547 902 m 3722 946 l
S
NP 3373 955 m 3547 902 l
S
NP 3198 891 m 3373 955 l
S
NP 3023 967 m 3198 891 l
S
NP 2848 876 m 3023 967 l
S
NP 2673 985 m 2848 876 l
S
NP 2499 855 m 2673 985 l
S
NP 2324 1011 m 2499 855 l
S
NP 2149 824 m 2324 1011 l
S
NP 1974 1049 m 2149 824 l
S
NP 1800 777 m 1974 1049 l
S
NP 1625 1110 m 1800 777 l
S
NP 1450 702 m 1625 1110 l
S
NP 1275 1235 m 1450 702 l
S
NP 1101 576 m 1275 1235 l
S
NP 926 1675 m 1101 576 l
S
NP 751 576 m 926 1675 l
S
NP 576 4421 m 751 576 l
S
 0.11 G
NP 4072 1301 m 4246 1254 l
S
NP 3897 1245 m 4072 1301 l
S
NP 3722 1312 m 3897 1245 l
S
NP 3547 1232 m 3722 1312 l
S
NP 3373 1327 m 3547 1232 l
S
NP 3198 1214 m 3373 1327 l
S
NP 3023 1349 m 3198 1214 l
S
NP 2848 1188 m 3023 1349 l
S
NP 2673 1380 m 2848 1188 l
S
NP 2499 1150 m 2673 1380 l
S
NP 2324 1425 m 2499 1150 l
S
NP 2149 1097 m 2324 1425 l
S
NP 1974 1488 m 2149 1097 l
S
NP 1800 1022 m 1974 1488 l
S
NP 1625 1574 m 1800 1022 l
S
NP 1450 922 m 1625 1574 l
S
NP 1275 1675 m 1450 922 l
S
NP 1101 796 m 1275 1675 l
S
NP 926 1675 m 1101 796 l
S
NP 751 576 m 926 1675 l
S
NP 576 576 m 751 576 l
S
 0.59 G
NP 4072 1427 m 4246 1469 l
S
NP 3897 1478 m 4072 1427 l
S
NP 3722 1417 m 3897 1478 l
S
NP 3547 1490 m 3722 1417 l
S
NP 3373 1403 m 3547 1490 l
S
NP 3198 1506 m 3373 1403 l
S
NP 3023 1383 m 3198 1506 l
S
NP 2848 1530 m 3023 1383 l
S
NP 2673 1354 m 2848 1530 l
S
NP 2499 1564 m 2673 1354 l
S
NP 2324 1314 m 2499 1564 l
S
NP 2149 1612 m 2324 1314 l
S
NP 1974 1258 m 2149 1612 l
S
NP 1800 1675 m 1974 1258 l
S
NP 1625 1188 m 1800 1675 l
S
NP 1450 1738 m 1625 1188 l
S
NP 1275 1126 m 1450 1738 l
S
NP 1101 1675 m 1275 1126 l
S
NP 926 1126 m 1101 1675 l
S
NP 751 576 m 926 1126 l
S
NP 576 576 m 751 576 l
S
 0.89 G
NP 4072 1301 m 4246 1254 l
S
NP 3897 1245 m 4072 1301 l
S
NP 3722 1312 m 3897 1245 l
S
NP 3547 1232 m 3722 1312 l
S
NP 3373 1327 m 3547 1232 l
S
NP 3198 1214 m 3373 1327 l
S
NP 3023 1349 m 3198 1214 l
S
NP 2848 1188 m 3023 1349 l
S
NP 2673 1380 m 2848 1188 l
S
NP 2499 1150 m 2673 1380 l
S
NP 2324 1425 m 2499 1150 l
S
NP 2149 1097 m 2324 1425 l
S
NP 1974 1488 m 2149 1097 l
S
NP 1800 1022 m 1974 1488 l
S
NP 1625 1574 m 1800 1022 l
S
NP 1450 922 m 1625 1574 l
S
NP 1275 1675 m 1450 922 l
S
NP 1101 796 m 1275 1675 l
S
NP 926 1675 m 1101 796 l
S
NP 751 576 m 926 1675 l
S
NP 576 576 m 751 576 l
S
  0.3 G
NP 4072 1758 m 4246 1835 l
S
NP 3897 1850 m 4072 1758 l
S
NP 3722 1740 m 3897 1850 l
S
NP 3547 1871 m 3722 1740 l
S
NP 3373 1715 m 3547 1871 l
S
NP 3198 1901 m 3373 1715 l
S
NP 3023 1678 m 3198 1901 l
S
NP 2848 1945 m 3023 1678 l
S
NP 2673 1626 m 2848 1945 l
S
NP 2499 2007 m 2673 1626 l
S
NP 2324 1551 m 2499 2007 l
S
NP 2149 2097 m 2324 1551 l
S
NP 1974 1443 m 2149 2097 l
S
NP 1800 2230 m 1974 1443 l
S
NP 1625 1279 m 1800 2230 l
S
NP 1450 2444 m 1625 1279 l
S
NP 1275 1016 m 1450 2444 l
S
NP 1101 2883 m 1275 1016 l
S
NP 926 576 m 1101 2883 l
S
NP 751 4421 m 926 576 l
S
NP 576 576 m 751 4421 l
S
    0 G
(3 y 4) dup stringbbox 2 idiv 1249 exch sub exch 2 idiv 4421 exch sub exch m show
(5) dup stringbbox 1538 exch sub exch 2 idiv 4421 exch sub exch m show
(2) dup stringbbox 1922 exch sub exch 2 idiv 4421 exch sub exch m show
(1) dup stringbbox 2 idiv 922 exch sub exch 2 idiv 4421 exch sub exch m show
medium setlinewidth
NP 500 500 m 500 4500 l
S
thin setlinewidth
NP 429 576 m 500 576 l
S
NP 464 730 m 500 730 l
S
NP 464 884 m 500 884 l
S
NP 464 1038 m 500 1038 l
S
NP 464 1192 m 500 1192 l
S
NP 429 1345 m 500 1345 l
S
NP 464 1499 m 500 1499 l
S
NP 464 1653 m 500 1653 l
S
NP 464 1807 m 500 1807 l
S
NP 464 1960 m 500 1960 l
S
NP 429 2114 m 500 2114 l
S
NP 464 2268 m 500 2268 l
S
NP 464 2422 m 500 2422 l
S
NP 464 2576 m 500 2576 l
S
NP 464 2729 m 500 2729 l
S
NP 429 2883 m 500 2883 l
S
NP 464 3037 m 500 3037 l
S
NP 464 3191 m 500 3191 l
S
NP 464 3345 m 500 3345 l
S
NP 464 3498 m 500 3498 l
S
NP 429 3652 m 500 3652 l
S
NP 464 3806 m 500 3806 l
S
NP 464 3960 m 500 3960 l
S
NP 464 4113 m 500 4113 l
S
NP 464 4267 m 500 4267 l
S
NP 429 4421 m 500 4421 l
S
medium setlinewidth
NP 500 576 m 4500 576 l
S
thin setlinewidth
NP 541 550 m 541 576 l
S
NP 611 550 m 611 576 l
S
NP 681 550 m 681 576 l
S
NP 751 523 m 751 576 l
S
NP 821 550 m 821 576 l
S
NP 891 550 m 891 576 l
S
NP 961 550 m 961 576 l
S
NP 1031 550 m 1031 576 l
S
NP 1101 523 m 1101 576 l
S
NP 1171 550 m 1171 576 l
S
NP 1240 550 m 1240 576 l
S
NP 1310 550 m 1310 576 l
S
NP 1380 550 m 1380 576 l
S
NP 1450 523 m 1450 576 l
S
NP 1520 550 m 1520 576 l
S
NP 1590 550 m 1590 576 l
S
NP 1660 550 m 1660 576 l
S
NP 1730 550 m 1730 576 l
S
NP 1800 523 m 1800 576 l
S
NP 1870 550 m 1870 576 l
S
NP 1940 550 m 1940 576 l
S
NP 2009 550 m 2009 576 l
S
NP 2079 550 m 2079 576 l
S
NP 2149 523 m 2149 576 l
S
NP 2219 550 m 2219 576 l
S
NP 2289 550 m 2289 576 l
S
NP 2359 550 m 2359 576 l
S
NP 2429 550 m 2429 576 l
S
NP 2499 523 m 2499 576 l
S
NP 2569 550 m 2569 576 l
S
NP 2639 550 m 2639 576 l
S
NP 2708 550 m 2708 576 l
S
NP 2778 550 m 2778 576 l
S
NP 2848 523 m 2848 576 l
S
NP 2918 550 m 2918 576 l
S
NP 2988 550 m 2988 576 l
S
NP 3058 550 m 3058 576 l
S
NP 3128 550 m 3128 576 l
S
NP 3198 523 m 3198 576 l
S
NP 3268 550 m 3268 576 l
S
NP 3338 550 m 3338 576 l
S
NP 3407 550 m 3407 576 l
S
NP 3477 550 m 3477 576 l
S
NP 3547 523 m 3547 576 l
S
NP 3617 550 m 3617 576 l
S
NP 3687 550 m 3687 576 l
S
NP 3757 550 m 3757 576 l
S
NP 3827 550 m 3827 576 l
S
NP 3897 523 m 3897 576 l
S
NP 3967 550 m 3967 576 l
S
NP 4037 550 m 4037 576 l
S
NP 4107 550 m 4107 576 l
S
NP 4176 550 m 4176 576 l
S
NP 4246 523 m 4246 576 l
S
NP 4316 550 m 4316 576 l
S
NP 4386 550 m 4386 576 l
S
NP 4456 550 m 4456 576 l
S
medium setlinewidth
(0) dup stringbbox 576 exch sub exch 398 exch sub exch m show
(0.2) dup stringbbox 2 idiv 1345 exch sub exch 398 exch sub exch m show
(0.4) dup stringbbox 2 idiv 2114 exch sub exch 398 exch sub exch m show
(0.6) dup stringbbox 2 idiv 2883 exch sub exch 398 exch sub exch m show
(0.8) dup stringbbox 2 idiv 3652 exch sub exch 398 exch sub exch m show
(1) dup stringbbox 2 idiv 4421 exch sub exch 398 exch sub exch m show
(p) dup stringbbox 2 idiv 2538 exch sub exch 340 exch sub exch m show
(2) dup stringbbox 501 exch sub exch 2 idiv 751 exch sub exch m show
(4) dup stringbbox 501 exch sub exch 2 idiv 1101 exch sub exch m show
(6) dup stringbbox 501 exch sub exch 2 idiv 1450 exch sub exch m show
(8) dup stringbbox 501 exch sub exch 2 idiv 1800 exch sub exch m show
(10) dup stringbbox 501 exch sub exch 2 idiv 2149 exch sub exch m show
(12) dup stringbbox 501 exch sub exch 2 idiv 2499 exch sub exch m show
(14) dup stringbbox 501 exch sub exch 2 idiv 2848 exch sub exch m show
(16) dup stringbbox 501 exch sub exch 2 idiv 3198 exch sub exch m show
(18) dup stringbbox 501 exch sub exch 2 idiv 3547 exch sub exch m show
(20) dup stringbbox 501 exch sub exch 2 idiv 3897 exch sub exch m show
(22) dup stringbbox 501 exch sub exch 2 idiv 4246 exch sub exch m show
(pasos) dup stringbbox 336 exch sub exch 2 idiv 2500 exch sub exch m show
boundarythick setlinewidth
% The following draws a box around the plot,
% if the variable drawborder is true
drawborder { 
/bd boundarythick 2 idiv def
[] 0 setdash 
NP bd bd m bd 5000 bd sub l 
5000 bd sub 5000 bd sub l 
5000 bd sub bd l 
bd bd l S
} if % end of if to draw the border

showpage
grestore
end
%%Trailer
%%BoundingBox: 295 293 466 471 
%%EOF
