%!PS-Adobe-3.0 EPSF
%%Title: Maple plot
%%Creator: MapleV 
%%Pages:  1
%%BoundingBox: (atend)
%%DocumentNeededResources: font Helvetica
%%EndComments
20 dict begin
gsave
/drawborder false def
/m {moveto} def
/l {lineto} def
/C {setrgbcolor} def
/Y /setcmykcolor where { %%ifelse Use built-in operator
       /setcmykcolor get
   }{ %%ifelse Emulate setcmykcolor with setrgbcolor
       { %%def
           1 sub 3 { %%repeat
               3 index add neg dup 0 lt { pop 0 } if 3 1 roll
           } repeat setrgbcolor
       } bind
   } ifelse def
/G {setgray} def
/S {stroke} def
/NP {newpath} def
%%%%This draws a filled polygon and avoids bugs/features
%%%%   of some postscript interpreters
%%%%GHOSTSCRIPT: has a bug in reversepath - removing
%%%%the call to reversepath is a sufficient work around
/P {gsave fill grestore reversepath stroke} def
%%%%This function is needed for drawing text
/stringbbox {gsave NP 0 0 m false charpath flattenpath
   pathbbox 4 2 roll pop pop 1.1 mul cvi exch 1.1 mul 
   cvi exch grestore} def
/thin 3 def
/medium 7 def
/thick 16 def
/boundarythick 20 def % thichess of bounding box
%%IncludeResource: font Helvetica
288.000000 288.000000 translate
/defaultTitleFont {/Helvetica findfont 517 scalefont setfont} def
/defaultFont {/Helvetica findfont 214 scalefont setfont} def
0.0396 0.0396 scale
1 setlinejoin
1 setlinecap
0.0 setgray
/inch {72 mul} def
/fheight 0.35 inch neg def
    0 G
medium setlinewidth
[] 0 setdash defaultFont
  0.3 G
NP 4413 3594 m 4499 3596 l
S
NP 4332 3589 m 4413 3594 l
S
NP 4247 3581 m 4332 3589 l
S
NP 4168 3570 m 4247 3581 l
S
NP 4079 3555 m 4168 3570 l
S
NP 4002 3539 m 4079 3555 l
S
NP 3918 3518 m 4002 3539 l
S
NP 3833 3493 m 3918 3518 l
S
NP 3750 3466 m 3833 3493 l
S
NP 3664 3435 m 3750 3466 l
S
NP 3582 3402 m 3664 3435 l
S
NP 3498 3365 m 3582 3402 l
S
NP 3417 3327 m 3498 3365 l
S
NP 3331 3284 m 3417 3327 l
S
NP 3253 3242 m 3331 3284 l
S
NP 3167 3192 m 3253 3242 l
S
NP 3086 3143 m 3167 3192 l
S
NP 2996 3085 m 3086 3143 l
S
NP 2915 3030 m 2996 3085 l
S
NP 2831 2971 m 2915 3030 l
S
NP 2745 2907 m 2831 2971 l
S
NP 2662 2844 m 2745 2907 l
S
NP 2586 2783 m 2662 2844 l
S
NP 2498 2710 m 2586 2783 l
S
NP 2413 2638 m 2498 2710 l
S
NP 2334 2568 m 2413 2638 l
S
NP 2248 2491 m 2334 2568 l
S
NP 2166 2414 m 2248 2491 l
S
NP 2080 2332 m 2166 2414 l
S
NP 2001 2256 m 2080 2332 l
S
NP 1912 2167 m 2001 2256 l
S
NP 1836 2089 m 1912 2167 l
S
NP 1746 1996 m 1836 2089 l
S
NP 1670 1916 m 1746 1996 l
S
NP 1587 1827 m 1670 1916 l
S
NP 1500 1732 m 1587 1827 l
S
NP 1414 1637 m 1500 1732 l
S
NP 1337 1552 m 1414 1637 l
S
NP 1250 1453 m 1337 1552 l
S
NP 1165 1357 m 1250 1453 l
S
NP 1081 1259 m 1165 1357 l
S
NP 998 1164 m 1081 1259 l
S
NP 919 1072 m 998 1164 l
S
NP 834 972 m 919 1072 l
S
NP 748 870 m 834 972 l
S
NP 663 770 m 748 870 l
S
NP 587 680 m 663 770 l
S
NP 500 576 m 587 680 l
S
 0.89 G
NP
4490 2499 m
4508 2499 l
4499 2490 m
4499 2508 l
S
NP
4404 2499 m
4422 2499 l
4413 2490 m
4413 2508 l
S
NP
4323 2499 m
4341 2499 l
4332 2490 m
4332 2508 l
S
NP
4238 2499 m
4256 2499 l
4247 2490 m
4247 2508 l
S
NP
4159 2499 m
4177 2499 l
4168 2490 m
4168 2508 l
S
NP
4070 2499 m
4088 2499 l
4079 2490 m
4079 2508 l
S
NP
3993 2499 m
4011 2499 l
4002 2490 m
4002 2508 l
S
NP
3909 2499 m
3927 2499 l
3918 2490 m
3918 2508 l
S
NP
3824 2499 m
3842 2499 l
3833 2490 m
3833 2508 l
S
NP
3741 2499 m
3759 2499 l
3750 2490 m
3750 2508 l
S
NP
3655 2499 m
3673 2499 l
3664 2490 m
3664 2508 l
S
NP
3573 2499 m
3591 2499 l
3582 2490 m
3582 2508 l
S
NP
3489 2499 m
3507 2499 l
3498 2490 m
3498 2508 l
S
NP
3408 2499 m
3426 2499 l
3417 2490 m
3417 2508 l
S
NP
3322 2499 m
3340 2499 l
3331 2490 m
3331 2508 l
S
NP
3244 2499 m
3262 2499 l
3253 2490 m
3253 2508 l
S
NP
3158 2499 m
3176 2499 l
3167 2490 m
3167 2508 l
S
NP
3077 2499 m
3095 2499 l
3086 2490 m
3086 2508 l
S
NP
2987 2499 m
3005 2499 l
2996 2490 m
2996 2508 l
S
NP
2906 2499 m
2924 2499 l
2915 2490 m
2915 2508 l
S
NP
2822 2499 m
2840 2499 l
2831 2490 m
2831 2508 l
S
NP
2736 2499 m
2754 2499 l
2745 2490 m
2745 2508 l
S
NP
2653 2499 m
2671 2499 l
2662 2490 m
2662 2508 l
S
NP
2577 2499 m
2595 2499 l
2586 2490 m
2586 2508 l
S
NP
2489 2499 m
2507 2499 l
2498 2490 m
2498 2508 l
S
NP
2404 2499 m
2422 2499 l
2413 2490 m
2413 2508 l
S
NP
2325 2499 m
2343 2499 l
2334 2490 m
2334 2508 l
S
NP
2239 2499 m
2257 2499 l
2248 2490 m
2248 2508 l
S
NP
2157 2499 m
2175 2499 l
2166 2490 m
2166 2508 l
S
NP
2071 2499 m
2089 2499 l
2080 2490 m
2080 2508 l
S
NP
1992 2499 m
2010 2499 l
2001 2490 m
2001 2508 l
S
NP
1903 2499 m
1921 2499 l
1912 2490 m
1912 2508 l
S
NP
1827 2499 m
1845 2499 l
1836 2490 m
1836 2508 l
S
NP
1737 2499 m
1755 2499 l
1746 2490 m
1746 2508 l
S
NP
1661 2499 m
1679 2499 l
1670 2490 m
1670 2508 l
S
NP
1578 2499 m
1596 2499 l
1587 2490 m
1587 2508 l
S
NP
1491 2499 m
1509 2499 l
1500 2490 m
1500 2508 l
S
NP
1405 2499 m
1423 2499 l
1414 2490 m
1414 2508 l
S
NP
1328 2499 m
1346 2499 l
1337 2490 m
1337 2508 l
S
NP
1241 2499 m
1259 2499 l
1250 2490 m
1250 2508 l
S
NP
1156 2499 m
1174 2499 l
1165 2490 m
1165 2508 l
S
NP
1072 2499 m
1090 2499 l
1081 2490 m
1081 2508 l
S
NP
989 2499 m
1007 2499 l
998 2490 m
998 2508 l
S
NP
910 2499 m
928 2499 l
919 2490 m
919 2508 l
S
NP
825 2499 m
843 2499 l
834 2490 m
834 2508 l
S
NP
739 2499 m
757 2499 l
748 2490 m
748 2508 l
S
NP
654 2499 m
672 2499 l
663 2490 m
663 2508 l
S
NP
578 2499 m
596 2499 l
587 2490 m
587 2508 l
S
NP
491 2499 m
509 2499 l
500 2490 m
500 2508 l
S
 0.59 G
NP
4490 4421 m
4508 4421 l
4499 4412 m
4499 4430 l
S
NP
4404 4338 m
4422 4338 l
4413 4329 m
4413 4347 l
S
NP
4323 4260 m
4341 4260 l
4332 4251 m
4332 4269 l
S
NP
4238 4179 m
4256 4179 l
4247 4170 m
4247 4188 l
S
NP
4159 4102 m
4177 4102 l
4168 4093 m
4168 4111 l
S
NP
4070 4017 m
4088 4017 l
4079 4008 m
4079 4026 l
S
NP
3993 3943 m
4011 3943 l
4002 3934 m
4002 3952 l
S
NP
3909 3862 m
3927 3862 l
3918 3853 m
3918 3871 l
S
NP
3824 3781 m
3842 3781 l
3833 3772 m
3833 3790 l
S
NP
3741 3701 m
3759 3701 l
3750 3692 m
3750 3710 l
S
NP
3655 3618 m
3673 3618 l
3664 3609 m
3664 3627 l
S
NP
3573 3539 m
3591 3539 l
3582 3530 m
3582 3548 l
S
NP
3489 3458 m
3507 3458 l
3498 3449 m
3498 3467 l
S
NP
3408 3381 m
3426 3381 l
3417 3372 m
3417 3390 l
S
NP
3322 3298 m
3340 3298 l
3331 3289 m
3331 3307 l
S
NP
3244 3223 m
3262 3223 l
3253 3214 m
3253 3232 l
S
NP
3158 3140 m
3176 3140 l
3167 3131 m
3167 3149 l
S
NP
3077 3062 m
3095 3062 l
3086 3053 m
3086 3071 l
S
NP
2987 2976 m
3005 2976 l
2996 2967 m
2996 2985 l
S
NP
2906 2898 m
2924 2898 l
2915 2889 m
2915 2907 l
S
NP
2822 2817 m
2840 2817 l
2831 2808 m
2831 2826 l
S
NP
2736 2735 m
2754 2735 l
2745 2726 m
2745 2744 l
S
NP
2653 2655 m
2671 2655 l
2662 2646 m
2662 2664 l
S
NP
2577 2582 m
2595 2582 l
2586 2573 m
2586 2591 l
S
NP
2489 2497 m
2507 2497 l
2498 2488 m
2498 2506 l
S
NP
2404 2415 m
2422 2415 l
2413 2406 m
2413 2424 l
S
NP
2325 2340 m
2343 2340 l
2334 2331 m
2334 2349 l
S
NP
2239 2257 m
2257 2257 l
2248 2248 m
2248 2266 l
S
NP
2157 2178 m
2175 2178 l
2166 2169 m
2166 2187 l
S
NP
2071 2095 m
2089 2095 l
2080 2086 m
2080 2104 l
S
NP
1992 2020 m
2010 2020 l
2001 2011 m
2001 2029 l
S
NP
1903 1934 m
1921 1934 l
1912 1925 m
1912 1943 l
S
NP
1827 1861 m
1845 1861 l
1836 1852 m
1836 1870 l
S
NP
1737 1774 m
1755 1774 l
1746 1765 m
1746 1783 l
S
NP
1661 1701 m
1679 1701 l
1670 1692 m
1670 1710 l
S
NP
1578 1621 m
1596 1621 l
1587 1612 m
1587 1630 l
S
NP
1491 1538 m
1509 1538 l
1500 1529 m
1500 1547 l
S
NP
1405 1455 m
1423 1455 l
1414 1446 m
1414 1464 l
S
NP
1328 1381 m
1346 1381 l
1337 1372 m
1337 1390 l
S
NP
1241 1298 m
1259 1298 l
1250 1289 m
1250 1307 l
S
NP
1156 1216 m
1174 1216 l
1165 1207 m
1165 1225 l
S
NP
1072 1135 m
1090 1135 l
1081 1126 m
1081 1144 l
S
NP
989 1056 m
1007 1056 l
998 1047 m
998 1065 l
S
NP
910 980 m
928 980 l
919 971 m
919 989 l
S
NP
825 898 m
843 898 l
834 889 m
834 907 l
S
NP
739 815 m
757 815 l
748 806 m
748 824 l
S
NP
654 733 m
672 733 l
663 724 m
663 742 l
S
NP
578 660 m
596 660 l
587 651 m
587 669 l
S
NP
491 576 m
509 576 l
500 567 m
500 585 l
S
  0.3 G
NP
4490 3460 m
4508 3460 l
4499 3451 m
4499 3469 l
S
NP
4404 3428 m
4422 3428 l
4413 3419 m
4413 3437 l
S
NP
4323 3399 m
4341 3399 l
4332 3390 m
4332 3408 l
S
NP
4238 3367 m
4256 3367 l
4247 3358 m
4247 3376 l
S
NP
4159 3338 m
4177 3338 l
4168 3329 m
4168 3347 l
S
NP
4070 3304 m
4088 3304 l
4079 3295 m
4079 3313 l
S
NP
3993 3275 m
4011 3275 l
4002 3266 m
4002 3284 l
S
NP
3909 3242 m
3927 3242 l
3918 3233 m
3918 3251 l
S
NP
3824 3209 m
3842 3209 l
3833 3200 m
3833 3218 l
S
NP
3741 3176 m
3759 3176 l
3750 3167 m
3750 3185 l
S
NP
3655 3141 m
3673 3141 l
3664 3132 m
3664 3150 l
S
NP
3573 3108 m
3591 3108 l
3582 3099 m
3582 3117 l
S
NP
3489 3073 m
3507 3073 l
3498 3064 m
3498 3082 l
S
NP
3408 3039 m
3426 3039 l
3417 3030 m
3417 3048 l
S
NP
3322 3003 m
3340 3003 l
3331 2994 m
3331 3012 l
S
NP
3244 2969 m
3262 2969 l
3253 2960 m
3253 2978 l
S
NP
3158 2931 m
3176 2931 l
3167 2922 m
3167 2940 l
S
NP
3077 2895 m
3095 2895 l
3086 2886 m
3086 2904 l
S
NP
2987 2854 m
3005 2854 l
2996 2845 m
2996 2863 l
S
NP
2906 2817 m
2924 2817 l
2915 2808 m
2915 2826 l
S
NP
2822 2778 m
2840 2778 l
2831 2769 m
2831 2787 l
S
NP
2736 2737 m
2754 2737 l
2745 2728 m
2745 2746 l
S
NP
2653 2697 m
2671 2697 l
2662 2688 m
2662 2706 l
S
NP
2577 2659 m
2595 2659 l
2586 2650 m
2586 2668 l
S
NP
2489 2614 m
2507 2614 l
2498 2605 m
2498 2623 l
S
NP
2404 2571 m
2422 2571 l
2413 2562 m
2413 2580 l
S
NP
2325 2529 m
2343 2529 l
2334 2520 m
2334 2538 l
S
NP
2239 2483 m
2257 2483 l
2248 2474 m
2248 2492 l
S
NP
2157 2438 m
2175 2438 l
2166 2429 m
2166 2447 l
S
NP
2071 2389 m
2089 2389 l
2080 2380 m
2080 2398 l
S
NP
1992 2343 m
2010 2343 l
2001 2334 m
2001 2352 l
S
NP
1903 2290 m
1921 2290 l
1912 2281 m
1912 2299 l
S
NP
1827 2243 m
1845 2243 l
1836 2234 m
1836 2252 l
S
NP
1737 2186 m
1755 2186 l
1746 2177 m
1746 2195 l
S
NP
1661 2136 m
1679 2136 l
1670 2127 m
1670 2145 l
S
NP
1578 2080 m
1596 2080 l
1587 2071 m
1587 2089 l
S
NP
1491 2018 m
1509 2018 l
1500 2009 m
1500 2027 l
S
NP
1405 1955 m
1423 1955 l
1414 1946 m
1414 1964 l
S
NP
1328 1896 m
1346 1896 l
1337 1887 m
1337 1905 l
S
NP
1241 1825 m
1259 1825 l
1250 1816 m
1250 1834 l
S
NP
1156 1753 m
1174 1753 l
1165 1744 m
1165 1762 l
S
NP
1072 1675 m
1090 1675 l
1081 1666 m
1081 1684 l
S
NP
989 1595 m
1007 1595 l
998 1586 m
998 1604 l
S
NP
910 1510 m
928 1510 l
919 1501 m
919 1519 l
S
NP
825 1410 m
843 1410 l
834 1401 m
834 1419 l
S
NP
739 1295 m
757 1295 l
748 1286 m
748 1304 l
S
NP
654 1159 m
672 1159 l
663 1150 m
663 1168 l
S
NP
616 1086 m
634 1086 l
625 1077 m
625 1095 l
S
NP
578 1002 m
596 1002 l
587 993 m
587 1011 l
S
NP
556 945 m
574 945 l
565 936 m
565 954 l
S
NP
534 877 m
552 877 l
543 868 m
543 886 l
S
NP
512 789 m
530 789 l
521 780 m
521 798 l
S
NP
491 576 m
509 576 l
500 567 m
500 585 l
S
    0 G
(a) dup stringbbox pop 2418 exch 2 idiv 3810 exch sub exch m show
(b) dup stringbbox pop 3898 exch 2 idiv 3810 exch sub exch m show
(c) dup stringbbox pop 1784 exch 2 idiv 1009 exch sub exch m show
(h\(x\)) dup stringbbox pop 3022 exch 2 idiv 2689 exch sub exch m show
medium setlinewidth
NP 500 500 m 500 4500 l
S
thin setlinewidth
NP 429 576 m 500 576 l
S
NP 464 697 m 500 697 l
S
NP 464 818 m 500 818 l
S
NP 464 939 m 500 939 l
S
NP 464 1060 m 500 1060 l
S
NP 429 1180 m 500 1180 l
S
NP 464 1301 m 500 1301 l
S
NP 464 1422 m 500 1422 l
S
NP 464 1543 m 500 1543 l
S
NP 464 1663 m 500 1663 l
S
NP 429 1784 m 500 1784 l
S
NP 464 1905 m 500 1905 l
S
NP 464 2026 m 500 2026 l
S
NP 464 2147 m 500 2147 l
S
NP 464 2267 m 500 2267 l
S
NP 429 2388 m 500 2388 l
S
NP 464 2509 m 500 2509 l
S
NP 464 2630 m 500 2630 l
S
NP 464 2751 m 500 2751 l
S
NP 464 2871 m 500 2871 l
S
NP 429 2992 m 500 2992 l
S
NP 464 3113 m 500 3113 l
S
NP 464 3234 m 500 3234 l
S
NP 464 3354 m 500 3354 l
S
NP 464 3475 m 500 3475 l
S
NP 429 3596 m 500 3596 l
S
NP 464 3717 m 500 3717 l
S
NP 464 3838 m 500 3838 l
S
NP 464 3958 m 500 3958 l
S
NP 464 4079 m 500 4079 l
S
NP 429 4200 m 500 4200 l
S
NP 464 4321 m 500 4321 l
S
NP 464 4441 m 500 4441 l
S
medium setlinewidth
NP 500 576 m 4500 576 l
S
thin setlinewidth
NP 601 550 m 601 576 l
S
NP 703 550 m 703 576 l
S
NP 805 550 m 805 576 l
S
NP 907 550 m 907 576 l
S
NP 1009 523 m 1009 576 l
S
NP 1111 550 m 1111 576 l
S
NP 1213 550 m 1213 576 l
S
NP 1314 550 m 1314 576 l
S
NP 1416 550 m 1416 576 l
S
NP 1518 523 m 1518 576 l
S
NP 1620 550 m 1620 576 l
S
NP 1722 550 m 1722 576 l
S
NP 1824 550 m 1824 576 l
S
NP 1926 550 m 1926 576 l
S
NP 2027 523 m 2027 576 l
S
NP 2129 550 m 2129 576 l
S
NP 2231 550 m 2231 576 l
S
NP 2333 550 m 2333 576 l
S
NP 2435 550 m 2435 576 l
S
NP 2537 523 m 2537 576 l
S
NP 2639 550 m 2639 576 l
S
NP 2740 550 m 2740 576 l
S
NP 2842 550 m 2842 576 l
S
NP 2944 550 m 2944 576 l
S
NP 3046 523 m 3046 576 l
S
NP 3148 550 m 3148 576 l
S
NP 3250 550 m 3250 576 l
S
NP 3352 550 m 3352 576 l
S
NP 3453 550 m 3453 576 l
S
NP 3555 523 m 3555 576 l
S
NP 3657 550 m 3657 576 l
S
NP 3759 550 m 3759 576 l
S
NP 3861 550 m 3861 576 l
S
NP 3963 550 m 3963 576 l
S
NP 4065 523 m 4065 576 l
S
NP 4166 550 m 4166 576 l
S
NP 4268 550 m 4268 576 l
S
NP 4370 550 m 4370 576 l
S
NP 4472 550 m 4472 576 l
S
medium setlinewidth
(0) dup stringbbox 576 exch sub exch 398 exch sub exch m show
(0.2) dup stringbbox 2 idiv 1180 exch sub exch 398 exch sub exch m show
(0.4) dup stringbbox 2 idiv 1784 exch sub exch 398 exch sub exch m show
(0.6) dup stringbbox 2 idiv 2388 exch sub exch 398 exch sub exch m show
(0.8) dup stringbbox 2 idiv 2992 exch sub exch 398 exch sub exch m show
(1) dup stringbbox 2 idiv 3596 exch sub exch 398 exch sub exch m show
(1.2) dup stringbbox 2 idiv 4200 exch sub exch 398 exch sub exch m show
(0.2) dup stringbbox 501 exch sub exch 2 idiv 1009 exch sub exch m show
(0.4) dup stringbbox 501 exch sub exch 2 idiv 1518 exch sub exch m show
(0.6) dup stringbbox 501 exch sub exch 2 idiv 2027 exch sub exch m show
(0.8) dup stringbbox 501 exch sub exch 2 idiv 2537 exch sub exch m show
(1) dup stringbbox 501 exch sub exch 2 idiv 3046 exch sub exch m show
(1.2) dup stringbbox 501 exch sub exch 2 idiv 3555 exch sub exch m show
(1.4) dup stringbbox 501 exch sub exch 2 idiv 4065 exch sub exch m show
(x) dup stringbbox 336 exch sub exch 2 idiv 2500 exch sub exch m show
boundarythick setlinewidth
% The following draws a box around the plot,
% if the variable drawborder is true
drawborder { 
/bd boundarythick 2 idiv def
[] 0 setdash 
NP bd bd m bd 5000 bd sub l 
5000 bd sub 5000 bd sub l 
5000 bd sub bd l 
bd bd l S
} if % end of if to draw the border

showpage
grestore
end
%%Trailer
%%BoundingBox: 295 293 466 466 
%%EOF
