%!PS-Adobe-2.0 EPSF-2.0
%%Creator: gnuplot
%%DocumentFonts: Helvetica
%%BoundingBox: 50 50 410 302
%%EndComments
/gnudict 40 dict def
gnudict begin
/Color false def
/Solid false def
/gnulinewidth 5.000 def
/vshift -46 def
/dl {10 mul} def
/hpt 31.5 def
/vpt 31.5 def
/M {moveto} bind def
/L {lineto} bind def
/R {rmoveto} bind def
/V {rlineto} bind def
/vpt2 vpt 2 mul def
/hpt2 hpt 2 mul def
/Lshow { currentpoint stroke M
  0 vshift R show } def
/Rshow { currentpoint stroke M
  dup stringwidth pop neg vshift R show } def
/Cshow { currentpoint stroke M
  dup stringwidth pop -2 div vshift R show } def
/DL { Color {setrgbcolor Solid {pop []} if 0 setdash }
 {pop pop pop Solid {pop []} if 0 setdash} ifelse } def
/BL { stroke gnulinewidth 2 mul setlinewidth } def
/AL { stroke gnulinewidth 2 div setlinewidth } def
/PL { stroke gnulinewidth setlinewidth } def
/LTb { BL [] 0 0 0 DL } def
/LTa { AL [1 dl 2 dl] 0 setdash 0 0 0 setrgbcolor } def
/LT0 { PL [] 0 1 0 DL } def
/LT1 { PL [4 dl 2 dl] 0 0 1 DL } def
/LT2 { PL [2 dl 3 dl] 1 0 0 DL } def
/LT3 { PL [1 dl 1.5 dl] 1 0 1 DL } def
/LT4 { PL [5 dl 2 dl 1 dl 2 dl] 0 1 1 DL } def
/LT5 { PL [4 dl 3 dl 1 dl 3 dl] 1 1 0 DL } def
/LT6 { PL [2 dl 2 dl 2 dl 4 dl] 0 0 0 DL } def
/LT7 { PL [2 dl 2 dl 2 dl 2 dl 2 dl 4 dl] 1 0.3 0 DL } def
/LT8 { PL [2 dl 2 dl 2 dl 2 dl 2 dl 2 dl 2 dl 4 dl] 0.5 0.5 0.5 DL } def
/P { stroke [] 0 setdash
  currentlinewidth 2 div sub M
  0 currentlinewidth V stroke } def
/D { stroke [] 0 setdash 2 copy vpt add M
  hpt neg vpt neg V hpt vpt neg V
  hpt vpt V hpt neg vpt V closepath stroke
  P } def
/A { stroke [] 0 setdash vpt sub M 0 vpt2 V
  currentpoint stroke M
  hpt neg vpt neg R hpt2 0 V stroke
  } def
/B { stroke [] 0 setdash 2 copy exch hpt sub exch vpt add M
  0 vpt2 neg V hpt2 0 V 0 vpt2 V
  hpt2 neg 0 V closepath stroke
  P } def
/C { stroke [] 0 setdash exch hpt sub exch vpt add M
  hpt2 vpt2 neg V currentpoint stroke M
  hpt2 neg 0 R hpt2 vpt2 V stroke } def
/T { stroke [] 0 setdash 2 copy vpt 1.12 mul add M
  hpt neg vpt -1.62 mul V
  hpt 2 mul 0 V
  hpt neg vpt 1.62 mul V closepath stroke
  P  } def
/S { 2 copy A C} def
end
%%EndProlog
gnudict begin
gsave
50 50 translate
0.050 0.050 scale
0 setgray
/Helvetica findfont 140 scalefont setfont
newpath
LTa
840 351 M
6129 0 V
-3065 0 R
0 4618 V
LTb
840 351 M
63 0 V
6066 0 R
-63 0 V
756 351 M
(0) Rshow
840 928 M
63 0 V
6066 0 R
-63 0 V
756 928 M
(0.1) Rshow
840 1506 M
63 0 V
6066 0 R
-63 0 V
-6150 0 R
(0.2) Rshow
840 2083 M
63 0 V
6066 0 R
-63 0 V
-6150 0 R
(0.3) Rshow
840 2660 M
63 0 V
6066 0 R
-63 0 V
-6150 0 R
(0.4) Rshow
840 3237 M
63 0 V
6066 0 R
-63 0 V
-6150 0 R
(0.5) Rshow
840 3815 M
63 0 V
6066 0 R
-63 0 V
-6150 0 R
(0.6) Rshow
840 4392 M
63 0 V
6066 0 R
-63 0 V
-6150 0 R
(0.7) Rshow
840 4969 M
63 0 V
6066 0 R
-63 0 V
-6150 0 R
(0.8) Rshow
840 351 M
0 63 V
0 4555 R
0 -63 V
840 211 M
(-2.5) Cshow
1453 351 M
0 63 V
0 4555 R
0 -63 V
0 -4695 R
(-2) Cshow
2066 351 M
0 63 V
0 4555 R
0 -63 V
0 -4695 R
(-1.5) Cshow
2679 351 M
0 63 V
0 4555 R
0 -63 V
0 -4695 R
(-1) Cshow
3292 351 M
0 63 V
0 4555 R
0 -63 V
0 -4695 R
(-0.5) Cshow
3904 351 M
0 63 V
0 4555 R
0 -63 V
0 -4695 R
(0) Cshow
4517 351 M
0 63 V
0 4555 R
0 -63 V
0 -4695 R
(0.5) Cshow
5130 351 M
0 63 V
0 4555 R
0 -63 V
0 -4695 R
(1) Cshow
5743 351 M
0 63 V
0 4555 R
0 -63 V
0 -4695 R
(1.5) Cshow
6356 351 M
0 63 V
0 4555 R
0 -63 V
0 -4695 R
(2) Cshow
6969 351 M
0 63 V
0 4555 R
0 -63 V
0 -4695 R
(2.5) Cshow
840 351 M
6129 0 V
0 4618 V
-6129 0 V
840 351 L
140 2660 M
currentpoint gsave translate 90 rotate 0 0 M
(y) Cshow
grestore
3904 71 M
(x) Cshow
LT0
6486 4766 M
(sigma=0.5) Rshow
6570 4766 M
252 0 V
840 360 M
62 2 V
62 4 V
62 4 V
62 4 V
62 6 V
61 8 V
62 9 V
62 11 V
62 13 V
62 16 V
62 19 V
62 22 V
62 27 V
62 31 V
62 36 V
62 42 V
61 48 V
62 56 V
62 62 V
62 71 V
62 80 V
62 89 V
62 99 V
62 109 V
62 119 V
62 130 V
62 140 V
61 151 V
62 160 V
62 169 V
62 178 V
62 185 V
62 191 V
62 196 V
62 198 V
62 199 V
62 199 V
62 195 V
61 190 V
62 182 V
62 172 V
62 159 V
62 145 V
62 129 V
62 110 V
62 90 V
62 69 V
62 46 V
62 24 V
61 0 V
62 -24 V
62 -46 V
62 -69 V
62 -90 V
62 -110 V
62 -129 V
62 -145 V
62 -159 V
62 -172 V
62 -182 V
61 -190 V
62 -195 V
62 -199 V
62 -199 V
62 -198 V
62 -196 V
62 -191 V
62 -185 V
62 -178 V
62 -169 V
62 -160 V
61 -151 V
62 -140 V
62 -130 V
62 -119 V
62 -109 V
62 -99 V
62 -89 V
62 -80 V
62 -71 V
62 -62 V
62 -56 V
61 -48 V
62 -42 V
62 -36 V
62 -31 V
62 -27 V
62 -22 V
62 -19 V
62 -16 V
62 -13 V
62 -11 V
62 -9 V
61 -8 V
62 -6 V
62 -4 V
62 -4 V
62 -4 V
62 -2 V
LT1
6486 4626 M
(sigma=1.0) Rshow
6570 4626 M
252 0 V
840 452 M
62 14 V
62 15 V
62 16 V
62 18 V
62 20 V
61 22 V
62 24 V
62 26 V
62 28 V
62 31 V
62 33 V
62 35 V
62 38 V
62 41 V
62 43 V
62 45 V
61 49 V
62 51 V
62 53 V
62 56 V
62 58 V
62 61 V
62 62 V
62 65 V
62 66 V
62 68 V
62 68 V
61 70 V
62 70 V
62 71 V
62 70 V
62 70 V
62 69 V
62 68 V
62 66 V
62 64 V
62 62 V
62 58 V
61 56 V
62 52 V
62 47 V
62 43 V
62 39 V
62 34 V
62 28 V
62 23 V
62 18 V
62 11 V
62 6 V
61 0 V
62 -6 V
62 -11 V
62 -18 V
62 -23 V
62 -28 V
62 -34 V
62 -39 V
62 -43 V
62 -47 V
62 -52 V
61 -56 V
62 -58 V
62 -62 V
62 -64 V
62 -66 V
62 -68 V
62 -69 V
62 -70 V
62 -70 V
62 -71 V
62 -70 V
61 -70 V
62 -68 V
62 -68 V
62 -66 V
62 -65 V
62 -62 V
62 -61 V
62 -58 V
62 -56 V
62 -53 V
62 -51 V
61 -49 V
62 -45 V
62 -43 V
62 -41 V
62 -38 V
62 -35 V
62 -33 V
62 -31 V
62 -28 V
62 -26 V
62 -24 V
61 -22 V
62 -20 V
62 -18 V
62 -16 V
62 -15 V
62 -14 V
LT2
6486 4486 M
(sigma=1.5) Rshow
6570 4486 M
252 0 V
840 542 M
62 17 V
62 17 V
62 19 V
62 20 V
62 21 V
61 22 V
62 24 V
62 24 V
62 26 V
62 26 V
62 28 V
62 29 V
62 31 V
62 31 V
62 32 V
62 33 V
61 34 V
62 35 V
62 36 V
62 37 V
62 37 V
62 37 V
62 38 V
62 38 V
62 39 V
62 38 V
62 38 V
61 38 V
62 38 V
62 37 V
62 37 V
62 35 V
62 35 V
62 34 V
62 32 V
62 31 V
62 29 V
62 28 V
61 26 V
62 24 V
62 22 V
62 20 V
62 17 V
62 15 V
62 13 V
62 10 V
62 8 V
62 5 V
62 3 V
61 0 V
62 -3 V
62 -5 V
62 -8 V
62 -10 V
62 -13 V
62 -15 V
62 -17 V
62 -20 V
62 -22 V
62 -24 V
61 -26 V
62 -28 V
62 -29 V
62 -31 V
62 -32 V
62 -34 V
62 -35 V
62 -35 V
62 -37 V
62 -37 V
62 -38 V
61 -38 V
62 -38 V
62 -38 V
62 -39 V
62 -38 V
62 -38 V
62 -37 V
62 -37 V
62 -37 V
62 -36 V
62 -35 V
61 -34 V
62 -33 V
62 -32 V
62 -31 V
62 -31 V
62 -29 V
62 -28 V
62 -26 V
62 -26 V
62 -24 V
62 -24 V
61 -22 V
62 -21 V
62 -20 V
62 -19 V
62 -17 V
62 -17 V
stroke
grestore
end
showpage
%%Trailer
