%!PS-Adobe-2.0 EPSF-2.0
%%Title: petri.eps
%%Creator: fig2dev Version 3.2 Patchlevel 1
%%CreationDate: Wed Apr 21 17:03:10 1999
%%For: aspuru@oxido (Alan Aspuru Guzik)
%%Orientation: Portrait
%%BoundingBox: 0 0 311 151
%%Pages: 0
%%BeginSetup
%%EndSetup
%%Magnification: 1.0000
%%EndComments
/$F2psDict 200 dict def
$F2psDict begin
$F2psDict /mtrx matrix put
/col-1 {0 setgray} bind def
/col0 {0.000 0.000 0.000 srgb} bind def
/col1 {0.000 0.000 1.000 srgb} bind def
/col2 {0.000 1.000 0.000 srgb} bind def
/col3 {0.000 1.000 1.000 srgb} bind def
/col4 {1.000 0.000 0.000 srgb} bind def
/col5 {1.000 0.000 1.000 srgb} bind def
/col6 {1.000 1.000 0.000 srgb} bind def
/col7 {1.000 1.000 1.000 srgb} bind def
/col8 {0.000 0.000 0.560 srgb} bind def
/col9 {0.000 0.000 0.690 srgb} bind def
/col10 {0.000 0.000 0.820 srgb} bind def
/col11 {0.530 0.810 1.000 srgb} bind def
/col12 {0.000 0.560 0.000 srgb} bind def
/col13 {0.000 0.690 0.000 srgb} bind def
/col14 {0.000 0.820 0.000 srgb} bind def
/col15 {0.000 0.560 0.560 srgb} bind def
/col16 {0.000 0.690 0.690 srgb} bind def
/col17 {0.000 0.820 0.820 srgb} bind def
/col18 {0.560 0.000 0.000 srgb} bind def
/col19 {0.690 0.000 0.000 srgb} bind def
/col20 {0.820 0.000 0.000 srgb} bind def
/col21 {0.560 0.000 0.560 srgb} bind def
/col22 {0.690 0.000 0.690 srgb} bind def
/col23 {0.820 0.000 0.820 srgb} bind def
/col24 {0.500 0.190 0.000 srgb} bind def
/col25 {0.630 0.250 0.000 srgb} bind def
/col26 {0.750 0.380 0.000 srgb} bind def
/col27 {1.000 0.500 0.500 srgb} bind def
/col28 {1.000 0.630 0.630 srgb} bind def
/col29 {1.000 0.750 0.750 srgb} bind def
/col30 {1.000 0.880 0.880 srgb} bind def
/col31 {1.000 0.840 0.000 srgb} bind def

end
save
-21.0 161.0 translate
1 -1 scale

/cp {closepath} bind def
/ef {eofill} bind def
/gr {grestore} bind def
/gs {gsave} bind def
/sa {save} bind def
/rs {restore} bind def
/l {lineto} bind def
/m {moveto} bind def
/rm {rmoveto} bind def
/n {newpath} bind def
/s {stroke} bind def
/sh {show} bind def
/slc {setlinecap} bind def
/slj {setlinejoin} bind def
/slw {setlinewidth} bind def
/srgb {setrgbcolor} bind def
/rot {rotate} bind def
/sc {scale} bind def
/sd {setdash} bind def
/ff {findfont} bind def
/sf {setfont} bind def
/scf {scalefont} bind def
/sw {stringwidth} bind def
/tr {translate} bind def
/tnt {dup dup currentrgbcolor
  4 -2 roll dup 1 exch sub 3 -1 roll mul add
  4 -2 roll dup 1 exch sub 3 -1 roll mul add
  4 -2 roll dup 1 exch sub 3 -1 roll mul add srgb}
  bind def
/shd {dup dup currentrgbcolor 4 -2 roll mul 4 -2 roll mul
  4 -2 roll mul srgb} bind def
 /DrawEllipse {
	/endangle exch def
	/startangle exch def
	/yrad exch def
	/xrad exch def
	/y exch def
	/x exch def
	/savematrix mtrx currentmatrix def
	x y tr xrad yrad sc 0 0 1 startangle endangle arc
	closepath
	savematrix setmatrix
	} def

/$F2psBegin {$F2psDict begin /$F2psEnteredState save def} def
/$F2psEnd {$F2psEnteredState restore end} def
%%EndProlog

$F2psBegin
10 setmiterlimit
n -1000 3679 m -1000 -1000 l 6530 -1000 l 6530 3679 l cp clip
 0.06000 0.06000 sc
7.500 slw
% Ellipse
n 1500 1500 1142 1142 0 360 DrawEllipse gs col0 s gr

% Ellipse
n 4200 1500 1172 1172 0 360 DrawEllipse gs col0 s gr

% Ellipse
n 1650 1350 1172 1172 0 360 DrawEllipse gs col0 s gr

% Ellipse
n 4350 1350 1172 1172 0 360 DrawEllipse gs col0 s gr

45.000 slw
% Ellipse
n 1402 1447 24 24 0 360 DrawEllipse gs col0 s gr

% Ellipse
n 1410 1440 24 24 0 360 DrawEllipse gs col0 s gr

% Ellipse
n 1380 1455 24 24 0 360 DrawEllipse gs col0 s gr

% Ellipse
n 1170 1455 24 24 0 360 DrawEllipse gs col0 s gr

% Ellipse
n 1185 1455 24 24 0 360 DrawEllipse gs col0 s gr

% Ellipse
n 1185 1627 24 24 0 360 DrawEllipse gs col0 s gr

% Ellipse
n 1185 1920 24 24 0 360 DrawEllipse gs col0 s gr

% Ellipse
n 1208 1640 24 24 0 360 DrawEllipse gs col0 s gr

% Ellipse
n 1357 1640 24 24 0 360 DrawEllipse gs col0 s gr

% Ellipse
n 1357 1906 24 24 0 360 DrawEllipse gs col0 s gr

% Ellipse
n 1851 1906 24 24 0 360 DrawEllipse gs col0 s gr

% Ellipse
n 1851 2287 24 24 0 360 DrawEllipse gs col0 s gr

% Ellipse
n 1357 2287 24 24 0 360 DrawEllipse gs col0 s gr

% Ellipse
n 1657 2287 24 24 0 360 DrawEllipse gs col0 s gr

% Ellipse
n 1650 2265 24 24 0 360 DrawEllipse gs col0 s gr

% Ellipse
n 1650 2032 24 24 0 360 DrawEllipse gs col0 s gr

% Ellipse
n 1349 1920 24 24 0 360 DrawEllipse gs col0 s gr

% Ellipse
n 1349 1927 24 24 0 360 DrawEllipse gs col0 s gr

% Ellipse
n 2130 1927 24 24 0 360 DrawEllipse gs col0 s gr

% Ellipse
n 2130 1342 24 24 0 360 DrawEllipse gs col0 s gr

% Ellipse
n 1769 1342 24 24 0 360 DrawEllipse gs col0 s gr

% Ellipse
n 1851 1630 24 24 0 360 DrawEllipse gs col0 s gr

% Ellipse
n 1627 1640 24 24 0 360 DrawEllipse gs col0 s gr

% Ellipse
n 2152 1905 24 24 0 360 DrawEllipse gs col0 s gr

% Ellipse
n 2385 1905 24 24 0 360 DrawEllipse gs col0 s gr

% Ellipse
n 2152 1672 24 24 0 360 DrawEllipse gs col0 s gr

% Ellipse
n 2467 1672 24 24 0 360 DrawEllipse gs col0 s gr

% Ellipse
n 2130 1072 24 24 0 360 DrawEllipse gs col0 s gr

% Ellipse
n 1380 877 24 24 0 360 DrawEllipse gs col0 s gr

% Ellipse
n 796 1455 24 24 0 360 DrawEllipse gs col0 s gr

% Ellipse
n 1185 1072 24 24 0 360 DrawEllipse gs col0 s gr

% Ellipse
n 1031 1627 24 24 0 360 DrawEllipse gs col0 s gr

% Ellipse
n 1087 1920 24 24 0 360 DrawEllipse gs col0 s gr

% Ellipse
n 1065 2205 24 24 0 360 DrawEllipse gs col0 s gr

% Ellipse
n 1552 2205 24 24 0 360 DrawEllipse gs col0 s gr

% Ellipse
n 1552 1839 24 24 0 360 DrawEllipse gs col0 s gr

% Ellipse
n 2413 1839 24 24 0 360 DrawEllipse gs col0 s gr

% Ellipse
n 2154 1890 24 24 0 360 DrawEllipse gs col0 s gr

% Ellipse
n 2126 2287 24 24 0 360 DrawEllipse gs col0 s gr

% Ellipse
n 1769 787 24 24 0 360 DrawEllipse gs col0 s gr

% Ellipse
n 1192 1074 24 24 0 360 DrawEllipse gs col0 s gr

% Ellipse
n 794 1074 24 24 0 360 DrawEllipse gs col0 s gr

% Ellipse
n 794 1252 24 24 0 360 DrawEllipse gs col0 s gr

% Ellipse
n 960 1252 24 24 0 360 DrawEllipse gs col0 s gr

% Ellipse
n 1185 1290 24 24 0 360 DrawEllipse gs col0 s gr

% Ellipse
n 1026 1290 24 24 0 360 DrawEllipse gs col0 s gr

% Ellipse
n 1031 1522 24 24 0 360 DrawEllipse gs col0 s gr

% Ellipse
n 792 1460 24 24 0 360 DrawEllipse gs col0 s gr

% Ellipse
n 886 1460 24 24 0 360 DrawEllipse gs col0 s gr

% Ellipse
n 630 1460 24 24 0 360 DrawEllipse gs col0 s gr

% Ellipse
n 787 1477 24 24 0 360 DrawEllipse gs col0 s gr

% Ellipse
n 817 1477 24 24 0 360 DrawEllipse gs col0 s gr

% Ellipse
n 1185 1080 24 24 0 360 DrawEllipse gs col0 s gr

% Ellipse
n 1777 1327 24 24 0 360 DrawEllipse gs col0 s gr

% Ellipse
n 1756 1327 24 24 0 360 DrawEllipse gs col0 s gr

% Ellipse
n 1756 1035 24 24 0 360 DrawEllipse gs col0 s gr

% Ellipse
n 1545 1035 24 24 0 360 DrawEllipse gs col0 s gr

% Ellipse
n 952 877 24 24 0 360 DrawEllipse gs col0 s gr

% Ellipse
n 1380 495 24 24 0 360 DrawEllipse gs col0 s gr

% Ellipse
n 1207 787 24 24 0 360 DrawEllipse gs col0 s gr

% Ellipse
n 1972 1327 24 24 0 360 DrawEllipse gs col0 s gr

% Ellipse
n 2520 1342 24 24 0 360 DrawEllipse gs col0 s gr

% Ellipse
n 1972 742 24 24 0 360 DrawEllipse gs col0 s gr

% Ellipse
n 1740 1050 24 24 0 360 DrawEllipse gs col0 s gr

% Ellipse
n 2377 1050 24 24 0 360 DrawEllipse gs col0 s gr

% Ellipse
n 2130 435 24 24 0 360 DrawEllipse gs col0 s gr

% Ellipse
n 2280 495 24 24 0 360 DrawEllipse gs col0 s gr

% Ellipse
n 2130 804 24 24 0 360 DrawEllipse gs col0 s gr

% Ellipse
n 2520 742 24 24 0 360 DrawEllipse gs col0 s gr

% Ellipse
n 1942 1072 24 24 0 360 DrawEllipse gs col0 s gr

% Ellipse
n 1769 562 24 24 0 360 DrawEllipse gs col0 s gr

% Ellipse
n 1552 1050 24 24 0 360 DrawEllipse gs col0 s gr

% Ellipse
n 1552 465 24 24 0 360 DrawEllipse gs col0 s gr

% Ellipse
n 1560 787 24 24 0 360 DrawEllipse gs col0 s gr

% Ellipse
n 757 1927 24 24 0 360 DrawEllipse gs col0 s gr

% Ellipse
n 886 1822 24 24 0 360 DrawEllipse gs col0 s gr

% Ellipse
n 697 1627 24 24 0 360 DrawEllipse gs col0 s gr

% Ellipse
n 817 2055 24 24 0 360 DrawEllipse gs col0 s gr

% Ellipse
n 2700 1630 24 24 0 360 DrawEllipse gs col0 s gr

% Ellipse
n 2152 1552 24 24 0 360 DrawEllipse gs col0 s gr

% Ellipse
n 1695 1552 24 24 0 360 DrawEllipse gs col0 s gr

% Ellipse
n 1972 1222 24 24 0 360 DrawEllipse gs col0 s gr

% Ellipse
n 2715 1222 24 24 0 360 DrawEllipse gs col0 s gr

% Ellipse
n 1402 1222 24 24 0 360 DrawEllipse gs col0 s gr

% Ellipse
n 2235 2287 24 24 0 360 DrawEllipse gs col0 s gr

% Ellipse
n 2235 1440 24 24 0 360 DrawEllipse gs col0 s gr

% Ellipse
n 2235 922 24 24 0 360 DrawEllipse gs col0 s gr

% Ellipse
n 2467 1492 24 24 0 360 DrawEllipse gs col0 s gr

% Ellipse
n 1207 765 24 24 0 360 DrawEllipse gs col0 s gr

% Ellipse
n 727 765 24 24 0 360 DrawEllipse gs col0 s gr

% Ellipse
n 1552 1380 24 24 0 360 DrawEllipse gs col0 s gr

% Ellipse
n 1695 285 24 24 0 360 DrawEllipse gs col0 s gr

% Ellipse
n 1972 637 24 24 0 360 DrawEllipse gs col0 s gr

% Ellipse
n 945 637 24 24 0 360 DrawEllipse gs col0 s gr

% Ellipse
n 1207 562 24 24 0 360 DrawEllipse gs col0 s gr

% Ellipse
n 1402 765 24 24 0 360 DrawEllipse gs col0 s gr

% Ellipse
n 1365 1440 24 24 0 360 DrawEllipse gs col0 s gr

% Ellipse
n 4185 1380 24 24 0 360 DrawEllipse gs col0 s gr

% Ellipse
n 4185 1470 24 24 0 360 DrawEllipse gs col0 s gr

% Ellipse
n 4245 1380 24 24 0 360 DrawEllipse gs col0 s gr

% Ellipse
n 4335 1470 24 24 0 360 DrawEllipse gs col0 s gr

% Ellipse
n 4335 1582 24 24 0 360 DrawEllipse gs col0 s gr

% Ellipse
n 4232 1582 24 24 0 360 DrawEllipse gs col0 s gr

% Ellipse
n 4232 1730 24 24 0 360 DrawEllipse gs col0 s gr

% Ellipse
n 4231 1470 24 24 0 360 DrawEllipse gs col0 s gr

% Ellipse
n 4266 1470 24 24 0 360 DrawEllipse gs col0 s gr

% Ellipse
n 4350 1730 24 24 0 360 DrawEllipse gs col0 s gr

% Ellipse
n 4462 1582 24 24 0 360 DrawEllipse gs col0 s gr

% Ellipse
n 4462 724 24 24 0 360 DrawEllipse gs col0 s gr

% Ellipse
n 3752 1470 24 24 0 360 DrawEllipse gs col0 s gr

% Ellipse
n 4015 1470 24 24 0 360 DrawEllipse gs col0 s gr

% Ellipse
n 4015 950 24 24 0 360 DrawEllipse gs col0 s gr

% Ellipse
n 4382 1380 24 24 0 360 DrawEllipse gs col0 s gr

% Ellipse
n 4382 1475 24 24 0 360 DrawEllipse gs col0 s gr

% Ellipse
n 4382 1595 24 24 0 360 DrawEllipse gs col0 s gr

% Ellipse
n 4785 1475 24 24 0 360 DrawEllipse gs col0 s gr

% Ellipse
n 4785 1132 24 24 0 360 DrawEllipse gs col0 s gr

% Ellipse
n 4335 1107 24 24 0 360 DrawEllipse gs col0 s gr

% Ellipse
n 3901 1595 24 24 0 360 DrawEllipse gs col0 s gr

% Ellipse
n 4266 1369 24 24 0 360 DrawEllipse gs col0 s gr

% Ellipse
n 4309 1369 24 24 0 360 DrawEllipse gs col0 s gr

% Ellipse
n 4452 1380 24 24 0 360 DrawEllipse gs col0 s gr

% Ellipse
n 4447 1377 24 24 0 360 DrawEllipse gs col0 s gr

% Ellipse
n 4447 1471 24 24 0 360 DrawEllipse gs col0 s gr

% Ellipse
n 4447 1515 24 24 0 360 DrawEllipse gs col0 s gr

% Ellipse
n 4382 1681 24 24 0 360 DrawEllipse gs col0 s gr

% Ellipse
n 4142 1730 24 24 0 360 DrawEllipse gs col0 s gr

% Ellipse
n 4448 1524 24 24 0 360 DrawEllipse gs col0 s gr

% Ellipse
n 4519 1515 24 24 0 360 DrawEllipse gs col0 s gr

% Ellipse
n 4267 1575 24 24 0 360 DrawEllipse gs col0 s gr

% Ellipse
n 4120 1582 24 24 0 360 DrawEllipse gs col0 s gr

% Ellipse
n 4120 1464 24 24 0 360 DrawEllipse gs col0 s gr

% Ellipse
n 4267 1649 24 24 0 360 DrawEllipse gs col0 s gr

% Ellipse
n 4309 1279 24 24 0 360 DrawEllipse gs col0 s gr

% Ellipse
n 4382 2026 24 24 0 360 DrawEllipse gs col0 s gr

% Ellipse
n 4695 1681 24 24 0 360 DrawEllipse gs col0 s gr

% Ellipse
n 4142 1637 24 24 0 360 DrawEllipse gs col0 s gr

% Ellipse
n 4015 2025 24 24 0 360 DrawEllipse gs col0 s gr

% Ellipse
n 5015 1681 24 24 0 360 DrawEllipse gs col0 s gr

% Ellipse
n 3403 1475 24 24 0 360 DrawEllipse gs col0 s gr

% Ellipse
n 4266 1185 24 24 0 360 DrawEllipse gs col0 s gr

% Ellipse
n 4640 1380 24 24 0 360 DrawEllipse gs col0 s gr

% Ellipse
n 4519 1810 24 24 0 360 DrawEllipse gs col0 s gr

% Ellipse
n 3950 1810 24 24 0 360 DrawEllipse gs col0 s gr

% Ellipse
n 3950 1259 24 24 0 360 DrawEllipse gs col0 s gr

% Ellipse
n 4120 1279 24 24 0 360 DrawEllipse gs col0 s gr

% Ellipse
n 4535 1279 24 24 0 360 DrawEllipse gs col0 s gr

% Ellipse
n 4232 1845 24 24 0 360 DrawEllipse gs col0 s gr

% Ellipse
n 4090 1845 24 24 0 360 DrawEllipse gs col0 s gr

% Ellipse
n 4025 1637 24 24 0 360 DrawEllipse gs col0 s gr

% Ellipse
n 4585 1595 24 24 0 360 DrawEllipse gs col0 s gr

% Ellipse
n 4410 950 24 24 0 360 DrawEllipse gs col0 s gr

% Ellipse
n 4725 2026 24 24 0 360 DrawEllipse gs col0 s gr

% Ellipse
n 3752 1110 24 24 0 360 DrawEllipse gs col0 s gr

$F2psEnd
rs
