%!PS-Adobe-2.0 EPSF-2.0
%%Title: picudez.eps
%%Creator: fig2dev Version 3.2 Patchlevel 0-beta3
%%CreationDate: Wed Aug 19 20:05:02 1998
%%For: aspuru@eros.pquim.unam.mx (Alan Aspuru Guzik,SysAdmin,,,)
%%Orientation: Portrait
%%BoundingBox: 0 0 433 175
%%Pages: 0
%%BeginSetup
%%EndSetup
%%Magnification: 1.0000
%%EndComments
/$F2psDict 200 dict def
$F2psDict begin
$F2psDict /mtrx matrix put
/col-1 {0 setgray} bind def
/col0 {0.000 0.000 0.000 srgb} bind def
/col1 {0.000 0.000 1.000 srgb} bind def
/col2 {0.000 1.000 0.000 srgb} bind def
/col3 {0.000 1.000 1.000 srgb} bind def
/col4 {1.000 0.000 0.000 srgb} bind def
/col5 {1.000 0.000 1.000 srgb} bind def
/col6 {1.000 1.000 0.000 srgb} bind def
/col7 {1.000 1.000 1.000 srgb} bind def
/col8 {0.000 0.000 0.560 srgb} bind def
/col9 {0.000 0.000 0.690 srgb} bind def
/col10 {0.000 0.000 0.820 srgb} bind def
/col11 {0.530 0.810 1.000 srgb} bind def
/col12 {0.000 0.560 0.000 srgb} bind def
/col13 {0.000 0.690 0.000 srgb} bind def
/col14 {0.000 0.820 0.000 srgb} bind def
/col15 {0.000 0.560 0.560 srgb} bind def
/col16 {0.000 0.690 0.690 srgb} bind def
/col17 {0.000 0.820 0.820 srgb} bind def
/col18 {0.560 0.000 0.000 srgb} bind def
/col19 {0.690 0.000 0.000 srgb} bind def
/col20 {0.820 0.000 0.000 srgb} bind def
/col21 {0.560 0.000 0.560 srgb} bind def
/col22 {0.690 0.000 0.690 srgb} bind def
/col23 {0.820 0.000 0.820 srgb} bind def
/col24 {0.500 0.190 0.000 srgb} bind def
/col25 {0.630 0.250 0.000 srgb} bind def
/col26 {0.750 0.380 0.000 srgb} bind def
/col27 {1.000 0.500 0.500 srgb} bind def
/col28 {1.000 0.630 0.630 srgb} bind def
/col29 {1.000 0.750 0.750 srgb} bind def
/col30 {1.000 0.880 0.880 srgb} bind def
/col31 {1.000 0.840 0.000 srgb} bind def

end
save
-14.0 189.0 translate
1 -1 scale

/cp {closepath} bind def
/ef {eofill} bind def
/gr {grestore} bind def
/gs {gsave} bind def
/sa {save} bind def
/rs {restore} bind def
/l {lineto} bind def
/m {moveto} bind def
/rm {rmoveto} bind def
/n {newpath} bind def
/s {stroke} bind def
/sh {show} bind def
/slc {setlinecap} bind def
/slj {setlinejoin} bind def
/slw {setlinewidth} bind def
/srgb {setrgbcolor} bind def
/rot {rotate} bind def
/sc {scale} bind def
/sd {setdash} bind def
/ff {findfont} bind def
/sf {setfont} bind def
/scf {scalefont} bind def
/sw {stringwidth} bind def
/tr {translate} bind def
/tnt {dup dup currentrgbcolor
  4 -2 roll dup 1 exch sub 3 -1 roll mul add
  4 -2 roll dup 1 exch sub 3 -1 roll mul add
  4 -2 roll dup 1 exch sub 3 -1 roll mul add srgb}
  bind def
/shd {dup dup currentrgbcolor 4 -2 roll mul 4 -2 roll mul
  4 -2 roll mul srgb} bind def
/$F2psBegin {$F2psDict begin /$F2psEnteredState save def} def
/$F2psEnd {$F2psEnteredState restore end} def
%%EndProlog

$F2psBegin
10 setmiterlimit
n -1000 4150 m -1000 -1000 l 8437 -1000 l 8437 4150 l cp clip
 0.06000 0.06000 sc
% Polyline
7.500 slw
n 268 1701 m 2415 1701 l gs col0 s gr 
% Polyline
n 1341 628 m 1341 2775 l gs col0 s gr 
% Polyline
n 2773 1701 m 4920 1701 l gs col0 s gr 
% Polyline
n 3846 628 m 3846 2775 l gs col0 s gr 
% Polyline
n 5278 1701 m 7425 1701 l gs col0 s gr 
% Polyline
n 6351 628 m 6351 2775 l gs col0 s gr 
% Polyline
30.000 slw
n 268 628 m 1341 1701 l 2415 628 l gs col0 s gr 
% Polyline
n 2773 1701 m 3846 1701 l 3846 1343 l 4920 1343 l gs col0 s gr 
% Polyline
n 6351 1701 m 6351 270 l gs col0 s gr 
/Helvetica-Bold ff 210.00 scf sf
4800 1725 m
gs 1 -1 sc ( ) col0 sh gr
/Helvetica-Bold ff 210.00 scf sf
600 3150 m
%gs 1 -1 sc (Valor absoluto                Funcion escalon             Delta de Dirac) col0 sh gr
$F2psEnd
rs
