%!PS-Adobe-3.0 EPSF
%%Title: Maple plot
%%Creator: MapleV 
%%Pages:  1
%%BoundingBox: 0 0 612 792 
%%DocumentNeededResources: font Courier
%%EndComments
20 dict begin
gsave
/m {moveto} def
/l {lineto} def
/C {setrgbcolor} def
/Y /setcmykcolor where { %%ifelse Use built-in operator
       /setcmykcolor get
   }{ %%ifelse Emulate setcmykcolor with setrgbcolor
       { %%def
           1 sub 3 { %%repeat
               3 index add neg dup 0 lt { pop 0 } if 3 1 roll
           } repeat setrgbcolor
       } bind
   } ifelse def
/G {setgray} def
/S {stroke} def
/NP {newpath} def
%%%%This draws a filled polygon and avoids bugs/features
%%%%   of some postscript interpreters
%%%%GHOSTSCRIPT: has a bug in reversepath - removing
%%%%the call to reversepath is a sufficient work around
/P {gsave fill grestore reversepath stroke} def
%%%%This function is needed for drawing text
/stringbbox {gsave NP 0 0 m false charpath flattenpath
   pathbbox 4 2 roll pop pop 1.1 mul cvi exch 1.1 mul 
   cvi exch grestore} def
/thin 3 def
/medium 7 def
/thick 16 def
/boundarythick 20 def %% thickness of bounding box
%%IncludeResource: font Courier
576 36 translate
90 rotate
0.108 0.108 scale
1 setlinejoin
1 setlinecap
0.0 setgray
/inch {72 mul} def
/fheight 0.35 inch neg def
    0 G
medium setlinewidth
[] 0 setdash NP 1199 576 m 1733 961 l
2266 3117 l
2799 4045 l
3333 4277 l
3866 4405 l
4399 4415 l
4932 4417 l
S
  0.3 G
NP 666 4421 m 782 4421 l
883 4421 l
997 4421 l
1112 4421 l
1226 4421 l
1331 4421 l
1441 4421 l
1554 4421 l
1667 4421 l
1783 4421 l
1885 4421 l
2000 4421 l
2115 4421 l
2227 4421 l
2328 4421 l
2448 4421 l
2550 4421 l
2668 4421 l
2773 4421 l
2888 4421 l
2997 4421 l
3112 4421 l
3217 4421 l
3330 4421 l
3447 4421 l
3550 4421 l
3660 4421 l
3775 4421 l
3886 4421 l
3994 4421 l
4114 4421 l
4222 4421 l
4337 4421 l
4442 4421 l
4556 4421 l
4663 4421 l
4775 4421 l
4885 4421 l
5000 4421 l
5110 4421 l
5224 4421 l
5336 4421 l
5439 4421 l
5557 4421 l
5663 4421 l
5775 4421 l
5883 4421 l
5999 4421 l
S
    0 G
NP 4954 4417 m 4911 4417 l
S
NP 4932 4433 m 4932 4401 l
S
NP 4420 4415 m 4378 4415 l
S
NP 4399 4431 m 4399 4399 l
S
NP 3887 4405 m 3844 4405 l
S
NP 3866 4421 m 3866 4389 l
S
NP 3354 4277 m 3311 4277 l
S
NP 3333 4293 m 3333 4261 l
S
NP 2821 4045 m 2778 4045 l
S
NP 2799 4061 m 2799 4029 l
S
NP 2287 3117 m 2245 3117 l
S
NP 2266 3133 m 2266 3101 l
S
NP 1754 961 m 1711 961 l
S
NP 1733 977 m 1733 945 l
S
NP 1221 576 m 1178 576 l
S
NP 1199 592 m 1199 560 l
S
medium setlinewidth
NP 666 499 m 666 4499 l
S
thin setlinewidth
NP 623 576 m 709 576 l
S
NP 645 696 m 687 696 l
S
NP 645 816 m 687 816 l
S
NP 645 936 m 687 936 l
S
NP 645 1056 m 687 1056 l
S
NP 623 1176 m 709 1176 l
S
NP 645 1295 m 687 1295 l
S
NP 645 1415 m 687 1415 l
S
NP 645 1535 m 687 1535 l
S
NP 645 1655 m 687 1655 l
S
NP 623 1775 m 709 1775 l
S
NP 645 1895 m 687 1895 l
S
NP 645 2015 m 687 2015 l
S
NP 645 2134 m 687 2134 l
S
NP 645 2254 m 687 2254 l
S
NP 623 2374 m 709 2374 l
S
NP 645 2494 m 687 2494 l
S
NP 645 2614 m 687 2614 l
S
NP 645 2734 m 687 2734 l
S
NP 645 2854 m 687 2854 l
S
NP 623 2973 m 709 2973 l
S
NP 645 3093 m 687 3093 l
S
NP 645 3213 m 687 3213 l
S
NP 645 3333 m 687 3333 l
S
NP 645 3453 m 687 3453 l
S
NP 623 3573 m 709 3573 l
S
NP 645 3692 m 687 3692 l
S
NP 645 3812 m 687 3812 l
S
NP 645 3932 m 687 3932 l
S
NP 645 4052 m 687 4052 l
S
NP 623 4172 m 709 4172 l
S
NP 645 4292 m 687 4292 l
S
NP 645 4412 m 687 4412 l
S
medium setlinewidth
NP 666 499 m 5999 499 l
S
thin setlinewidth
NP 666 467 m 666 531 l
S
NP 879 483 m 879 515 l
S
NP 1093 483 m 1093 515 l
S
NP 1306 483 m 1306 515 l
S
NP 1519 483 m 1519 515 l
S
NP 1733 467 m 1733 531 l
S
NP 1946 483 m 1946 515 l
S
NP 2159 483 m 2159 515 l
S
NP 2373 483 m 2373 515 l
S
NP 2586 483 m 2586 515 l
S
NP 2799 467 m 2799 531 l
S
NP 3013 483 m 3013 515 l
S
NP 3226 483 m 3226 515 l
S
NP 3439 483 m 3439 515 l
S
NP 3652 483 m 3652 515 l
S
NP 3866 467 m 3866 531 l
S
NP 4079 483 m 4079 515 l
S
NP 4292 483 m 4292 515 l
S
NP 4506 483 m 4506 515 l
S
NP 4719 483 m 4719 515 l
S
NP 4932 467 m 4932 531 l
S
NP 5146 483 m 5146 515 l
S
NP 5359 483 m 5359 515 l
S
NP 5572 483 m 5572 515 l
S
NP 5786 483 m 5786 515 l
S
NP 5999 467 m 5999 531 l
S
medium setlinewidth
/Courier findfont 115 scalefont setfont
(2.5) dup stringbbox 2 idiv 576 exch sub exch 623 exch sub exch m show
(2.6) dup stringbbox 2 idiv 1176 exch sub exch 623 exch sub exch m show
(2.7) dup stringbbox 2 idiv 1775 exch sub exch 623 exch sub exch m show
(2.8) dup stringbbox 2 idiv 2374 exch sub exch 623 exch sub exch m show
(2.9) dup stringbbox 2 idiv 2973 exch sub exch 623 exch sub exch m show
(3) dup stringbbox 2 idiv 3573 exch sub exch 623 exch sub exch m show
(3.1) dup stringbbox 2 idiv 4172 exch sub exch 623 exch sub exch m show
(y) dup stringbbox 2 idiv 2499 exch sub exch 453 exch sub exch m show
(0) dup stringbbox 467 exch sub exch pop 666 exch m show
(2) dup stringbbox 467 exch sub exch 2 idiv 1733 exch sub exch m show
(4) dup stringbbox 467 exch sub exch 2 idiv 2799 exch sub exch m show
(6) dup stringbbox 467 exch sub exch 2 idiv 3866 exch sub exch m show
(8) dup stringbbox 467 exch sub exch 2 idiv 4932 exch sub exch m show
(10) dup stringbbox 467 exch sub exch 2 idiv 5999 exch sub exch m show
(logPASOS) dup stringbbox 339 exch sub exch 2 idiv 3333 exch sub exch m show

showpage
grestore
end
%%Trailer
%%EOF
