%!PS-Adobe-2.0 EPSF-2.0
%%Title: rechazo.eps
%%Creator: fig2dev Version 3.2 Patchlevel 1
%%CreationDate: Wed Apr 28 13:46:14 1999
%%For: aspuru@oxido (Alan Aspuru Guzik)
%%Orientation: Portrait
%%BoundingBox: 0 0 204 102
%%Pages: 0
%%BeginSetup
%%EndSetup
%%Magnification: 1.0000
%%EndComments
/$F2psDict 200 dict def
$F2psDict begin
$F2psDict /mtrx matrix put
/col-1 {0 setgray} bind def
/col0 {0.000 0.000 0.000 srgb} bind def
/col1 {0.000 0.000 1.000 srgb} bind def
/col2 {0.000 1.000 0.000 srgb} bind def
/col3 {0.000 1.000 1.000 srgb} bind def
/col4 {1.000 0.000 0.000 srgb} bind def
/col5 {1.000 0.000 1.000 srgb} bind def
/col6 {1.000 1.000 0.000 srgb} bind def
/col7 {1.000 1.000 1.000 srgb} bind def
/col8 {0.000 0.000 0.560 srgb} bind def
/col9 {0.000 0.000 0.690 srgb} bind def
/col10 {0.000 0.000 0.820 srgb} bind def
/col11 {0.530 0.810 1.000 srgb} bind def
/col12 {0.000 0.560 0.000 srgb} bind def
/col13 {0.000 0.690 0.000 srgb} bind def
/col14 {0.000 0.820 0.000 srgb} bind def
/col15 {0.000 0.560 0.560 srgb} bind def
/col16 {0.000 0.690 0.690 srgb} bind def
/col17 {0.000 0.820 0.820 srgb} bind def
/col18 {0.560 0.000 0.000 srgb} bind def
/col19 {0.690 0.000 0.000 srgb} bind def
/col20 {0.820 0.000 0.000 srgb} bind def
/col21 {0.560 0.000 0.560 srgb} bind def
/col22 {0.690 0.000 0.690 srgb} bind def
/col23 {0.820 0.000 0.820 srgb} bind def
/col24 {0.500 0.190 0.000 srgb} bind def
/col25 {0.630 0.250 0.000 srgb} bind def
/col26 {0.750 0.380 0.000 srgb} bind def
/col27 {1.000 0.500 0.500 srgb} bind def
/col28 {1.000 0.630 0.630 srgb} bind def
/col29 {1.000 0.750 0.750 srgb} bind def
/col30 {1.000 0.880 0.880 srgb} bind def
/col31 {1.000 0.840 0.000 srgb} bind def

end
save
-24.0 129.0 translate
1 -1 scale

/cp {closepath} bind def
/ef {eofill} bind def
/gr {grestore} bind def
/gs {gsave} bind def
/sa {save} bind def
/rs {restore} bind def
/l {lineto} bind def
/m {moveto} bind def
/rm {rmoveto} bind def
/n {newpath} bind def
/s {stroke} bind def
/sh {show} bind def
/slc {setlinecap} bind def
/slj {setlinejoin} bind def
/slw {setlinewidth} bind def
/srgb {setrgbcolor} bind def
/rot {rotate} bind def
/sc {scale} bind def
/sd {setdash} bind def
/ff {findfont} bind def
/sf {setfont} bind def
/scf {scalefont} bind def
/sw {stringwidth} bind def
/tr {translate} bind def
/tnt {dup dup currentrgbcolor
  4 -2 roll dup 1 exch sub 3 -1 roll mul add
  4 -2 roll dup 1 exch sub 3 -1 roll mul add
  4 -2 roll dup 1 exch sub 3 -1 roll mul add srgb}
  bind def
/shd {dup dup currentrgbcolor 4 -2 roll mul 4 -2 roll mul
  4 -2 roll mul srgb} bind def
/$F2psBegin {$F2psDict begin /$F2psEnteredState save def} def
/$F2psEnd {$F2psEnteredState restore end} def
%%EndProlog

$F2psBegin
10 setmiterlimit
n -1000 3144 m -1000 -1000 l 4794 -1000 l 4794 3144 l cp clip
 0.06000 0.06000 sc
% Polyline
7.500 slw
n 750 2100 m 3450 2100 l 3450 750 l 750 750 l cp gs col7 0.80 shd ef gr gs col0 s gr 
% Polyline
45.000 slw
gs  clippath
3555 2063 m 3716 2100 l 3555 2138 l 3810 2138 l 3810 2063 l cp
clip
n 450 2100 m 3750 2100 l gs col0 s gr gr

% arrowhead
15.000 slw
n 3555 2063 m 3716 2100 l 3555 2138 l 3582 2100 l 3555 2063 l  cp gs 0.00 setgray ef gr  col0 s
% Polyline
7.500 slw
n 750 2100 m 752 2098 l 755 2093 l 762 2085 l 773 2073 l 787 2055 l
 806 2033 l 828 2007 l 853 1977 l 881 1944 l 911 1909 l
 942 1874 l 972 1838 l 1003 1803 l 1033 1770 l 1061 1738 l
 1088 1709 l 1114 1682 l 1138 1657 l 1160 1634 l 1181 1614 l
 1201 1596 l 1220 1580 l 1237 1566 l 1254 1553 l 1270 1542 l
 1285 1533 l 1300 1525 l 1323 1515 l 1345 1507 l 1366 1501 l
 1388 1497 l 1409 1494 l 1431 1492 l 1452 1490 l 1473 1489 l
 1493 1486 l 1513 1483 l 1532 1478 l 1551 1471 l 1569 1463 l
 1586 1451 l 1603 1437 l 1619 1420 l 1635 1400 l 1650 1375 l
 1661 1355 l 1671 1334 l 1682 1310 l 1693 1284 l 1704 1257 l
 1715 1228 l 1727 1197 l 1739 1165 l 1751 1133 l 1763 1099 l
 1775 1066 l 1788 1032 l 1800 999 l 1812 967 l 1825 936 l
 1837 906 l 1849 879 l 1861 853 l 1873 830 l 1885 810 l
 1896 792 l 1907 777 l 1918 765 l 1929 757 l 1939 752 l
 1950 750 l 1963 752 l 1975 760 l 1988 771 l 2001 787 l
 2014 806 l 2028 829 l 2041 856 l 2055 885 l 2069 916 l
 2083 948 l 2097 982 l 2110 1016 l 2124 1050 l 2137 1082 l
 2149 1113 l 2162 1142 l 2173 1169 l 2185 1192 l 2195 1213 l
 2206 1229 l 2215 1242 l 2225 1250 l 2236 1254 l 2247 1253 l
 2258 1246 l 2269 1233 l 2280 1217 l 2291 1196 l 2302 1172 l
 2314 1146 l 2325 1118 l 2336 1090 l 2348 1062 l 2359 1036 l
 2370 1012 l 2381 991 l 2392 974 l 2403 961 l 2414 953 l
 2425 950 l 2433 951 l 2441 955 l 2450 962 l 2459 972 l
 2469 983 l 2479 998 l 2489 1015 l 2500 1034 l 2512 1055 l
 2524 1079 l 2537 1104 l 2550 1131 l 2564 1160 l 2578 1189 l
 2593 1220 l 2608 1251 l 2623 1282 l 2639 1314 l 2655 1346 l
 2671 1377 l 2688 1408 l 2705 1438 l 2722 1467 l 2739 1495 l
 2757 1523 l 2775 1550 l 2792 1574 l 2811 1598 l 2829 1621 l
 2849 1644 l 2870 1666 l 2893 1689 l 2917 1712 l 2942 1735 l
 2970 1759 l 2999 1783 l 3031 1808 l 3064 1834 l 3099 1860 l
 3136 1887 l 3174 1914 l 3212 1941 l 3250 1967 l 3287 1992 l
 3321 2015 l 3353 2036 l 3381 2055 l 3404 2070 l 3422 2082 l
 3435 2090 l 3443 2096 l 3448 2099 l 3450 2100 l gs col7 0.55 shd ef gr gs col0 s gr 
/Times-Roman ff 180.00 scf sf
3600 1950 m
gs 1 -1 sc (y) col0 sh gr
/Times-Roman ff 180.00 scf sf
2550 600 m
gs 1 -1 sc (h\(y\)) col0 sh gr
/Times-Roman ff 180.00 scf sf
2850 1500 m
gs 1 -1 sc (w\(y\)) col0 sh gr
$F2psEnd
rs
