%!PS-Adobe-2.0
%%Title: sampc.ps
%%Creator: fig2dev Version 3.2 Patchlevel 0-beta3
%%CreationDate: Fri Apr 30 01:10:37 1999
%%For: alej@tuatara (Raul Perusquia)
%%Orientation: Portrait
%%BoundingBox: 123 274 489 518
%%Pages: 1
%%BeginSetup
%%IncludeFeature: *PageSize Letter
%%EndSetup
%%Magnification: 1.0000
%%EndComments
/$F2psDict 200 dict def
$F2psDict begin
$F2psDict /mtrx matrix put
/col-1 {0 setgray} bind def
/col0 {0.000 0.000 0.000 srgb} bind def
/col1 {0.000 0.000 1.000 srgb} bind def
/col2 {0.000 1.000 0.000 srgb} bind def
/col3 {0.000 1.000 1.000 srgb} bind def
/col4 {1.000 0.000 0.000 srgb} bind def
/col5 {1.000 0.000 1.000 srgb} bind def
/col6 {1.000 1.000 0.000 srgb} bind def
/col7 {1.000 1.000 1.000 srgb} bind def
/col8 {0.000 0.000 0.560 srgb} bind def
/col9 {0.000 0.000 0.690 srgb} bind def
/col10 {0.000 0.000 0.820 srgb} bind def
/col11 {0.530 0.810 1.000 srgb} bind def
/col12 {0.000 0.560 0.000 srgb} bind def
/col13 {0.000 0.690 0.000 srgb} bind def
/col14 {0.000 0.820 0.000 srgb} bind def
/col15 {0.000 0.560 0.560 srgb} bind def
/col16 {0.000 0.690 0.690 srgb} bind def
/col17 {0.000 0.820 0.820 srgb} bind def
/col18 {0.560 0.000 0.000 srgb} bind def
/col19 {0.690 0.000 0.000 srgb} bind def
/col20 {0.820 0.000 0.000 srgb} bind def
/col21 {0.560 0.000 0.560 srgb} bind def
/col22 {0.690 0.000 0.690 srgb} bind def
/col23 {0.820 0.000 0.820 srgb} bind def
/col24 {0.500 0.190 0.000 srgb} bind def
/col25 {0.630 0.250 0.000 srgb} bind def
/col26 {0.750 0.380 0.000 srgb} bind def
/col27 {1.000 0.500 0.500 srgb} bind def
/col28 {1.000 0.630 0.630 srgb} bind def
/col29 {1.000 0.750 0.750 srgb} bind def
/col30 {1.000 0.880 0.880 srgb} bind def
/col31 {1.000 0.840 0.000 srgb} bind def

end
save
101.0 553.0 translate
1 -1 scale

/cp {closepath} bind def
/ef {eofill} bind def
/gr {grestore} bind def
/gs {gsave} bind def
/sa {save} bind def
/rs {restore} bind def
/l {lineto} bind def
/m {moveto} bind def
/rm {rmoveto} bind def
/n {newpath} bind def
/s {stroke} bind def
/sh {show} bind def
/slc {setlinecap} bind def
/slj {setlinejoin} bind def
/slw {setlinewidth} bind def
/srgb {setrgbcolor} bind def
/rot {rotate} bind def
/sc {scale} bind def
/sd {setdash} bind def
/ff {findfont} bind def
/sf {setfont} bind def
/scf {scalefont} bind def
/sw {stringwidth} bind def
/tr {translate} bind def
/tnt {dup dup currentrgbcolor
  4 -2 roll dup 1 exch sub 3 -1 roll mul add
  4 -2 roll dup 1 exch sub 3 -1 roll mul add
  4 -2 roll dup 1 exch sub 3 -1 roll mul add srgb}
  bind def
/shd {dup dup currentrgbcolor 4 -2 roll mul 4 -2 roll mul
  4 -2 roll mul srgb} bind def
/$F2psBegin {$F2psDict begin /$F2psEnteredState save def} def
/$F2psEnd {$F2psEnteredState restore end} def
%%EndProlog

$F2psBegin
10 setmiterlimit
n -1000 5650 m -1000 -1000 l 7462 -1000 l 7462 5650 l cp clip
 0.06000 0.06000 sc
%%Page: 1 1
% Polyline
7.500 slw
n 1125 4125 m 5475 4125 l 5775 4125 l gs col0 s gr 
% Polyline
n 1125 4125 m 1125 600 l gs col0 s gr 
% Polyline
n 1125 4125 m 750 4125 l gs col0 s gr 
% Polyline
 [60] 0 sd
n 4725 4125 m 1125 4125 l 1125 1875 l 4725 1875 l cp gs col0 s gr  [] 0 sd
% Polyline
n 1125 900 m 6225 900 l 6225 4125 l 1125 4125 l cp gs col0 s gr 
% Polyline
n 5550 4125 m 6450 4125 l gs col0 s gr 
% Polyline
15.000 slw
n 1125 4125 m 1126 4123 l 1127 4120 l 1129 4113 l 1132 4103 l 1137 4090 l
 1144 4072 l 1152 4050 l 1161 4024 l 1173 3995 l 1185 3963 l
 1199 3929 l 1214 3894 l 1230 3858 l 1246 3822 l 1264 3787 l
 1282 3753 l 1301 3721 l 1321 3690 l 1342 3661 l 1364 3634 l
 1387 3609 l 1412 3586 l 1439 3564 l 1468 3544 l 1500 3525 l
 1525 3512 l 1551 3499 l 1579 3486 l 1608 3474 l 1639 3462 l
 1671 3450 l 1705 3439 l 1739 3428 l 1776 3418 l 1813 3408 l
 1851 3398 l 1890 3388 l 1931 3379 l 1971 3370 l 2013 3361 l
 2055 3352 l 2097 3343 l 2140 3334 l 2183 3325 l 2225 3316 l
 2268 3308 l 2311 3299 l 2353 3289 l 2395 3280 l 2436 3271 l
 2477 3261 l 2517 3251 l 2557 3241 l 2596 3231 l 2634 3220 l
 2672 3209 l 2709 3198 l 2745 3186 l 2780 3175 l 2815 3162 l
 2850 3150 l 2886 3137 l 2922 3123 l 2958 3109 l 2993 3095 l
 3028 3081 l 3063 3067 l 3098 3053 l 3133 3038 l 3167 3024 l
 3202 3009 l 3236 2994 l 3270 2980 l 3305 2965 l 3339 2950 l
 3373 2935 l 3407 2920 l 3441 2905 l 3474 2890 l 3508 2875 l
 3541 2859 l 3574 2844 l 3607 2828 l 3640 2813 l 3673 2797 l
 3705 2781 l 3737 2764 l 3768 2748 l 3799 2731 l 3830 2714 l
 3860 2697 l 3890 2680 l 3919 2662 l 3947 2644 l 3975 2625 l
 4004 2605 l 4032 2584 l 4060 2563 l 4087 2541 l 4113 2519 l
 4138 2496 l 4163 2472 l 4188 2448 l 4212 2423 l 4236 2398 l
 4259 2372 l 4282 2346 l 4304 2319 l 4327 2293 l 4349 2266 l
 4371 2239 l 4393 2213 l 4415 2186 l 4437 2160 l 4459 2134 l
 4480 2108 l 4502 2083 l 4524 2059 l 4546 2035 l 4568 2012 l
 4591 1990 l 4613 1968 l 4635 1948 l 4658 1928 l 4680 1910 l
 4703 1892 l 4725 1875 l 4752 1855 l 4779 1837 l 4806 1821 l
 4832 1806 l 4859 1792 l 4884 1780 l 4910 1769 l 4935 1759 l
 4960 1750 l 4985 1742 l 5010 1735 l 5034 1728 l 5059 1721 l
 5084 1715 l 5108 1708 l 5133 1701 l 5158 1693 l 5184 1685 l
 5209 1675 l 5235 1665 l 5262 1653 l 5288 1640 l 5316 1626 l
 5343 1610 l 5371 1593 l 5400 1575 l 5424 1559 l 5448 1543 l
 5473 1525 l 5499 1506 l 5526 1485 l 5555 1463 l 5585 1440 l
 5617 1414 l 5650 1387 l 5685 1359 l 5721 1329 l 5759 1298 l
 5797 1266 l 5836 1233 l 5876 1200 l 5915 1166 l 5954 1133 l
 5991 1101 l 6027 1071 l 6061 1042 l 6092 1015 l 6120 991 l
 6145 969 l 6166 951 l 6184 935 l 6198 923 l 6209 914 l
 6216 907 l 6221 903 l 6224 901 l 6225 900 l gs col0 s gr 
/Times-Roman ff 180.00 scf sf
900 975 m
gs 1 -1 sc (1) col0 sh gr
/Times-Roman ff 180.00 scf sf
1125 4425 m
gs 1 -1 sc (a) col0 sh gr
/Times-Roman ff 180.00 scf sf
6225 4425 m
gs 1 -1 sc (b) col0 sh gr
/Times-Roman ff 180.00 scf sf
825 4050 m
gs 1 -1 sc (0) col0 sh gr
/Times-Roman ff 180.00 scf sf
3525 4650 m
gs 1 -1 sc (X) col0 sh gr
/Symbol ff 180.00 scf sf
825 1950 m
gs 1 -1 sc (x) col0 sh gr
/Symbol ff 180.00 scf sf
4650 4425 m
gs 1 -1 sc (h) col0 sh gr
/Times-Roman ff 180.00 scf sf
375 900 m
gs 1 -1 sc (F) col0 sh gr
$F2psEnd
rs
showpage
