%!PS-Adobe-2.0 EPSF-2.0
%%Title: simulacion.eps
%%Creator: fig2dev Version 3.2 Patchlevel 1
%%CreationDate: Mon May  3 11:55:33 1999
%%For: aspuru@oxido (Alan Aspuru Guzik)
%%Orientation: Portrait
%%BoundingBox: 0 0 257 181
%%Pages: 0
%%BeginSetup
%%EndSetup
%%Magnification: 1.0000
%%EndComments
/$F2psDict 200 dict def
$F2psDict begin
$F2psDict /mtrx matrix put
/col-1 {0 setgray} bind def
/col0 {0.000 0.000 0.000 srgb} bind def
/col1 {0.000 0.000 1.000 srgb} bind def
/col2 {0.000 1.000 0.000 srgb} bind def
/col3 {0.000 1.000 1.000 srgb} bind def
/col4 {1.000 0.000 0.000 srgb} bind def
/col5 {1.000 0.000 1.000 srgb} bind def
/col6 {1.000 1.000 0.000 srgb} bind def
/col7 {1.000 1.000 1.000 srgb} bind def
/col8 {0.000 0.000 0.560 srgb} bind def
/col9 {0.000 0.000 0.690 srgb} bind def
/col10 {0.000 0.000 0.820 srgb} bind def
/col11 {0.530 0.810 1.000 srgb} bind def
/col12 {0.000 0.560 0.000 srgb} bind def
/col13 {0.000 0.690 0.000 srgb} bind def
/col14 {0.000 0.820 0.000 srgb} bind def
/col15 {0.000 0.560 0.560 srgb} bind def
/col16 {0.000 0.690 0.690 srgb} bind def
/col17 {0.000 0.820 0.820 srgb} bind def
/col18 {0.560 0.000 0.000 srgb} bind def
/col19 {0.690 0.000 0.000 srgb} bind def
/col20 {0.820 0.000 0.000 srgb} bind def
/col21 {0.560 0.000 0.560 srgb} bind def
/col22 {0.690 0.000 0.690 srgb} bind def
/col23 {0.820 0.000 0.820 srgb} bind def
/col24 {0.500 0.190 0.000 srgb} bind def
/col25 {0.630 0.250 0.000 srgb} bind def
/col26 {0.750 0.380 0.000 srgb} bind def
/col27 {1.000 0.500 0.500 srgb} bind def
/col28 {1.000 0.630 0.630 srgb} bind def
/col29 {1.000 0.750 0.750 srgb} bind def
/col30 {1.000 0.880 0.880 srgb} bind def
/col31 {1.000 0.840 0.000 srgb} bind def

end
save
-8.0 207.0 translate
1 -1 scale

/cp {closepath} bind def
/ef {eofill} bind def
/gr {grestore} bind def
/gs {gsave} bind def
/sa {save} bind def
/rs {restore} bind def
/l {lineto} bind def
/m {moveto} bind def
/rm {rmoveto} bind def
/n {newpath} bind def
/s {stroke} bind def
/sh {show} bind def
/slc {setlinecap} bind def
/slj {setlinejoin} bind def
/slw {setlinewidth} bind def
/srgb {setrgbcolor} bind def
/rot {rotate} bind def
/sc {scale} bind def
/sd {setdash} bind def
/ff {findfont} bind def
/sf {setfont} bind def
/scf {scalefont} bind def
/sw {stringwidth} bind def
/tr {translate} bind def
/tnt {dup dup currentrgbcolor
  4 -2 roll dup 1 exch sub 3 -1 roll mul add
  4 -2 roll dup 1 exch sub 3 -1 roll mul add
  4 -2 roll dup 1 exch sub 3 -1 roll mul add srgb}
  bind def
/shd {dup dup currentrgbcolor 4 -2 roll mul 4 -2 roll mul
  4 -2 roll mul srgb} bind def
 /DrawEllipse {
	/endangle exch def
	/startangle exch def
	/yrad exch def
	/xrad exch def
	/y exch def
	/x exch def
	/savematrix mtrx currentmatrix def
	x y tr xrad yrad sc 0 0 1 startangle endangle arc
	closepath
	savematrix setmatrix
	} def

/$F2psBegin {$F2psDict begin /$F2psEnteredState save def} def
/$F2psEnd {$F2psEnteredState restore end} def
%%EndProlog

$F2psBegin
10 setmiterlimit
n -1000 4450 m -1000 -1000 l 5403 -1000 l 5403 4450 l cp clip
 0.06000 0.06000 sc
7.500 slw
% Ellipse
n 600 1350 150 150 0 360 DrawEllipse gs col0 s gr

% Ellipse
n 600 900 150 150 0 360 DrawEllipse gs col0 s gr

% Ellipse
n 1050 1350 150 150 0 360 DrawEllipse gs col0 s gr

% Ellipse
n 1050 900 150 150 0 360 DrawEllipse gs col0 s gr

% Polyline
 [45 20 15 15 15 20] 0 sd
n 1350 600 m 1350 2100 l gs col0 s gr  [] 0 sd
% Polyline
n 405 600 m 300 600 300 1995 105 arcto 4 {pop} repeat
  300 2100 2145 2100 105 arcto 4 {pop} repeat
  2250 2100 2250 705 105 arcto 4 {pop} repeat
  2250 600 405 600 105 arcto 4 {pop} repeat
 cp gs col0 s gr 
% Polyline
n 1500 750 m 2100 750 l 2100 1500 l 1500 1500 l cp gs col0 s gr 
% Polyline
n 1650 900 m 1800 900 l gs col0 s gr 
% Polyline
n 1650 1050 m 1950 1050 l gs col0 s gr 
% Polyline
n 1650 1200 m 1800 1200 l gs col0 s gr 
% Polyline
n 1650 1350 m 1950 1350 l gs col0 s gr 
% Polyline
n 255 450 m 150 450 150 2895 105 arcto 4 {pop} repeat
  150 3000 4245 3000 105 arcto 4 {pop} repeat
  4350 3000 4350 555 105 arcto 4 {pop} repeat
  4350 450 255 450 105 arcto 4 {pop} repeat
 cp gs col0 s gr 
% Polyline
n 2505 600 m 2400 600 2400 2745 105 arcto 4 {pop} repeat
  2400 2850 4095 2850 105 arcto 4 {pop} repeat
  4200 2850 4200 705 105 arcto 4 {pop} repeat
  4200 600 2505 600 105 arcto 4 {pop} repeat
 cp gs col0 s gr 
% Polyline
n 2655 750 m 2550 750 2550 1395 105 arcto 4 {pop} repeat
  2550 1500 3945 1500 105 arcto 4 {pop} repeat
  4050 1500 4050 855 105 arcto 4 {pop} repeat
  4050 750 2655 750 105 arcto 4 {pop} repeat
 cp gs col0 s gr 
% Polyline
n 2655 1650 m 2550 1650 2550 2295 105 arcto 4 {pop} repeat
  2550 2400 3945 2400 105 arcto 4 {pop} repeat
  4050 2400 4050 1755 105 arcto 4 {pop} repeat
  4050 1650 2655 1650 105 arcto 4 {pop} repeat
 cp gs col0 s gr 
% Polyline
n 3150 750 m 3150 1500 l gs col0 s gr 
% Polyline
n 3150 1650 m 3150 2400 l gs col0 s gr 
% Polyline
n 3375 900 m 3300 900 3300 975 75 arcto 4 {pop} repeat
  3300 1050 3825 1050 75 arcto 4 {pop} repeat
  3900 1050 3900 975 75 arcto 4 {pop} repeat
  3900 900 3375 900 75 arcto 4 {pop} repeat
 cp gs col0 s gr 
% Polyline
n 3375 1050 m 3300 1050 3300 1125 75 arcto 4 {pop} repeat
  3300 1200 3825 1200 75 arcto 4 {pop} repeat
  3900 1200 3900 1125 75 arcto 4 {pop} repeat
  3900 1050 3375 1050 75 arcto 4 {pop} repeat
 cp gs col0 s gr 
% Polyline
n 3375 1800 m 3300 1800 3300 1875 75 arcto 4 {pop} repeat
  3300 1950 3825 1950 75 arcto 4 {pop} repeat
  3900 1950 3900 1875 75 arcto 4 {pop} repeat
  3900 1800 3375 1800 75 arcto 4 {pop} repeat
 cp gs col0 s gr 
% Polyline
n 3375 1950 m 3300 1950 3300 2025 75 arcto 4 {pop} repeat
  3300 2100 3825 2100 75 arcto 4 {pop} repeat
  3900 2100 3900 2025 75 arcto 4 {pop} repeat
  3900 1950 3375 1950 75 arcto 4 {pop} repeat
 cp gs col0 s gr 
% Polyline
n 3375 2100 m 3300 2100 3300 2175 75 arcto 4 {pop} repeat
  3300 2250 3825 2250 75 arcto 4 {pop} repeat
  3900 2250 3900 2175 75 arcto 4 {pop} repeat
  3900 2100 3375 2100 75 arcto 4 {pop} repeat
 cp gs col0 s gr 
% Polyline
n 1867 2730 m 1897 2700 l gs col0 s gr 
% Polyline
n 2872 3165 m 2917 3135 l gs col0 s gr 
% Polyline
n 3855 3187 m 3885 3142 l gs col0 s gr 
% Polyline
gs  clippath
2820 2595 m 2850 2475 l 2880 2595 l 2880 2460 l 2820 2460 l cp
clip
n 2850 3075 m 2850 2475 l gs col0 s gr gr

% arrowhead
n 2820 2595 m 2850 2475 l 2880 2595 l 2850 2595 l 2820 2595 l  cp gs 0.00 setgray ef gr  col0 s
% Polyline
gs  clippath
3945 2595 m 3975 2475 l 4005 2595 l 4005 2460 l 3945 2460 l cp
clip
n 3975 3150 m 3975 2475 l gs col0 s gr gr

% arrowhead
n 3945 2595 m 3975 2475 l 4005 2595 l 3975 2595 l 3945 2595 l  cp gs 0.00 setgray ef gr  col0 s
% Polyline
gs  clippath
720 2295 m 750 2175 l 780 2295 l 780 2160 l 720 2160 l cp
clip
n 750 3300 m 750 2175 l gs col0 s gr gr

% arrowhead
n 720 2295 m 750 2175 l 780 2295 l 750 2295 l 720 2295 l  cp gs 0.00 setgray ef gr  col0 s
/Times-Roman ff 180.00 scf sf
450 1950 m
gs 1 -1 sc (caminantes     datos) col0 sh gr
/Times-Roman ff 180.00 scf sf
2700 2100 m
gs 1 -1 sc (MCD) col0 sh gr
/Times-Roman ff 180.00 scf sf
2700 1200 m
gs 1 -1 sc (MCV) col0 sh gr
/Times-Roman ff 180.00 scf sf
300 3450 m
gs 1 -1 sc (ensamble) col0 sh gr
/Times-Roman ff 180.00 scf sf
1200 2850 m
gs 1 -1 sc (simulacion) col0 sh gr
/Times-Roman ff 180.00 scf sf
2700 3300 m
gs 1 -1 sc (metodo) col0 sh gr
/Times-Roman ff 180.00 scf sf
3450 3300 m
gs 1 -1 sc (estadisticas) col0 sh gr
/Times-Roman ff 180.00 scf sf
3000 2700 m
gs 1 -1 sc (corrida) col0 sh gr
$F2psEnd
rs
