%!PS-Adobe-2.0 EPSF-2.0
%%Title: tunnel.eps
%%Creator: fig2dev Version 3.2 Patchlevel 1
%%CreationDate: Thu May  6 19:28:07 1999
%%For: aspuru@oxido (Alan Aspuru Guzik)
%%Orientation: Portrait
%%BoundingBox: 0 0 218 213
%%Pages: 0
%%BeginSetup
%%EndSetup
%%Magnification: 1.0000
%%EndComments
/$F2psDict 200 dict def
$F2psDict begin
$F2psDict /mtrx matrix put
/col-1 {0 setgray} bind def
/col0 {0.000 0.000 0.000 srgb} bind def
/col1 {0.000 0.000 1.000 srgb} bind def
/col2 {0.000 1.000 0.000 srgb} bind def
/col3 {0.000 1.000 1.000 srgb} bind def
/col4 {1.000 0.000 0.000 srgb} bind def
/col5 {1.000 0.000 1.000 srgb} bind def
/col6 {1.000 1.000 0.000 srgb} bind def
/col7 {1.000 1.000 1.000 srgb} bind def
/col8 {0.000 0.000 0.560 srgb} bind def
/col9 {0.000 0.000 0.690 srgb} bind def
/col10 {0.000 0.000 0.820 srgb} bind def
/col11 {0.530 0.810 1.000 srgb} bind def
/col12 {0.000 0.560 0.000 srgb} bind def
/col13 {0.000 0.690 0.000 srgb} bind def
/col14 {0.000 0.820 0.000 srgb} bind def
/col15 {0.000 0.560 0.560 srgb} bind def
/col16 {0.000 0.690 0.690 srgb} bind def
/col17 {0.000 0.820 0.820 srgb} bind def
/col18 {0.560 0.000 0.000 srgb} bind def
/col19 {0.690 0.000 0.000 srgb} bind def
/col20 {0.820 0.000 0.000 srgb} bind def
/col21 {0.560 0.000 0.560 srgb} bind def
/col22 {0.690 0.000 0.690 srgb} bind def
/col23 {0.820 0.000 0.820 srgb} bind def
/col24 {0.500 0.190 0.000 srgb} bind def
/col25 {0.630 0.250 0.000 srgb} bind def
/col26 {0.750 0.380 0.000 srgb} bind def
/col27 {1.000 0.500 0.500 srgb} bind def
/col28 {1.000 0.630 0.630 srgb} bind def
/col29 {1.000 0.750 0.750 srgb} bind def
/col30 {1.000 0.880 0.880 srgb} bind def
/col31 {1.000 0.840 0.000 srgb} bind def

end
save
-17.0 230.0 translate
1 -1 scale

/cp {closepath} bind def
/ef {eofill} bind def
/gr {grestore} bind def
/gs {gsave} bind def
/sa {save} bind def
/rs {restore} bind def
/l {lineto} bind def
/m {moveto} bind def
/rm {rmoveto} bind def
/n {newpath} bind def
/s {stroke} bind def
/sh {show} bind def
/slc {setlinecap} bind def
/slj {setlinejoin} bind def
/slw {setlinewidth} bind def
/srgb {setrgbcolor} bind def
/rot {rotate} bind def
/sc {scale} bind def
/sd {setdash} bind def
/ff {findfont} bind def
/sf {setfont} bind def
/scf {scalefont} bind def
/sw {stringwidth} bind def
/tr {translate} bind def
/tnt {dup dup currentrgbcolor
  4 -2 roll dup 1 exch sub 3 -1 roll mul add
  4 -2 roll dup 1 exch sub 3 -1 roll mul add
  4 -2 roll dup 1 exch sub 3 -1 roll mul add srgb}
  bind def
/shd {dup dup currentrgbcolor 4 -2 roll mul 4 -2 roll mul
  4 -2 roll mul srgb} bind def
/$F2psBegin {$F2psDict begin /$F2psEnteredState save def} def
/$F2psEnd {$F2psEnteredState restore end} def
%%EndProlog

$F2psBegin
10 setmiterlimit
n -1000 4825 m -1000 -1000 l 4912 -1000 l 4912 4825 l cp clip
 0.06000 0.06000 sc
% Polyline
7.500 slw
n 300 1200 m 300 3600 l 3000 3600 l 3300 3300 l 3300 2700 l 3900 2100 l
 2400 2100 l 1800 2700 l 1800 3300 l 3300 3300 l 3300 2700 l
 1800 2700 l gs col0 s gr 
% Polyline
n 300 3600 m 1200 2700 l 1800 2700 l gs col0 s gr 
% Polyline
n 3900 2100 m 3900 1200 l gs col0 s gr 
% Polyline
n 1200 2700 m 1200 900 l gs col0 s gr 
% Polyline
n 300 1200 m 600 900 l gs col0 s gr 
% Polyline
n 600 900 m 1200 300 l 1200 900 l gs col0 s gr 
% Polyline
n 3900 1200 m 3900 300 l gs col0 s gr 
% Polyline
n 3000 3600 m 3000 1200 l gs col0 s gr 
% Polyline
n 3000 1200 m 3900 300 l gs col0 s gr 
% Polyline
n 2400 2700 m 2400 2100 l gs col0 s gr 
% Polyline
n 1800 3300 m 2400 2700 l gs col0 s gr 
% Polyline
gs  clippath
1905 2970 m 2025 3000 l 1905 3030 l 2040 3030 l 2040 2970 l cp
1117 3030 m 997 3000 l 1117 2970 l 982 2970 l 982 3030 l cp
clip
n 997 3000 m 2025 3000 l gs col0 s gr gr

% arrowhead
n 1117 3030 m 997 3000 l 1117 2970 l 1117 3000 l 1117 3030 l  cp gs 0.00 setgray ef gr  col0 s
% arrowhead
n 1905 2970 m 2025 3000 l 1905 3030 l 1905 3000 l 1905 2970 l  cp gs 0.00 setgray ef gr  col0 s
% Polyline
gs  clippath
1897 3386 m 1950 3375 l 1939 3428 l 1982 3386 l 1939 3343 l cp
1853 3514 m 1800 3525 l 1811 3472 l 1768 3514 l 1811 3557 l cp
clip
n 1800 3525 m 1950 3375 l gs col0 s gr gr

% arrowhead
n 1853 3514 m 1800 3525 l 1811 3472 l 1832 3493 l 1853 3514 l  cp gs 0.00 setgray ef gr  col0 s
% arrowhead
n 1897 3386 m 1950 3375 l 1939 3428 l 1918 3407 l 1897 3386 l  cp gs 0.00 setgray ef gr  col0 s
% Polyline
n 3596 3000 m 3604 3000 l gs col0 s gr
% Polyline
gs  clippath
3570 2820 m 3600 2700 l 3630 2820 l 3630 2685 l 3570 2685 l cp
3630 3180 m 3600 3300 l 3570 3180 l 3570 3315 l 3630 3315 l cp
clip
n 3600 3300 m 3600 2700 l gs col0 s gr gr

% arrowhead
n 3630 3180 m 3600 3300 l 3570 3180 l 3600 3180 l 3630 3180 l  cp gs 0.00 setgray ef gr  col0 s
% arrowhead
n 3570 2820 m 3600 2700 l 3630 2820 l 3600 2820 l 3570 2820 l  cp gs 0.00 setgray ef gr  col0 s
% Polyline
n 300 1200 m 3000 1200 l gs col0 s gr 
% Polyline
n 1200 300 m 3900 300 l gs col0 s gr 
/Times-Bold ff 180.00 scf sf
1365 3825 m
gs 1 -1 sc (x) col0 sh gr
/Times-Bold ff 180.00 scf sf
780 3360 m
gs 1 -1 sc (y) col0 sh gr
/Times-Bold ff 180.00 scf sf
3375 3000 m
gs 1 -1 sc (h) col0 sh gr
/Times-Bold ff 180.00 scf sf
1507 2880 m
gs 1 -1 sc (a) col0 sh gr
/Times-Bold ff 180.00 scf sf
2025 3525 m
gs 1 -1 sc (a) col0 sh gr
$F2psEnd
rs
