#FIG 3.2
Landscape
Center
Inches
Letter  
100.00
Single
-2
1200 2
6 300 900 3900 3600
2 1 0 1 0 7 100 0 -1 0.000 0 0 -1 0 0 12
	 300 1200 300 3600 3000 3600 3300 3300 3300 2700 3900 2100
	 2400 2100 1800 2700 1800 3300 3300 3300 3300 2700 1800 2700
2 1 0 1 0 7 100 0 -1 0.000 0 0 -1 0 0 3
	 300 3600 1200 2700 1800 2700
2 1 0 1 0 7 100 0 -1 0.000 0 0 -1 0 0 2
	 3900 2100 3900 1200
2 1 0 1 0 7 100 0 -1 0.000 0 0 -1 0 0 2
	 1200 2700 1200 900
2 1 0 1 0 7 100 0 -1 0.000 0 0 -1 0 0 2
	 300 1200 600 900
-6
2 1 0 1 0 7 100 0 -1 0.000 0 0 -1 0 0 3
	 600 900 1200 300 1200 900
2 1 0 1 0 7 100 0 -1 0.000 0 0 -1 0 0 2
	 3900 1200 3900 300
2 1 0 1 0 7 100 0 -1 0.000 0 0 -1 0 0 2
	 3000 3600 3000 1200
2 1 0 1 0 7 100 0 -1 0.000 0 0 -1 0 0 2
	 3000 1200 3900 300
2 1 0 1 0 7 100 0 -1 0.000 0 0 -1 0 0 2
	 2400 2700 2400 2100
2 1 0 1 0 7 100 0 -1 0.000 0 0 -1 0 0 2
	 1800 3300 2400 2700
2 1 0 1 0 7 100 0 -1 0.000 0 0 -1 1 1 2
	1 1 1.00 60.00 120.00
	1 1 1.00 60.00 120.00
	 997 3000 2025 3000
2 1 0 1 0 7 100 0 -1 0.000 0 0 -1 1 1 2
	1 1 1.00 60.00 45.00
	1 1 1.00 60.00 45.00
	 1800 3525 1950 3375
2 1 0 1 0 7 100 0 -1 0.000 0 0 -1 0 0 1
	 3600 3000
2 1 0 1 0 7 100 0 -1 0.000 0 0 -1 1 1 2
	1 1 1.00 60.00 120.00
	1 1 1.00 60.00 120.00
	 3600 3300 3600 2700
2 1 0 1 0 7 100 0 -1 0.000 0 0 -1 0 0 2
	 300 1200 3000 1200
2 1 0 1 0 7 100 0 -1 0.000 0 0 -1 0 0 2
	 1200 300 3900 300
4 0 0 100 0 2 12 0.0000 0 90 90 1365 3825 x\001
4 0 0 100 0 2 12 0.0000 0 135 90 780 3360 y\001
4 0 0 100 0 2 12 0.0000 0 135 90 3375 3000 h\001
4 0 0 100 0 2 12 0.0000 0 90 105 1507 2880 a\001
4 0 0 100 0 2 12 0.0000 0 90 105 2025 3525 a\001
