%!PS-Adobe-3.0 EPSF
%%Title: Maple plot
%%Creator: MapleV 
%%Pages:  1
%%BoundingBox: 0 0 612 792 
%%DocumentNeededResources: font Courier
%%EndComments
20 dict begin
gsave
/m {moveto} def
/l {lineto} def
/C {setrgbcolor} def
/Y /setcmykcolor where { %%ifelse Use built-in operator
       /setcmykcolor get
   }{ %%ifelse Emulate setcmykcolor with setrgbcolor
       { %%def
           1 sub 3 { %%repeat
               3 index add neg dup 0 lt { pop 0 } if 3 1 roll
           } repeat setrgbcolor
       } bind
   } ifelse def
/G {setgray} def
/S {stroke} def
/NP {newpath} def
%%%%This draws a filled polygon and avoids bugs/features
%%%%   of some postscript interpreters
%%%%GHOSTSCRIPT: has a bug in reversepath - removing
%%%%the call to reversepath is a sufficient work around
/P {gsave fill grestore reversepath stroke} def
%%%%This function is needed for drawing text
/stringbbox {gsave NP 0 0 m false charpath flattenpath
   pathbbox 4 2 roll pop pop 1.1 mul cvi exch 1.1 mul 
   cvi exch grestore} def
/thin 3 def
/medium 7 def
/thick 16 def
/boundarythick 20 def %% thickness of bounding box
%%IncludeResource: font Courier
576 36 translate
90 rotate
0.108 0.108 scale
1 setlinejoin
1 setlinecap
0.0 setgray
/inch {72 mul} def
/fheight 0.35 inch neg def
    0 G
medium setlinewidth
[] 0 setdash 0.90498 G
NP 2744 577 m 2875 608 l
S
0.900431 G
NP 2744 577 m 2662 623 l
S
0.897176 G
NP 2875 608 m 3006 640 l
S
0.892627 G
NP 2875 608 m 2793 656 l
S
0.889216 G
NP 2662 623 m 2793 656 l
S
0.884667 G
NP 2662 623 m 2579 670 l
S
0.888941 G
NP 3006 640 m 3138 673 l
S
0.88098 G
NP 2793 656 m 2924 690 l
S
0.884392 G
NP 3006 640 m 2924 690 l
S
0.876431 G
NP 2793 656 m 2711 704 l
S
0.87302 G
NP 2579 670 m 2711 704 l
S
0.881137 G
NP 3138 673 m 3269 706 l
S
0.868471 G
NP 2579 670 m 2497 717 l
S
0.873176 G
NP 2924 690 m 3055 724 l
S
0.875412 G
NP 3138 673 m 3055 724 l
S
0.873333 G
NP 3269 706 m 3400 740 l
S
0.868627 G
NP 2924 690 m 2842 740 l
S
0.865216 G
NP 2711 704 m 2842 740 l
S
0.854941 G
NP 2497 717 m 2628 754 l
S
0.860667 G
NP 2711 704 m 2628 754 l
S
0.867608 G
NP 3269 706 m 3187 760 l
S
0.865373 G
NP 3055 724 m 3187 760 l
S
0.852706 G
NP 2497 717 m 2415 765 l
S
0.863922 G
NP 3400 740 m 3532 774 l
S
0.859647 G
NP 3055 724 m 2973 778 l
S
0.857412 G
NP 2842 740 m 2973 778 l
S
0.847137 G
NP 2628 754 m 2760 793 l
S
0.852863 G
NP 2842 740 m 2760 793 l
S
0.857569 G
NP 3187 760 m 3318 797 l
S
0.859804 G
NP 3400 740 m 3318 797 l
S
0.839176 G
NP 2415 765 m 2546 805 l
S
0.844902 G
NP 2628 754 m 2546 805 l
S
0.856118 G
NP 3532 774 m 3663 808 l
S
0.836941 G
NP 2415 765 m 2333 814 l
S
0.851843 G
NP 3187 760 m 3105 817 l
S
0.849608 G
NP 2973 778 m 3105 817 l
S
0.843882 G
NP 2973 778 m 2891 834 l
S
0.839333 G
NP 2760 793 m 2891 834 l
S
0.851569 G
NP 3532 774 m 3449 834 l
S
0.848588 G
NP 3318 797 m 3449 834 l
S
0.848314 G
NP 3663 808 m 3794 841 l
S
0.831373 G
NP 2546 805 m 2677 847 l
S
0.837098 G
NP 2760 793 m 2677 847 l
S
0.823412 G
NP 2333 814 m 2464 856 l
S
0.829137 G
NP 2546 805 m 2464 856 l
S
0.841804 G
NP 3105 817 m 3236 857 l
S
0.844039 G
NP 3318 797 m 3236 857 l
S
0.818431 G
NP 2333 814 m 2250 863 l
S
0.843765 G
NP 3663 808 m 3581 871 l
S
0.840784 G
NP 3449 834 m 3581 871 l
S
0.840078 G
NP 3794 841 m 3926 873 l
S
0.836078 G
NP 3105 817 m 3022 877 l
S
0.831529 G
NP 2891 834 m 3022 877 l
S
0.828118 G
NP 2891 834 m 2809 891 l
S
0.823569 G
NP 2677 847 m 2809 891 l
S
0.832824 G
NP 3236 857 m 3367 898 l
S
0.836235 G
NP 3449 834 m 3367 898 l
S
0.815608 G
NP 2464 856 m 2595 902 l
S
0.821333 G
NP 2677 847 m 2595 902 l
S
0.831098 G
NP 3926 873 m 4057 903 l
S
0.834784 G
NP 3794 841 m 3712 907 l
S
0.832549 G
NP 3581 871 m 3712 907 l
S
0.811059 G
NP 2464 856 m 2382 908 l
S
0.807216 G
NP 2250 863 m 2382 908 l
S
0.802667 G
NP 2250 863 m 2168 911 l
S
0.828706 G
NP 3236 857 m 3154 921 l
S
0.824157 G
NP 3022 877 m 3154 921 l
S
0.822863 G
NP 4057 903 m 4188 932 l
S
0.828431 G
NP 3581 871 m 3499 939 l
S
0.825451 G
NP 3367 898 m 3499 939 l
S
0.820745 G
NP 3022 877 m 2940 939 l
S
0.816196 G
NP 2809 891 m 2940 939 l
S
0.824745 G
NP 3712 907 m 3843 941 l
S
0.826549 G
NP 3926 873 m 3843 941 l
S
0.812784 G
NP 2809 891 m 2727 951 l
S
0.808235 G
NP 2595 902 m 2727 951 l
S
0.799843 G
NP 2382 908 m 2513 957 l
S
0.803255 G
NP 2595 902 m 2513 957 l
S
0.814627 G
NP 4188 932 m 4320 958 l
S
0.786902 G
NP 2168 911 m 2086 959 l
S
0.791451 G
NP 2168 911 m 2299 960 l
S
0.795294 G
NP 2382 908 m 2299 960 l
S
0.820902 G
NP 3367 898 m 3285 967 l
S
0.815176 G
NP 3154 921 m 3285 967 l
S
0.818745 G
NP 4057 903 m 3975 974 l
S
0.815765 G
NP 3843 941 m 3975 974 l
S
0.817647 G
NP 3499 939 m 3630 979 l
S
0.819451 G
NP 3712 907 m 3630 979 l
S
0.806392 G
NP 4320 958 m 4451 981 l
S
0.808824 G
NP 2940 939 m 3071 990 l
S
0.813373 G
NP 3154 921 m 3071 990 l
S
0.798157 G
NP 4451 981 m 4582 1003 l
S
0.81051 G
NP 4188 932 m 4106 1004 l
S
0.807529 G
NP 3975 974 m 4106 1004 l
S
0.805412 G
NP 2940 939 m 2858 1005 l
S
0.800863 G
NP 2727 951 m 2858 1005 l
S
0.770706 G
NP 2086 959 m 2004 1006 l
S
0.773373 G
NP 2086 959 m 2217 1011 l
S
0.779098 G
NP 2299 960 m 2217 1011 l
S
0.792471 G
NP 2513 957 m 2644 1012 l
S
0.794706 G
NP 2727 951 m 2644 1012 l
S
0.787922 G
NP 2513 957 m 2431 1013 l
S
0.784078 G
NP 2299 960 m 2431 1013 l
S
0.813098 G
NP 3499 939 m 3416 1014 l
S
0.807804 G
NP 3285 967 m 3416 1014 l
S
0.811647 G
NP 3843 941 m 3761 1018 l
S
0.809843 G
NP 3630 979 m 3761 1018 l
S
0.788745 G
NP 4582 1003 m 4714 1022 l
S
0.801098 G
NP 4320 958 m 4237 1030 l
S
0.799725 G
NP 4106 1004 m 4237 1030 l
S
0.780078 G
NP 4714 1022 m 4845 1040 l
S
0.806 G
NP 3285 967 m 3203 1042 l
S
0.800274 G
NP 3071 990 m 3203 1042 l
S
0.752627 G
NP 2004 1006 m 1921 1051 l
S
0.800863 G
NP 3761 1018 m 3893 1053 l
S
0.803843 G
NP 3975 974 m 3893 1053 l
S
0.79149 G
NP 4237 1030 m 4369 1053 l
S
0.792863 G
NP 4451 981 m 4369 1053 l
S
0.771843 G
NP 4845 1040 m 4976 1056 l
S
0.800431 G
NP 3416 1014 m 3548 1060 l
S
0.804549 G
NP 3630 979 m 3548 1060 l
S
0.757176 G
NP 2004 1006 m 2135 1060 l
S
0.763333 G
NP 2217 1011 m 2135 1060 l
S
0.798039 G
NP 3071 990 m 2989 1062 l
S
0.79349 G
NP 2858 1005 m 2989 1062 l
S
0.772157 G
NP 2431 1013 m 2348 1068 l
S
0.766 G
NP 2217 1011 m 2348 1068 l
S
0.763177 G
NP 4976 1056 m 5108 1072 l
S
0.787765 G
NP 2858 1005 m 2776 1072 l
S
0.785529 G
NP 2644 1012 m 2776 1072 l
S
0.779373 G
NP 2644 1012 m 2562 1073 l
S
0.776706 G
NP 2431 1013 m 2562 1073 l
S
0.784627 G
NP 4582 1003 m 4500 1073 l
S
0.782824 G
NP 4369 1053 m 4500 1073 l
S
0.792627 G
NP 3893 1053 m 4024 1085 l
S
0.795608 G
NP 4106 1004 m 4024 1085 l
S
0.75451 G
NP 5108 1072 m 5239 1088 l
S
0.775961 G
NP 4714 1022 m 4631 1090 l
S
0.773412 G
NP 4500 1073 m 4631 1090 l
S
0.736431 G
NP 1921 1051 m 1839 1095 l
S
0.792902 G
NP 3203 1042 m 3334 1096 l
S
0.798196 G
NP 3416 1014 m 3334 1096 l
S
0.796745 G
NP 3761 1018 m 3679 1103 l
S
0.792627 G
NP 3548 1060 m 3679 1103 l
S
0.745098 G
NP 5239 1088 m 5370 1104 l
S
0.767726 G
NP 4845 1040 m 4763 1105 l
S
0.764745 G
NP 4631 1090 m 4763 1105 l
S
0.741412 G
NP 1921 1051 m 2053 1107 l
S
0.745255 G
NP 2135 1060 m 2053 1107 l
S
0.786196 G
NP 4237 1030 m 4155 1112 l
S
0.784824 G
NP 4024 1085 m 4155 1112 l
S
0.757882 G
NP 4976 1056 m 4894 1119 l
S
0.756078 G
NP 4763 1105 m 4894 1119 l
S
0.736431 G
NP 5370 1104 m 5502 1120 l
S
0.750235 G
NP 2135 1060 m 2266 1121 l
S
0.756392 G
NP 2348 1068 m 2266 1121 l
S
0.790667 G
NP 3203 1042 m 3120 1123 l
S
0.785373 G
NP 2989 1062 m 3120 1123 l
S
0.749216 G
NP 5108 1072 m 5025 1132 l
S
0.747843 G
NP 4894 1119 m 5025 1132 l
S
0.764039 G
NP 2562 1073 m 2480 1134 l
S
0.759059 G
NP 2348 1068 m 2480 1134 l
S
0.777961 G
NP 4369 1053 m 4287 1135 l
S
0.776588 G
NP 4155 1112 m 4287 1135 l
S
0.720235 G
NP 1839 1095 m 1757 1135 l
S
0.727765 G
NP 5502 1120 m 5633 1137 l
S
0.778157 G
NP 2776 1072 m 2907 1138 l
S
0.780824 G
NP 2989 1062 m 2907 1138 l
S
0.772431 G
NP 2776 1072 m 2693 1141 l
S
0.769765 G
NP 2562 1073 m 2693 1141 l
S
0.788941 G
NP 3893 1053 m 3810 1143 l
S
0.783647 G
NP 3679 1103 m 3810 1143 l
S
0.739176 G
NP 5025 1132 m 5157 1145 l
S
0.74098 G
NP 5239 1088 m 5157 1145 l
S
0.789647 G
NP 3548 1060 m 3465 1150 l
S
0.785529 G
NP 3334 1096 m 3465 1150 l
S
0.729059 G
NP 2053 1107 m 1970 1152 l
S
0.725216 G
NP 1839 1095 m 1970 1152 l
S
0.769726 G
NP 4500 1073 m 4418 1153 l
S
0.767922 G
NP 4287 1135 m 4418 1153 l
S
0.719529 G
NP 5633 1137 m 5764 1155 l
S
0.729333 G
NP 5157 1145 m 5288 1158 l
S
0.732314 G
NP 5370 1104 m 5288 1158 l
S
0.761059 G
NP 4631 1090 m 4549 1167 l
S
0.75851 G
NP 4418 1153 m 4549 1167 l
S
0.720667 G
NP 5288 1158 m 5419 1171 l
S
0.723647 G
NP 5502 1120 m 5419 1171 l
S
0.734471 G
NP 2053 1107 m 2184 1172 l
S
0.738314 G
NP 2266 1121 m 2184 1172 l
S
0.710863 G
NP 5764 1155 m 5896 1173 l
S
0.704039 G
NP 1757 1135 m 1675 1174 l
S
0.781137 G
NP 4024 1085 m 3942 1178 l
S
0.775843 G
NP 3810 1143 m 3942 1178 l
S
0.749843 G
NP 4549 1167 m 4680 1178 l
S
0.752392 G
NP 4763 1105 m 4680 1178 l
S
0.712 G
NP 5419 1171 m 5551 1186 l
S
0.713804 G
NP 5633 1137 m 5551 1186 l
S
0.783726 G
NP 3334 1096 m 3252 1187 l
S
0.778 G
NP 3120 1123 m 3252 1187 l
S
0.741176 G
NP 4680 1178 m 4812 1187 l
S
0.742549 G
NP 4894 1119 m 4812 1187 l
S
0.748275 G
NP 2480 1134 m 2398 1192 l
S
0.743294 G
NP 2266 1121 m 2398 1192 l
S
0.713294 G
NP 1970 1152 m 1888 1193 l
S
0.706706 G
NP 1757 1135 m 1888 1193 l
S
0.73251 G
NP 4812 1187 m 4943 1196 l
S
0.733882 G
NP 5025 1132 m 4943 1196 l
S
0.778157 G
NP 3465 1150 m 3597 1201 l
S
0.782275 G
NP 3679 1103 m 3597 1201 l
S
0.705569 G
NP 5764 1155 m 5682 1202 l
S
0.703333 G
NP 5551 1186 m 5682 1202 l
S
0.723412 G
NP 4943 1196 m 5074 1205 l
S
0.725216 G
NP 5157 1145 m 5074 1205 l
S
0.768039 G
NP 3942 1178 m 4073 1206 l
S
0.771725 G
NP 4155 1112 m 4073 1206 l
S
0.757098 G
NP 2693 1141 m 2611 1209 l
S
0.752118 G
NP 2480 1134 m 2611 1209 l
S
0.770471 G
NP 2907 1138 m 3038 1210 l
S
0.773882 G
NP 3120 1123 m 3038 1210 l
S
0.687843 G
NP 1675 1174 m 1592 1210 l
S
0.713569 G
NP 5074 1205 m 5206 1214 l
S
0.716549 G
NP 5288 1158 m 5206 1214 l
S
0.76549 G
NP 2907 1138 m 2825 1217 l
S
0.763255 G
NP 2693 1141 m 2825 1217 l
S
0.722118 G
NP 2184 1172 m 2102 1218 l
S
0.718275 G
NP 1970 1152 m 2102 1218 l
S
0.696902 G
NP 5896 1173 m 5813 1219 l
S
0.695098 G
NP 5682 1202 m 5813 1219 l
S
0.704902 G
NP 5206 1214 m 5337 1225 l
S
0.707882 G
NP 5419 1171 m 5337 1225 l
S
0.759804 G
NP 4073 1206 m 4204 1228 l
S
0.76349 G
NP 4287 1135 m 4204 1228 l
S
0.69051 G
NP 1675 1174 m 1806 1231 l
S
0.697098 G
NP 1888 1193 m 1806 1231 l
S
0.698039 G
NP 5551 1186 m 5468 1237 l
S
0.696235 G
NP 5337 1225 m 5468 1237 l
S
0.754824 G
NP 4418 1153 m 4336 1243 l
S
0.751137 G
NP 4204 1228 m 4336 1243 l
S
0.669333 G
NP 1592 1210 m 1510 1244 l
S
0.774471 G
NP 3810 1143 m 3728 1247 l
S
0.769608 G
NP 3597 1201 m 3728 1247 l
S
0.727529 G
NP 2184 1172 m 2315 1247 l
S
0.730196 G
NP 2398 1192 m 2315 1247 l
S
0.687569 G
NP 5468 1237 m 5600 1251 l
S
0.689373 G
NP 5682 1202 m 5600 1251 l
S
0.775608 G
NP 3465 1150 m 3383 1251 l
S
0.771059 G
NP 3252 1187 m 3383 1251 l
S
0.741294 G
NP 4336 1243 m 4467 1253 l
S
0.746157 G
NP 4549 1167 m 4467 1253 l
S
0.732627 G
NP 4467 1253 m 4598 1259 l
S
0.73749 G
NP 4680 1178 m 4598 1259 l
S
0.699765 G
NP 1888 1193 m 2019 1260 l
S
0.706353 G
NP 2102 1218 m 2019 1260 l
S
0.723961 G
NP 4598 1259 m 4730 1262 l
S
0.727216 G
NP 4812 1187 m 4730 1262 l
S
0.714863 G
NP 4730 1262 m 4861 1266 l
S
0.718549 G
NP 4943 1196 m 4861 1266 l
S
0.678902 G
NP 5600 1251 m 5731 1266 l
S
0.681137 G
NP 5813 1219 m 5731 1266 l
S
0.674314 G
NP 1592 1210 m 1724 1266 l
S
0.680471 G
NP 1806 1231 m 1724 1266 l
S
0.705765 G
NP 4861 1266 m 4992 1269 l
S
0.709882 G
NP 5074 1205 m 4992 1269 l
S
0.695922 G
NP 4992 1269 m 5124 1274 l
S
0.700784 G
NP 5206 1214 m 5124 1274 l
S
0.736784 G
NP 2398 1192 m 2529 1275 l
S
0.741765 G
NP 2611 1209 m 2529 1275 l
S
0.652706 G
NP 1510 1244 m 1428 1277 l
S
0.686824 G
NP 5124 1274 m 5255 1281 l
S
0.692118 G
NP 5337 1225 m 5255 1281 l
S
0.761804 G
NP 3728 1247 m 3859 1286 l
S
0.766667 G
NP 3942 1178 m 3859 1286 l
S
0.766941 G
NP 3252 1187 m 3170 1286 l
S
0.763529 G
NP 3038 1210 m 3170 1286 l
S
0.678157 G
NP 5255 1281 m 5386 1290 l
S
0.682275 G
NP 5468 1237 m 5386 1290 l
S
0.750588 G
NP 2825 1217 m 2742 1295 l
S
0.746039 G
NP 2611 1209 m 2742 1295 l
S
0.711765 G
NP 2102 1218 m 2233 1297 l
S
0.714431 G
NP 2315 1247 m 2233 1297 l
S
0.690157 G
NP 2019 1260 m 1937 1298 l
S
0.683569 G
NP 1806 1231 m 1937 1298 l
S
0.657686 G
NP 1510 1244 m 1641 1298 l
S
0.661961 G
NP 1724 1266 m 1641 1298 l
S
0.66949 G
NP 5386 1290 m 5518 1300 l
S
0.673608 G
NP 5600 1251 m 5518 1300 l
S
0.755569 G
NP 2825 1217 m 2956 1301 l
S
0.75898 G
NP 3038 1210 m 2956 1301 l
S
0.63651 G
NP 1428 1277 m 1346 1308 l
S
0.764118 G
NP 3383 1251 m 3514 1313 l
S
0.768235 G
NP 3597 1201 m 3514 1313 l
S
0.664941 G
NP 5731 1266 m 5649 1313 l
S
0.660824 G
NP 5518 1300 m 5649 1313 l
S
0.754 G
NP 3859 1286 m 3991 1316 l
S
0.757686 G
NP 4073 1206 m 3991 1316 l
S
0.64149 G
NP 1428 1277 m 1559 1328 l
S
0.645333 G
NP 1641 1298 m 1559 1328 l
S
0.673529 G
NP 1937 1298 m 1855 1330 l
S
0.667373 G
NP 1724 1266 m 1855 1330 l
S
0.745765 G
NP 3991 1316 m 4122 1336 l
S
0.74902 G
NP 4204 1228 m 4122 1336 l
S
0.724118 G
NP 2529 1275 m 2447 1336 l
S
0.72102 G
NP 2315 1247 m 2447 1336 l
S
0.685451 G
NP 5124 1274 m 5041 1337 l
S
0.680588 G
NP 5041 1337 m 4910 1337 l
S
0.694549 G
NP 4992 1269 m 4910 1337 l
S
0.67149 G
NP 5041 1337 m 5173 1339 l
S
0.676353 G
NP 5255 1281 m 5173 1339 l
S
0.619882 G
NP 1346 1308 m 1263 1339 l
S
0.698667 G
NP 2233 1297 m 2151 1340 l
S
0.693255 G
NP 2019 1260 m 2151 1340 l
S
0.703647 G
NP 4861 1266 m 4779 1341 l
S
0.690863 G
NP 4910 1337 m 4779 1341 l
S
0.66651 G
NP 5386 1290 m 5304 1343 l
S
0.662392 G
NP 5173 1339 m 5304 1343 l
S
0.699961 G
NP 4779 1341 m 4647 1345 l
S
0.712314 G
NP 4730 1262 m 4647 1345 l
S
0.740353 G
NP 4336 1243 m 4253 1346 l
S
0.737098 G
NP 4122 1336 m 4253 1346 l
S
0.709059 G
NP 4647 1345 m 4516 1349 l
S
0.722588 G
NP 4598 1259 m 4516 1349 l
S
0.718157 G
NP 4516 1349 m 4385 1350 l
S
0.731686 G
NP 4467 1253 m 4385 1350 l
S
0.727255 G
NP 4253 1346 m 4385 1350 l
S
0.653726 G
NP 5304 1343 m 5435 1351 l
S
0.657843 G
NP 5518 1300 m 5435 1351 l
S
0.622549 G
NP 1346 1308 m 1477 1356 l
S
0.628706 G
NP 1559 1328 m 1477 1356 l
S
0.65502 G
NP 1855 1330 m 1773 1359 l
S
0.650745 G
NP 1641 1298 m 1773 1359 l
S
0.649176 G
NP 5649 1313 m 5567 1362 l
S
0.645059 G
NP 5435 1351 m 5567 1362 l
S
0.75702 G
NP 3170 1286 m 3301 1364 l
S
0.759255 G
NP 3383 1251 m 3301 1364 l
S
0.760863 G
NP 3728 1247 m 3646 1368 l
S
0.756 G
NP 3514 1313 m 3646 1368 l
S
0.603255 G
NP 1263 1339 m 1181 1369 l
S
0.730706 G
NP 2529 1275 m 2660 1372 l
S
0.735686 G
NP 2742 1295 m 2660 1372 l
S
0.682471 G
NP 2151 1340 m 2069 1376 l
S
0.677059 G
NP 1937 1298 m 2069 1376 l
S
0.61251 G
NP 1477 1356 m 1395 1384 l
S
0.605922 G
NP 1263 1339 m 1395 1384 l
S
0.634118 G
NP 1559 1328 m 1690 1386 l
S
0.638392 G
NP 1773 1359 m 1690 1386 l
S
0.705255 G
NP 2233 1297 m 2364 1390 l
S
0.708353 G
NP 2447 1336 m 2364 1390 l
S
0.74949 G
NP 2956 1301 m 3087 1393 l
S
0.752902 G
NP 3170 1286 m 3087 1393 l
S
0.74451 G
NP 2956 1301 m 2874 1394 l
S
0.738784 G
NP 2742 1295 m 2874 1394 l
S
0.66102 G
NP 5173 1339 m 5090 1398 l
S
0.647059 G
NP 5090 1398 m 5222 1398 l
S
0.650745 G
NP 5304 1343 m 5222 1398 l
S
0.584745 G
NP 1181 1369 m 1099 1400 l
S
0.670118 G
NP 5041 1337 m 4959 1402 l
S
0.656157 G
NP 5090 1398 m 4959 1402 l
S
0.642078 G
NP 5435 1351 m 5353 1403 l
S
0.637961 G
NP 5222 1398 m 5353 1403 l
S
0.665843 G
NP 2069 1376 m 1986 1406 l
S
0.660431 G
NP 1855 1330 m 1986 1406 l
S
0.621765 G
NP 1690 1386 m 1608 1410 l
S
0.615176 G
NP 1477 1356 m 1608 1410 l
S
0.665255 G
NP 4959 1402 m 4828 1410 l
S
0.679216 G
NP 4910 1337 m 4828 1410 l
S
0.633412 G
NP 5567 1362 m 5484 1410 l
S
0.629294 G
NP 5353 1403 m 5484 1410 l
S
0.595882 G
NP 1395 1384 m 1312 1411 l
S
0.589725 G
NP 1181 1369 m 1312 1411 l
S
0.748627 G
NP 3646 1368 m 3777 1413 l
S
0.753059 G
NP 3859 1286 m 3777 1413 l
S
0.688314 G
NP 4779 1341 m 4696 1421 l
S
0.675961 G
NP 4828 1410 m 4696 1421 l
S
0.643804 G
NP 1773 1359 m 1904 1430 l
S
0.646902 G
NP 1986 1406 m 1904 1430 l
S
0.568118 G
NP 1099 1400 m 1017 1431 l
S
0.605137 G
NP 1608 1410 m 1526 1433 l
S
0.598549 G
NP 1395 1384 m 1526 1433 l
S
0.692588 G
NP 2364 1390 m 2282 1434 l
S
0.687176 G
NP 2151 1340 m 2282 1434 l
S
0.685059 G
NP 4696 1421 m 4565 1435 l
S
0.697843 G
NP 4647 1345 m 4565 1435 l
S
0.573098 G
NP 1099 1400 m 1230 1439 l
S
0.576941 G
NP 1312 1411 m 1230 1439 l
S
0.752314 G
NP 3514 1313 m 3432 1441 l
S
0.75051 G
NP 3301 1364 m 3432 1441 l
S
0.715373 G
NP 2447 1336 m 2578 1442 l
S
0.718471 G
NP 2660 1372 m 2578 1442 l
S
0.740824 G
NP 3777 1413 m 3908 1445 l
S
0.744078 G
NP 3991 1316 m 3908 1445 l
S
0.694588 G
NP 4565 1435 m 4434 1450 l
S
0.708549 G
NP 4516 1349 m 4434 1450 l
S
0.630275 G
NP 1904 1430 m 1822 1451 l
S
0.627176 G
NP 1690 1386 m 1822 1451 l
S
0.632667 G
NP 5222 1398 m 5139 1454 l
S
0.622196 G
NP 5139 1454 m 5271 1454 l
S
0.624 G
NP 5353 1403 m 5271 1454 l
S
0.588078 G
NP 1526 1433 m 1444 1457 l
S
0.581922 G
NP 1312 1411 m 1444 1457 l
S
0.614902 G
NP 5484 1410 m 5402 1459 l
S
0.613098 G
NP 5271 1454 m 5402 1459 l
S
0.642941 G
NP 5090 1398 m 5008 1459 l
S
0.631294 G
NP 5139 1454 m 5008 1459 l
S
0.704118 G
NP 4434 1450 m 4302 1462 l
S
0.717647 G
NP 4385 1350 m 4302 1462 l
S
0.732588 G
NP 3908 1445 m 4040 1463 l
S
0.735412 G
NP 4122 1336 m 4040 1463 l
S
0.55149 G
NP 1017 1431 m 934 1463 l
S
0.723922 G
NP 4040 1463 m 4171 1467 l
S
0.713647 G
NP 4302 1462 m 4171 1467 l
S
0.726745 G
NP 4253 1346 m 4171 1467 l
S
0.560314 G
NP 1230 1439 m 1148 1468 l
S
0.556471 G
NP 1017 1431 m 1148 1468 l
S
0.676392 G
NP 2282 1434 m 2200 1469 l
S
0.670549 G
NP 2069 1376 m 2200 1469 l
S
0.640824 G
NP 5008 1459 m 4877 1469 l
S
0.652471 G
NP 4959 1402 m 4877 1469 l
S
0.607804 G
NP 1608 1410 m 1740 1470 l
S
0.613647 G
NP 1822 1451 m 1740 1470 l
S
0.569137 G
NP 1444 1457 m 1362 1481 l
S
0.565294 G
NP 1230 1439 m 1362 1481 l
S
0.730039 G
NP 2874 1394 m 2792 1485 l
S
0.723882 G
NP 2660 1372 m 2792 1485 l
S
0.662 G
NP 4828 1410 m 4745 1486 l
S
0.649922 G
NP 4877 1469 m 4745 1486 l
S
0.591176 G
NP 1526 1433 m 1657 1488 l
S
0.596588 G
NP 1740 1470 m 1657 1488 l
S
0.743412 G
NP 3087 1393 m 3219 1490 l
S
0.745647 G
NP 3301 1364 m 3219 1490 l
S
0.653922 G
NP 1986 1406 m 2118 1495 l
S
0.659765 G
NP 2200 1469 m 2118 1495 l
S
0.535294 G
NP 934 1463 m 852 1495 l
S
0.537529 G
NP 934 1463 m 1066 1498 l
S
0.543686 G
NP 1148 1468 m 1066 1498 l
S
0.703137 G
NP 2578 1442 m 2496 1502 l
S
0.699608 G
NP 2364 1390 m 2496 1502 l
S
0.733137 G
NP 2874 1394 m 3005 1505 l
S
0.738863 G
NP 3087 1393 m 3005 1505 l
S
0.608235 G
NP 5271 1454 m 5189 1506 l
S
0.579529 G
NP 1657 1488 m 1575 1506 l
S
0.574549 G
NP 1444 1457 m 1575 1506 l
S
0.55251 G
NP 1362 1481 m 1279 1507 l
S
0.548667 G
NP 1148 1468 m 1279 1507 l
S
0.599137 G
NP 5402 1459 m 5320 1508 l
S
0.597333 G
NP 5189 1506 m 5320 1508 l
S
0.661059 G
NP 4745 1486 m 4614 1508 l
S
0.671529 G
NP 4696 1421 m 4614 1508 l
S
0.742824 G
NP 3432 1441 m 3564 1509 l
S
0.745373 G
NP 3646 1368 m 3564 1509 l
S
0.606431 G
NP 5189 1506 m 5057 1510 l
S
0.617333 G
NP 5139 1454 m 5057 1510 l
S
0.640824 G
NP 2118 1495 m 2035 1513 l
S
0.637294 G
NP 1904 1430 m 2035 1513 l
S
0.627608 G
NP 5008 1459 m 4926 1520 l
S
0.615529 G
NP 5057 1510 m 4926 1520 l
S
0.55749 G
NP 1362 1481 m 1493 1526 l
S
0.560588 G
NP 1575 1506 m 1493 1526 l
S
0.620235 G
NP 1822 1451 m 1953 1526 l
S
0.623765 G
NP 2035 1513 m 1953 1526 l
S
0.527059 G
NP 1066 1498 m 983 1528 l
S
0.521333 G
NP 852 1495 m 983 1528 l
S
0.518667 G
NP 852 1495 m 770 1529 l
S
0.535882 G
NP 1279 1507 m 1197 1534 l
S
0.529725 G
NP 1066 1498 m 1197 1534 l
S
0.670588 G
NP 4614 1508 m 4483 1534 l
S
0.681059 G
NP 4565 1435 m 4483 1534 l
S
0.600863 G
NP 1740 1470 m 1871 1537 l
S
0.606706 G
NP 1953 1526 m 1871 1537 l
S
0.625059 G
NP 4926 1520 m 4795 1538 l
S
0.637137 G
NP 4877 1469 m 4795 1538 l
S
0.543529 G
NP 1493 1526 m 1411 1548 l
S
0.540863 G
NP 1279 1507 m 1411 1548 l
S
0.589647 G
NP 1871 1537 m 1789 1548 l
S
0.584235 G
NP 1657 1488 m 1789 1548 l
S
0.687373 G
NP 2496 1502 m 2413 1549 l
S
0.681529 G
NP 2282 1434 m 2413 1549 l
S
0.583373 G
NP 5320 1508 m 5238 1556 l
S
0.592039 G
NP 5189 1506 m 5106 1557 l
S
0.579255 G
NP 5238 1556 m 5106 1557 l
S
0.567176 G
NP 1575 1506 m 1706 1560 l
S
0.572588 G
NP 1789 1548 m 1706 1560 l
S
0.504706 G
NP 770 1529 m 901 1560 l
S
0.510863 G
NP 983 1528 m 901 1560 l
S
0.519255 G
NP 1197 1534 m 1115 1562 l
S
0.513098 G
NP 983 1528 m 1115 1562 l
S
0.692196 G
NP 4434 1450 m 4352 1563 l
S
0.680549 G
NP 4483 1534 m 4352 1563 l
S
0.735882 G
NP 3564 1509 m 3695 1564 l
S
0.738 G
NP 3777 1413 m 3695 1564 l
S
0.63502 G
NP 4795 1538 m 4663 1564 l
S
0.646667 G
NP 4745 1486 m 4663 1564 l
S
0.588353 G
NP 5106 1557 m 4975 1565 l
S
0.601569 G
NP 5057 1510 m 4975 1565 l
S
0.70898 G
NP 2578 1442 m 2709 1569 l
S
0.713255 G
NP 2792 1485 m 2709 1569 l
S
0.526902 G
NP 1411 1548 m 1328 1571 l
S
0.521922 G
NP 1197 1534 m 1328 1571 l
S
0.550118 G
NP 1493 1526 m 1624 1574 l
S
0.553216 G
NP 1706 1560 m 1624 1574 l
S
0.597882 G
NP 4975 1565 m 4844 1581 l
S
0.612275 G
NP 4926 1520 m 4844 1581 l
S
0.664902 G
NP 2200 1469 m 2331 1581 l
S
0.671176 G
NP 2413 1549 m 2331 1581 l
S
0.739137 G
NP 3432 1441 m 3350 1587 l
S
0.737765 G
NP 3219 1490 m 3350 1587 l
S
0.69051 G
NP 4352 1563 m 4220 1590 l
S
0.701725 G
NP 4302 1462 m 4220 1590 l
S
0.533059 G
NP 1411 1548 m 1542 1591 l
S
0.536157 G
NP 1624 1574 m 1542 1591 l
S
0.496902 G
NP 901 1560 m 1033 1592 l
S
0.502627 G
NP 1115 1562 m 1033 1592 l
S
0.505294 G
NP 1115 1562 m 1246 1597 l
S
0.510275 G
NP 1328 1571 m 1246 1597 l
S
0.656627 G
NP 4614 1508 m 4532 1599 l
S
0.646157 G
NP 4663 1564 m 4532 1599 l
S
0.728078 G
NP 3695 1564 m 3826 1599 l
S
0.728588 G
NP 3908 1445 m 3826 1599 l
S
0.648275 G
NP 2118 1495 m 2249 1600 l
S
0.654549 G
NP 2331 1581 m 2249 1600 l
S
0.567176 G
NP 5238 1556 m 5155 1602 l
S
0.576275 G
NP 5106 1557 m 5024 1606 l
S
0.563059 G
NP 5155 1602 m 5024 1606 l
S
0.607412 G
NP 4844 1581 m 4712 1607 l
S
0.621804 G
NP 4795 1538 m 4712 1607 l
S
0.700471 G
NP 4220 1590 m 4089 1609 l
S
0.711255 G
NP 4171 1467 m 4089 1609 l
S
0.635176 G
NP 2249 1600 m 2167 1610 l
S
0.631216 G
NP 2035 1513 m 2167 1610 l
S
0.519098 G
NP 1542 1591 m 1460 1610 l
S
0.514118 G
NP 1328 1571 m 1460 1610 l
S
0.614157 G
NP 1953 1526 m 2084 1613 l
S
0.617686 G
NP 2167 1610 m 2084 1613 l
S
0.600196 G
NP 2084 1613 m 2002 1613 l
S
0.594353 G
NP 1871 1537 m 2002 1613 l
S
0.720353 G
NP 4040 1463 m 3958 1614 l
S
0.711176 G
NP 4089 1609 m 3958 1614 l
S
0.719843 G
NP 3826 1599 m 3958 1614 l
S
0.576863 G
NP 1789 1548 m 1920 1614 l
S
0.582706 G
NP 2002 1613 m 1920 1614 l
S
0.725255 G
NP 3005 1505 m 2923 1617 l
S
0.718667 G
NP 2792 1485 m 2923 1617 l
S
0.565647 G
NP 1920 1614 m 1838 1617 l
S
0.559804 G
NP 1706 1560 m 1838 1617 l
S
0.585804 G
NP 4975 1565 m 4893 1618 l
S
0.572588 G
NP 5024 1606 m 4893 1618 l
S
0.542745 G
NP 1624 1574 m 1755 1624 l
S
0.545843 G
NP 1838 1617 m 1755 1624 l
S
0.488667 G
NP 1033 1592 m 1164 1625 l
S
0.493647 G
NP 1246 1597 m 1164 1625 l
S
0.732039 G
NP 3219 1490 m 3136 1626 l
S
0.72749 G
NP 3005 1505 m 3136 1626 l
S
0.49749 G
NP 1246 1597 m 1377 1633 l
S
0.502471 G
NP 1460 1610 m 1377 1633 l
S
0.525686 G
NP 1542 1591 m 1673 1635 l
S
0.528784 G
NP 1755 1624 m 1673 1635 l
S
0.693647 G
NP 2496 1502 m 2627 1638 l
S
0.698353 G
NP 2709 1569 m 2627 1638 l
S
0.582118 G
NP 4893 1618 m 4761 1639 l
S
0.59651 G
NP 4844 1581 m 4761 1639 l
S
0.656549 G
NP 4532 1599 m 4401 1641 l
S
0.66702 G
NP 4483 1534 m 4401 1641 l
S
0.617804 G
NP 4712 1607 m 4581 1643 l
S
0.631765 G
NP 4663 1564 m 4581 1643 l
S
0.549098 G
NP 5155 1602 m 5073 1648 l
S
0.506314 G
NP 1460 1610 m 1591 1650 l
S
0.511725 G
NP 1673 1635 m 1591 1650 l
S
0.558196 G
NP 5024 1606 m 4942 1654 l
S
0.547294 G
NP 5073 1648 m 4942 1654 l
S
0.485843 G
NP 1377 1633 m 1295 1658 l
S
0.480863 G
NP 1164 1625 m 1295 1658 l
S
0.567725 G
NP 4893 1618 m 4810 1669 l
S
0.556824 G
NP 4942 1654 m 4810 1669 l
S
0.489686 G
NP 1377 1633 m 1509 1669 l
S
0.494667 G
NP 1591 1650 m 1509 1669 l
S
0.592078 G
NP 4761 1639 m 4630 1672 l
S
0.606471 G
NP 4712 1607 m 4630 1672 l
S
0.73051 G
NP 3350 1587 m 3481 1676 l
S
0.732627 G
NP 3564 1509 m 3481 1676 l
S
0.534196 G
NP 1755 1624 m 1887 1677 l
S
0.538471 G
NP 1887 1677 m 1969 1679 l
S
0.551686 G
NP 1838 1617 m 1969 1679 l
S
0.516706 G
NP 1673 1635 m 1805 1681 l
S
0.521412 G
NP 1887 1677 m 1805 1681 l
S
0.569176 G
NP 1920 1614 m 2051 1686 l
S
0.558706 G
NP 1969 1679 m 2051 1686 l
S
0.682588 G
NP 2627 1638 m 2545 1688 l
S
0.675137 G
NP 2413 1549 m 2545 1688 l
S
0.666941 G
NP 4401 1641 m 4269 1689 l
S
0.678588 G
NP 4352 1563 m 4269 1689 l
S
0.532902 G
NP 5073 1648 m 4991 1691 l
S
0.497333 G
NP 1591 1650 m 1722 1691 l
S
0.503922 G
NP 1805 1681 m 1722 1691 l
S
0.473059 G
NP 1295 1658 m 1427 1692 l
S
0.478039 G
NP 1509 1669 m 1427 1692 l
S
0.629373 G
NP 4581 1643 m 4450 1692 l
S
0.642157 G
NP 4532 1599 m 4450 1692 l
S
0.566353 G
NP 4810 1669 m 4679 1694 l
S
0.578431 G
NP 4761 1639 m 4679 1694 l
S
0.586667 G
NP 2002 1613 m 2134 1697 l
S
0.576196 G
NP 2051 1686 m 2134 1697 l
S
0.542 G
NP 4942 1654 m 4860 1698 l
S
0.531098 G
NP 4991 1691 m 4860 1698 l
S
0.486863 G
NP 1722 1691 m 1640 1706 l
S
0.480706 G
NP 1509 1669 m 1640 1706 l
S
0.594118 G
NP 2134 1697 m 2216 1711 l
S
0.606902 G
NP 2084 1613 m 2216 1711 l
S
0.540627 G
NP 4860 1698 m 4728 1715 l
S
0.551529 G
NP 4810 1669 m 4728 1715 l
S
0.658941 G
NP 2331 1581 m 2463 1717 l
S
0.666392 G
NP 2545 1688 m 2463 1717 l
S
0.616863 G
NP 4581 1643 m 4499 1720 l
S
0.602471 G
NP 4630 1672 m 4499 1720 l
S
0.708902 G
NP 2923 1617 m 2841 1720 l
S
0.704196 G
NP 2709 1569 m 2841 1720 l
S
0.612039 G
NP 2216 1711 m 2298 1723 l
S
0.624392 G
NP 2167 1610 m 2298 1723 l
S
0.469804 G
NP 1640 1706 m 1558 1726 l
S
0.463647 G
NP 1427 1692 m 1558 1726 l
S
0.629961 G
NP 2298 1723 m 2380 1727 l
S
0.649765 G
NP 2463 1717 m 2380 1727 l
S
0.641882 G
NP 2249 1600 m 2380 1727 l
S
0.509333 G
NP 1805 1681 m 1936 1728 l
S
0.526824 G
NP 1887 1677 m 2018 1731 l
S
0.513608 G
NP 1936 1728 m 2018 1731 l
S
0.516706 G
NP 4991 1691 m 4909 1732 l
S
0.496118 G
NP 1936 1728 m 1854 1732 l
S
0.489961 G
NP 1722 1691 m 1854 1732 l
S
0.576314 G
NP 4679 1694 m 4548 1733 l
S
0.588824 G
NP 4630 1672 m 4548 1733 l
S
0.677765 G
NP 4269 1689 m 4138 1736 l
S
0.688549 G
NP 4220 1590 m 4138 1736 l
S
0.512588 G
NP 4909 1732 m 4777 1740 l
S
0.526235 G
NP 4860 1698 m 4777 1740 l
S
0.544314 G
NP 1969 1679 m 2100 1742 l
S
0.531529 G
NP 2018 1731 m 2100 1742 l
S
0.479059 G
NP 1854 1732 m 1771 1743 l
S
0.472902 G
NP 1640 1706 m 1771 1743 l
S
0.550588 G
NP 4728 1715 m 4597 1744 l
S
0.562667 G
NP 4679 1694 m 4597 1744 l
S
0.724 G
NP 3481 1676 m 3613 1746 l
S
0.725686 G
NP 3695 1564 m 3613 1746 l
S
0.722706 G
NP 3136 1626 m 3268 1752 l
S
0.726824 G
NP 3350 1587 m 3268 1752 l
S
0.640196 G
NP 4450 1692 m 4318 1753 l
S
0.65298 G
NP 4401 1641 m 4318 1753 l
S
0.522118 G
NP 4777 1740 m 4646 1757 l
S
0.535765 G
NP 4728 1715 m 4646 1757 l
S
0.455843 G
NP 1558 1726 m 1689 1760 l
S
0.462 G
NP 1771 1743 m 1689 1760 l
S
0.562235 G
NP 2051 1686 m 2183 1762 l
S
0.551765 G
NP 2100 1742 m 2183 1762 l
S
0.719294 G
NP 3136 1626 m 3054 1767 l
S
0.714314 G
NP 2923 1617 m 3054 1767 l
S
0.50051 G
NP 4909 1732 m 4826 1770 l
S
0.482157 G
NP 1854 1732 m 1985 1772 l
S
0.501961 G
NP 1936 1728 m 2067 1774 l
S
0.487569 G
NP 1985 1772 m 2067 1774 l
S
0.69851 G
NP 4089 1609 m 4007 1775 l
S
0.688157 G
NP 4138 1736 m 4007 1775 l
S
0.510039 G
NP 4777 1740 m 4695 1778 l
S
0.496392 G
NP 4826 1770 m 4695 1778 l
S
0.464667 G
NP 1771 1743 m 1903 1779 l
S
0.470078 G
NP 1985 1772 m 1903 1779 l
S
0.614471 G
NP 4499 1720 m 4367 1783 l
S
0.627686 G
NP 4450 1692 m 4367 1783 l
S
0.519451 G
NP 2018 1731 m 2149 1784 l
S
0.505059 G
NP 2067 1774 m 2149 1784 l
S
0.546902 G
NP 4597 1744 m 4515 1787 l
S
0.532078 G
NP 4646 1757 m 4515 1787 l
S
0.716627 G
NP 3613 1746 m 3744 1787 l
S
0.716706 G
NP 3826 1599 m 3744 1787 l
S
0.560549 G
NP 4597 1744 m 4466 1787 l
S
0.573059 G
NP 4548 1733 m 4466 1787 l
S
0.580588 G
NP 2134 1697 m 2265 1789 l
S
0.570118 G
NP 2183 1762 m 2265 1789 l
S
0.587137 G
NP 4548 1733 m 4417 1790 l
S
0.599647 G
NP 4499 1720 m 4417 1790 l
S
0.448039 G
NP 1689 1760 m 1820 1793 l
S
0.45302 G
NP 1903 1779 m 1820 1793 l
S
0.519569 G
NP 4646 1757 m 4564 1794 l
S
0.505922 G
NP 4695 1778 m 4564 1794 l
S
0.708039 G
NP 3958 1614 m 3875 1795 l
S
0.699294 G
NP 4007 1775 m 3875 1795 l
S
0.708392 G
NP 3744 1787 m 3875 1795 l
S
0.694431 G
NP 2841 1720 m 2758 1805 l
S
0.689294 G
NP 2627 1638 m 2758 1805 l
S
0.484314 G
NP 4826 1770 m 4744 1806 l
S
0.523412 G
NP 2149 1784 m 2232 1806 l
S
0.537373 G
NP 2100 1742 m 2232 1806 l
S
0.474353 G
NP 1985 1772 m 2116 1811 l
S
0.480196 G
NP 4744 1806 m 4613 1812 l
S
0.493412 G
NP 4695 1778 m 4613 1812 l
S
0.462275 G
NP 2116 1811 m 2034 1814 l
S
0.456863 G
NP 1903 1779 m 2034 1814 l
S
0.479765 G
NP 2116 1811 m 2199 1817 l
S
0.494157 G
NP 2067 1774 m 2199 1817 l
S
0.588471 G
NP 2265 1789 m 2347 1822 l
S
0.601255 G
NP 2216 1711 m 2347 1822 l
S
0.515882 G
NP 4564 1794 m 4432 1823 l
S
0.530706 G
NP 4515 1787 m 4432 1823 l
S
0.439804 G
NP 1820 1793 m 1952 1825 l
S
0.444784 G
NP 2034 1814 m 1952 1825 l
S
0.66498 G
NP 4269 1689 m 4187 1825 l
S
0.65102 G
NP 4318 1753 m 4187 1825 l
S
0.502941 G
NP 4564 1794 m 4482 1827 l
S
0.489726 G
NP 4613 1812 m 4482 1827 l
S
0.542471 G
NP 4515 1787 m 4383 1832 l
S
0.557294 G
NP 4466 1787 m 4383 1832 l
S
0.497686 G
NP 2199 1817 m 2280 1835 l
S
0.555726 G
NP 2183 1762 m 2314 1840 l
S
0.544078 G
NP 2232 1806 m 2314 1840 l
S
0.465804 G
NP 4744 1806 m 4662 1840 l
S
0.474902 G
NP 4613 1812 m 4531 1844 l
S
0.463569 G
NP 4662 1840 m 4531 1844 l
S
0.465373 G
NP 2116 1811 m 2248 1846 l
S
0.447882 G
NP 2034 1814 m 2165 1846 l
S
0.454471 G
NP 2248 1846 m 2165 1846 l
S
0.584314 G
NP 4417 1790 m 4334 1849 l
S
0.571373 G
NP 4466 1787 m 4334 1849 l
S
0.499255 G
NP 4482 1827 m 4350 1853 l
S
0.514078 G
NP 4432 1823 m 4350 1853 l
S
0.525843 G
NP 4432 1823 m 4337 1855 l
S
0.619177 G
NP 2298 1723 m 2429 1855 l
S
0.607255 G
NP 2347 1822 m 2429 1855 l
S
0.430824 G
NP 1952 1825 m 2083 1855 l
S
0.43698 G
NP 2165 1846 m 2083 1855 l
S
0.484431 G
NP 4482 1827 m 4399 1856 l
S
0.473098 G
NP 4531 1844 m 4399 1856 l
S
0.485176 G
NP 2199 1817 m 2330 1857 l
S
0.471961 G
NP 2248 1846 m 2330 1857 l
S
0.489882 G
NP 2330 1857 m 2331 1858 l
S
0.509216 G
NP 4350 1853 m 4325 1860 l
S
0.495137 G
NP 4350 1853 m 4325 1860 l
S
0.671216 G
NP 2545 1688 m 2676 1861 l
S
0.679098 G
NP 2758 1805 m 2676 1861 l
S
0.625726 G
NP 4367 1783 m 4236 1865 l
S
0.639373 G
NP 4318 1753 m 4236 1865 l
S
0.610902 G
NP 4367 1783 m 4285 1867 l
S
0.599569 G
NP 4417 1790 m 4285 1867 l
S
0.716314 G
NP 3268 1752 m 3399 1871 l
S
0.721177 G
NP 3481 1676 m 3399 1871 l
S
0.482627 G
NP 4399 1856 m 4301 1872 l
S
0.449176 G
NP 4662 1840 m 4580 1873 l
S
0.553294 G
NP 4383 1832 m 4297 1874 l
S
0.458275 G
NP 4531 1844 m 4448 1874 l
S
0.447373 G
NP 4580 1873 m 4448 1874 l
S
0.457137 G
NP 2248 1846 m 2364 1875 l
S
0.439647 G
NP 2165 1846 m 2297 1876 l
S
0.446235 G
NP 2297 1876 m 2370 1878 l
S
0.637098 G
NP 2380 1727 m 2512 1879 l
S
0.625608 G
NP 2429 1855 m 2512 1879 l
S
0.456471 G
NP 4448 1874 m 4317 1882 l
S
0.467804 G
NP 4399 1856 m 4317 1882 l
S
0.422588 G
NP 2083 1855 m 2214 1883 l
S
0.428745 G
NP 2297 1876 m 2214 1883 l
S
0.654588 G
NP 2463 1717 m 2594 1884 l
S
0.662902 G
NP 2676 1861 m 2594 1884 l
S
0.645843 G
NP 2512 1879 m 2594 1884 l
S
0.57451 G
NP 2265 1789 m 2396 1887 l
S
0.562863 G
NP 2314 1840 m 2396 1887 l
S
0.466 G
NP 4317 1882 m 4277 1887 l
S
0.431843 G
NP 2297 1876 m 2398 1897 l
S
0.451176 G
NP 4317 1882 m 4258 1900 l
S
0.700706 G
NP 2841 1720 m 2972 1901 l
S
0.703804 G
NP 3054 1767 m 2972 1901 l
S
0.662706 G
NP 4187 1825 m 4056 1901 l
S
0.676235 G
NP 4138 1736 m 4056 1901 l
S
0.441647 G
NP 4448 1874 m 4366 1903 l
S
0.43298 G
NP 4580 1873 m 4497 1904 l
S
0.428431 G
NP 4366 1903 m 4497 1904 l
S
0.437529 G
NP 4366 1903 m 4248 1906 l
S
0.414353 G
NP 2214 1883 m 2346 1909 l
S
0.419333 G
NP 2409 1904 m 2346 1909 l
S
0.406118 G
NP 2346 1909 m 2443 1927 l
S
0.584235 G
NP 4334 1849 m 4214 1929 l
S
0.420902 G
NP 4213 1930 m 4284 1930 l
S
0.425451 G
NP 4366 1903 m 4284 1930 l
S
0.714941 G
NP 3268 1752 m 3185 1931 l
S
0.710392 G
NP 3054 1767 m 3185 1931 l
S
0.411804 G
NP 4284 1930 m 4415 1935 l
S
0.416353 G
NP 4497 1904 m 4415 1935 l
S
0.581647 G
NP 2396 1887 m 2478 1943 l
S
0.595608 G
NP 2347 1822 m 2478 1943 l
S
0.408824 G
NP 4284 1930 m 4202 1958 l
S
0.404275 G
NP 4182 1957 m 4202 1958 l
S
0.714667 G
NP 3613 1746 m 3530 1965 l
S
0.710667 G
NP 3399 1871 m 3530 1965 l
S
0.395608 G
NP 4202 1958 m 4333 1965 l
S
0.399725 G
NP 4415 1935 m 4333 1965 l
S
0.637843 G
NP 4236 1865 m 4105 1965 l
S
0.652235 G
NP 4187 1825 m 4105 1965 l
S
0.62302 G
NP 4236 1865 m 4154 1969 l
S
0.611255 G
NP 4285 1867 m 4154 1969 l
S
0.389882 G
NP 4202 1958 m 4168 1969 l
S
0.687059 G
NP 4007 1775 m 3924 1970 l
S
0.673961 G
NP 4056 1901 m 3924 1970 l
S
0.37898 G
NP 4147 1988 m 4251 1996 l
S
0.381216 G
NP 4333 1965 m 4251 1996 l
S
0.614824 G
NP 2429 1855 m 2561 2005 l
S
0.601294 G
NP 2478 1943 m 2561 2005 l
S
0.686235 G
NP 2758 1805 m 2890 2010 l
S
0.690196 G
NP 2972 1901 m 2890 2010 l
S
0.69702 G
NP 3875 1795 m 3793 2015 l
S
0.685961 G
NP 3924 1970 m 3793 2015 l
S
0.706118 G
NP 3744 1787 m 3662 2016 l
S
0.695922 G
NP 3793 2015 m 3662 2016 l
S
0.704157 G
NP 3530 1965 m 3662 2016 l
S
0.364588 G
NP 4251 1996 m 4168 2027 l
S
0.362353 G
NP 4108 2021 m 4168 2027 l
S
0.347961 G
NP 4168 2027 m 4086 2059 l
S
0.343412 G
NP 4075 2058 m 4086 2059 l
S
0.62051 G
NP 2561 2005 m 2643 2059 l
S
0.633608 G
NP 2512 1879 m 2643 2059 l
S
0.331765 G
NP 4086 2059 m 4066 2067 l
S
0.675726 G
NP 2890 2010 m 2807 2075 l
S
0.668588 G
NP 2676 1861 m 2807 2075 l
S
0.664353 G
NP 4056 1901 m 3973 2080 l
S
0.650392 G
NP 4105 1965 m 3973 2080 l
S
0.641608 G
NP 2643 2059 m 2725 2089 l
S
0.651529 G
NP 2594 1884 m 2725 2089 l
S
0.659529 G
NP 2807 2075 m 2725 2089 l
S
0.710588 G
NP 3399 1871 m 3317 2095 l
S
0.705294 G
NP 3185 1931 m 3317 2095 l
S
0.636745 G
NP 4105 1965 m 4023 2099 l
S
0.624235 G
NP 4154 1969 m 4023 2099 l
S
0.700745 G
NP 3185 1931 m 3103 2110 l
S
0.698078 G
NP 2972 1901 m 3103 2110 l
S
0.610902 G
NP 2561 2005 m 2692 2169 l
S
0.662941 G
NP 3973 2080 m 3842 2194 l
S
0.676471 G
NP 3924 1970 m 3842 2194 l
S
0.705373 G
NP 3530 1965 m 3448 2231 l
S
0.701373 G
NP 3317 2095 m 3448 2231 l
S
0.650157 G
NP 3973 2080 m 3891 2259 l
S
0.638078 G
NP 4023 2099 m 3891 2259 l
S
0.684902 G
NP 2890 2010 m 3021 2260 l
S
0.688863 G
NP 3103 2110 m 3021 2260 l
S
0.63098 G
NP 2643 2059 m 2774 2268 l
S
0.617451 G
NP 2692 2169 m 2774 2268 l
S
0.676667 G
NP 3842 2194 m 3711 2280 l
S
0.687725 G
NP 3793 2015 m 3711 2280 l
S
0.695726 G
NP 3448 2231 m 3579 2299 l
S
0.696824 G
NP 3662 2016 m 3579 2299 l
S
0.68749 G
NP 3711 2280 m 3579 2299 l
S
0.694706 G
NP 3103 2110 m 3235 2337 l
S
0.698118 G
NP 3317 2095 m 3235 2337 l
S
0.640275 G
NP 2774 2268 m 2857 2340 l
S
0.650196 G
NP 2725 2089 m 2857 2340 l
S
0.659059 G
NP 2857 2340 m 2939 2344 l
S
0.675255 G
NP 3021 2260 m 2939 2344 l
S
0.667255 G
NP 2807 2075 m 2939 2344 l
S
0.652353 G
NP 3891 2259 m 3760 2437 l
S
0.664 G
NP 3842 2194 m 3760 2437 l
S
0.694627 G
NP 3448 2231 m 3366 2546 l
S
0.692941 G
NP 3235 2337 m 3366 2546 l
S
0.688392 G
NP 3235 2337 m 3152 2561 l
S
0.683255 G
NP 3021 2260 m 3152 2561 l
S
0.67698 G
NP 3711 2280 m 3629 2595 l
S
0.668235 G
NP 3760 2437 m 3629 2595 l
S
0.648549 G
NP 2857 2340 m 2988 2640 l
S
0.68902 G
NP 3366 2546 m 3497 2652 l
S
0.687373 G
NP 3579 2299 m 3497 2652 l
S
0.680784 G
NP 3629 2595 m 3497 2652 l
S
0.654275 G
NP 3760 2437 m 3678 2660 l
S
0.660314 G
NP 2988 2640 m 3070 2681 l
S
0.67651 G
NP 3152 2561 m 3070 2681 l
S
0.666902 G
NP 2939 2344 m 3070 2681 l
S
0.687922 G
NP 3366 2546 m 3284 2889 l
S
0.68451 G
NP 3152 2561 m 3284 2889 l
S
0.659804 G
NP 3678 2660 m 3546 2939 l
S
0.670275 G
NP 3629 2595 m 3546 2939 l
S
0.649804 G
NP 2988 2640 m 3119 2969 l
S
0.684039 G
NP 3284 2889 m 3415 3093 l
S
0.675804 G
NP 3546 2939 m 3415 3093 l
S
0.682824 G
NP 3497 2652 m 3415 3093 l
S
0.670314 G
NP 3070 2681 m 3201 3107 l
S
0.67949 G
NP 3284 2889 m 3201 3107 l
S
0.663294 G
NP 3119 2969 m 3201 3107 l
S
0.677176 G
NP 3201 3107 m 3333 3648 l
S
0.681726 G
NP 3415 3093 m 3333 3648 l
S
    0 G
medium setlinewidth
NP 5999 1120 m 2720 499 l
S
thin setlinewidth
NP 5946 1077 m 5925 1139 l
S
NP 5836 1072 m 5826 1103 l
S
NP 5731 1052 m 5721 1084 l
S
NP 5626 1033 m 5615 1064 l
S
NP 5521 1013 m 5510 1044 l
S
NP 5421 977 m 5400 1039 l
S
NP 5311 973 m 5300 1004 l
S
NP 5206 953 m 5195 984 l
S
NP 5101 933 m 5090 964 l
S
NP 4996 913 m 4985 944 l
S
NP 4896 878 m 4875 940 l
S
NP 4785 874 m 4775 905 l
S
NP 4680 854 m 4670 885 l
S
NP 4575 834 m 4565 865 l
S
NP 4470 814 m 4460 845 l
S
NP 4370 779 m 4350 841 l
S
NP 4260 774 m 4250 805 l
S
NP 4155 754 m 4145 785 l
S
NP 4050 735 m 4040 766 l
S
NP 3945 715 m 3934 746 l
S
NP 3845 679 m 3824 741 l
S
NP 3735 675 m 3724 706 l
S
NP 3630 655 m 3619 686 l
S
NP 3525 635 m 3514 666 l
S
NP 3420 615 m 3409 646 l
S
NP 3320 580 m 3299 642 l
S
NP 3209 576 m 3199 607 l
S
NP 3104 556 m 3094 587 l
S
NP 2999 536 m 2989 567 l
S
NP 2894 516 m 2884 547 l
S
NP 2794 481 m 2774 543 l
S
medium setlinewidth
NP 666 1490 m 2720 499 l
S
thin setlinewidth
NP 683 1444 m 729 1498 l
S
NP 760 1426 m 783 1452 l
S
NP 826 1394 m 849 1421 l
S
NP 891 1362 m 915 1389 l
S
NP 957 1330 m 980 1357 l
S
NP 1011 1285 m 1058 1339 l
S
NP 1089 1267 m 1112 1294 l
S
NP 1155 1235 m 1178 1262 l
S
NP 1220 1203 m 1243 1230 l
S
NP 1286 1172 m 1309 1199 l
S
NP 1340 1127 m 1387 1180 l
S
NP 1418 1108 m 1441 1135 l
S
NP 1484 1077 m 1507 1103 l
S
NP 1549 1045 m 1572 1072 l
S
NP 1615 1013 m 1638 1040 l
S
NP 1669 968 m 1716 1022 l
S
NP 1747 950 m 1770 977 l
S
NP 1813 918 m 1836 945 l
S
NP 1878 886 m 1901 913 l
S
NP 1944 854 m 1967 881 l
S
NP 1998 809 m 2045 863 l
S
NP 2076 791 m 2099 818 l
S
NP 2142 759 m 2165 786 l
S
NP 2207 728 m 2230 754 l
S
NP 2273 696 m 2296 723 l
S
NP 2327 651 m 2374 704 l
S
NP 2405 632 m 2428 659 l
S
NP 2471 601 m 2494 628 l
S
NP 2536 569 m 2559 596 l
S
NP 2602 537 m 2625 564 l
S
NP 2656 492 m 2703 546 l
S
medium setlinewidth
NP 666 1490 m 666 3879 l
S
thin setlinewidth
NP 709 1502 m 623 1502 l
S
NP 687 1595 m 645 1595 l
S
NP 687 1689 m 645 1689 l
S
NP 687 1782 m 645 1782 l
S
NP 687 1875 m 645 1875 l
S
NP 709 1968 m 623 1968 l
S
NP 687 2061 m 645 2061 l
S
NP 687 2155 m 645 2155 l
S
NP 687 2248 m 645 2248 l
S
NP 687 2341 m 645 2341 l
S
NP 709 2434 m 623 2434 l
S
NP 687 2528 m 645 2528 l
S
NP 687 2621 m 645 2621 l
S
NP 687 2714 m 645 2714 l
S
NP 687 2807 m 645 2807 l
S
NP 709 2900 m 623 2900 l
S
NP 687 2994 m 645 2994 l
S
NP 687 3087 m 645 3087 l
S
NP 687 3180 m 645 3180 l
S
NP 687 3273 m 645 3273 l
S
NP 709 3366 m 623 3366 l
S
NP 687 3460 m 645 3460 l
S
NP 687 3553 m 645 3553 l
S
NP 687 3646 m 645 3646 l
S
NP 687 3739 m 645 3739 l
S
NP 709 3832 m 623 3832 l
S
medium setlinewidth
NP 3945 4500 m 5999 3509 l
2720 2889 l
S
NP 666 3879 m 2720 2889 l
S
NP 3945 4500 m 666 3879 l
S
NP 5999 1120 m 5999 3509 l
S
NP 2720 499 m 2720 2889 l
S
medium setlinewidth
/Courier findfont 115 scalefont setfont
(-3) dup stringbbox 1077 exch sub exch pop 5946 exch m show
(-2) dup stringbbox 977 exch sub exch pop 5421 exch m show
(-1) dup stringbbox 878 exch sub exch pop 4896 exch m show
(0) dup stringbbox 779 exch sub exch pop 4370 exch m show
(1) dup stringbbox 679 exch sub exch pop 3845 exch m show
(2) dup stringbbox 580 exch sub exch pop 3320 exch m show
(3) dup stringbbox 481 exch sub exch pop 2794 exch m show
(x) dup stringbbox 706 exch sub exch pop 4397 exch m show
(-3) dup stringbbox 1444 exch sub exch 683 exch sub exch m show
(-2) dup stringbbox 1285 exch sub exch 1011 exch sub exch m show
(-1) dup stringbbox 1127 exch sub exch 1340 exch sub exch m show
(0) dup stringbbox 968 exch sub exch 1669 exch sub exch m show
(1) dup stringbbox 809 exch sub exch 1998 exch sub exch m show
(2) dup stringbbox 651 exch sub exch 2327 exch sub exch m show
(3) dup stringbbox 492 exch sub exch 2656 exch sub exch m show
(y) dup stringbbox 905 exch sub exch 1609 exch sub exch m show
(0) dup stringbbox 2 idiv 1502 exch sub exch 623 exch sub exch m show
(0.2) dup stringbbox 2 idiv 1968 exch sub exch 623 exch sub exch m show
(0.4) dup stringbbox 2 idiv 2434 exch sub exch 623 exch sub exch m show
(0.6) dup stringbbox 2 idiv 2900 exch sub exch 623 exch sub exch m show
(0.8) dup stringbbox 2 idiv 3366 exch sub exch 623 exch sub exch m show
(1) dup stringbbox 2 idiv 3832 exch sub exch 623 exch sub exch m show
(psi) dup stringbbox 2 idiv 2685 exch sub exch 511 exch sub exch m show
boundarythick setlinewidth
%%%% The following draws a box around the plot.
/bd boundarythick 2 idiv def
[] 0 setdash 
NP bd bd m bd 5000 bd sub l 
6666 bd sub 5000 bd sub l 
6666 bd sub bd l 
bd bd l S

showpage
grestore
end
%%Trailer
%%EOF
