#FIG 3.2
Landscape
Center
Inches
Letter  
100.00
Single
-2
1200 2
6 3900 600 5400 2100
1 3 0 1 0 0 100 0 20 0.000 1 0.0000 4200 1800 75 75 4200 1800 4275 1800
1 3 0 1 0 0 100 0 9 0.000 1 0.0000 4575 1290 75 75 4575 1290 4650 1290
1 3 0 1 0 0 100 0 9 0.000 1 0.0000 4927 1642 75 75 4927 1642 5002 1642
2 2 0 1 0 7 100 0 -1 0.000 0 0 -1 0 0 5
	 3900 600 5400 600 5400 2100 3900 2100 3900 600
2 1 0 2 0 7 100 0 -1 0.000 0 0 -1 1 0 2
	0 0 2.00 75.00 120.00
	 4220 1756 4520 1381
2 1 0 1 0 0 100 0 12 0.000 0 0 -1 1 0 2
	3 0 2.00 60.00 120.00
	 4672 1342 4875 1575
2 1 0 1 0 0 100 0 12 0.000 0 0 -1 1 0 2
	3 0 2.00 60.00 120.00
	 4423 1712 4626 1945
2 1 0 1 0 0 100 0 12 0.000 0 0 -1 1 0 2
	3 0 2.00 60.00 120.00
	 4694 1739 4897 1972
2 1 0 1 0 0 100 0 12 0.000 0 0 -1 1 0 2
	3 0 2.00 60.00 120.00
	 4882 1177 5085 1410
2 1 0 1 0 0 100 0 12 0.000 0 0 -1 1 0 2
	3 0 2.00 60.00 120.00
	 4034 952 4237 1185
2 1 0 1 0 0 100 0 12 0.000 0 0 -1 1 0 2
	3 0 2.00 60.00 120.00
	 4289 682 4492 915
2 1 0 1 0 0 100 0 12 0.000 0 0 -1 1 0 2
	3 0 2.00 60.00 120.00
	 4822 674 5025 907
2 1 0 1 0 0 100 0 12 0.000 0 0 -1 1 0 2
	3 0 2.00 60.00 120.00
	 5092 982 5295 1215
2 1 0 1 0 0 100 0 12 0.000 0 0 -1 1 0 2
	3 0 2.00 60.00 120.00
	 5084 1702 5287 1935
2 1 0 1 0 0 100 0 12 0.000 0 0 -1 1 0 2
	3 0 2.00 60.00 120.00
	 3952 1304 4155 1537
2 1 0 1 0 0 100 0 12 0.000 0 0 -1 1 0 2
	3 0 2.00 60.00 120.00
	 4559 794 4762 1027
-6
1 3 0 1 0 0 100 0 20 0.000 1 0.0000 1050 1350 75 75 1050 1350 1125 1350
1 3 0 1 0 0 100 0 9 0.000 1 0.0000 1425 900 75 75 1425 900 1500 900
1 3 0 1 0 0 100 0 20 0.000 1 0.0000 2400 1800 75 75 2400 1800 2475 1800
1 3 0 1 0 0 100 0 20 0.000 1 0.0000 2775 1290 75 75 2775 1290 2850 1290
1 3 0 1 0 0 100 0 20 0.000 1 0.0000 3127 1642 75 75 3127 1642 3202 1642
1 3 0 1 0 0 100 0 9 0.000 1 0.0000 375 2850 75 75 375 2850 450 2850
1 3 0 1 0 0 100 0 20 0.000 1 0.0000 375 2475 75 75 375 2475 450 2475
2 2 0 1 0 7 100 0 -1 0.000 0 0 -1 0 0 5
	 300 600 1800 600 1800 2100 300 2100 300 600
2 1 0 1 0 7 100 0 -1 0.000 0 0 -1 0 0 1
	 1275 1050
2 1 0 2 0 7 100 0 -1 0.000 0 0 -1 1 0 2
	0 0 2.00 75.00 120.00
	 1050 1350 1350 975
2 2 0 1 0 7 100 0 -1 0.000 0 0 -1 0 0 5
	 2100 600 3600 600 3600 2100 2100 2100 2100 600
2 1 0 2 0 7 100 0 -1 0.000 0 0 -1 1 0 2
	0 0 2.00 75.00 120.00
	 2420 1756 2720 1381
2 1 0 1 0 0 100 0 12 0.000 0 0 -1 1 0 2
	3 0 2.00 60.00 120.00
	 2872 1342 3075 1575
2 1 0 1 0 0 100 0 12 0.000 0 0 -1 1 0 2
	3 0 2.00 60.00 120.00
	 2623 1712 2826 1945
2 1 0 1 0 0 100 0 12 0.000 0 0 -1 1 0 2
	3 0 2.00 60.00 120.00
	 2894 1739 3097 1972
2 1 0 1 0 0 100 0 12 0.000 0 0 -1 1 0 2
	3 0 2.00 60.00 120.00
	 3082 1177 3285 1410
2 1 0 1 0 0 100 0 12 0.000 0 0 -1 1 0 2
	3 0 2.00 60.00 120.00
	 2234 952 2437 1185
2 1 0 1 0 0 100 0 12 0.000 0 0 -1 1 0 2
	3 0 2.00 60.00 120.00
	 2489 682 2692 915
2 1 0 1 0 0 100 0 12 0.000 0 0 -1 1 0 2
	3 0 2.00 60.00 120.00
	 3022 674 3225 907
2 1 0 1 0 0 100 0 12 0.000 0 0 -1 1 0 2
	3 0 2.00 60.00 120.00
	 3292 982 3495 1215
2 1 0 1 0 0 100 0 12 0.000 0 0 -1 1 0 2
	3 0 2.00 60.00 120.00
	 3284 1702 3487 1935
2 1 0 1 0 0 100 0 12 0.000 0 0 -1 1 0 2
	3 0 2.00 60.00 120.00
	 2152 1304 2355 1537
2 1 0 1 0 0 100 0 12 0.000 0 0 -1 1 0 2
	3 0 2.00 60.00 120.00
	 2759 794 2962 1027
2 4 0 1 0 7 100 0 -1 0.000 0 0 7 0 0 5
	 5475 3000 5475 2250 225 2250 225 3000 5475 3000
2 1 0 1 0 0 100 0 12 0.000 0 0 -1 1 0 2
	3 0 2.00 60.00 120.00
	 3503 2728 3706 2961
2 1 0 2 0 7 100 0 -1 0.000 0 0 -1 1 0 2
	0 0 2.00 75.00 120.00
	 3375 2700 3675 2325
2 1 0 1 0 7 100 0 -1 0.000 0 0 -1 0 0 2
	 885 2460 900 2445
2 1 0 1 0 7 100 0 -1 0.000 0 0 -1 0 0 2
	 877 2752 900 2745
2 1 0 1 0 7 100 0 -1 0.000 0 0 -1 0 0 2
	 892 2467 915 2437
2 1 0 1 0 7 100 0 -1 0.000 0 0 -1 0 0 2
	 870 2745 907 2730
4 0 0 100 0 4 8 0.0000 0 120 3420 300 525  Variacional Metropolis                   Variacional Fokker-Planck   \001
4 1 0 100 0 4 8 0.0000 0 120 930 4650 540 y Fokker-Planck\001
4 0 0 100 0 4 8 0.0000 0 105 1200 525 2850 Posicion Condicional\001
4 0 0 100 0 4 8 0.0000 0 135 690 525 2550 Posicion fija\001
4 0 0 100 0 4 8 0.0000 0 105 915 3825 2550 Vector  aleatorio\001
4 0 0 100 0 4 8 0.0000 0 105 990 3825 2850 Vector de arrastre\001
4 1 0 100 0 4 8 0.0000 0 120 1245 4650 375 Variacional Metropolis\001
