%!PS-Adobe-2.0 EPSF-2.0
%%Title: vmc.eps
%%Creator: fig2dev Version 3.2 Patchlevel 1
%%CreationDate: Sat May  1 17:27:17 1999
%%For: aspuru@oxido (Alan Aspuru Guzik)
%%Orientation: Portrait
%%BoundingBox: 0 0 318 165
%%Pages: 0
%%BeginSetup
%%EndSetup
%%Magnification: 1.0000
%%EndComments
/$F2psDict 200 dict def
$F2psDict begin
$F2psDict /mtrx matrix put
/col-1 {0 setgray} bind def
/col0 {0.000 0.000 0.000 srgb} bind def
/col1 {0.000 0.000 1.000 srgb} bind def
/col2 {0.000 1.000 0.000 srgb} bind def
/col3 {0.000 1.000 1.000 srgb} bind def
/col4 {1.000 0.000 0.000 srgb} bind def
/col5 {1.000 0.000 1.000 srgb} bind def
/col6 {1.000 1.000 0.000 srgb} bind def
/col7 {1.000 1.000 1.000 srgb} bind def
/col8 {0.000 0.000 0.560 srgb} bind def
/col9 {0.000 0.000 0.690 srgb} bind def
/col10 {0.000 0.000 0.820 srgb} bind def
/col11 {0.530 0.810 1.000 srgb} bind def
/col12 {0.000 0.560 0.000 srgb} bind def
/col13 {0.000 0.690 0.000 srgb} bind def
/col14 {0.000 0.820 0.000 srgb} bind def
/col15 {0.000 0.560 0.560 srgb} bind def
/col16 {0.000 0.690 0.690 srgb} bind def
/col17 {0.000 0.820 0.820 srgb} bind def
/col18 {0.560 0.000 0.000 srgb} bind def
/col19 {0.690 0.000 0.000 srgb} bind def
/col20 {0.820 0.000 0.000 srgb} bind def
/col21 {0.560 0.000 0.560 srgb} bind def
/col22 {0.690 0.000 0.690 srgb} bind def
/col23 {0.820 0.000 0.820 srgb} bind def
/col24 {0.500 0.190 0.000 srgb} bind def
/col25 {0.630 0.250 0.000 srgb} bind def
/col26 {0.750 0.380 0.000 srgb} bind def
/col27 {1.000 0.500 0.500 srgb} bind def
/col28 {1.000 0.630 0.630 srgb} bind def
/col29 {1.000 0.750 0.750 srgb} bind def
/col30 {1.000 0.880 0.880 srgb} bind def
/col31 {1.000 0.840 0.000 srgb} bind def

end
save
-12.0 181.0 translate
1 -1 scale

/cp {closepath} bind def
/ef {eofill} bind def
/gr {grestore} bind def
/gs {gsave} bind def
/sa {save} bind def
/rs {restore} bind def
/l {lineto} bind def
/m {moveto} bind def
/rm {rmoveto} bind def
/n {newpath} bind def
/s {stroke} bind def
/sh {show} bind def
/slc {setlinecap} bind def
/slj {setlinejoin} bind def
/slw {setlinewidth} bind def
/srgb {setrgbcolor} bind def
/rot {rotate} bind def
/sc {scale} bind def
/sd {setdash} bind def
/ff {findfont} bind def
/sf {setfont} bind def
/scf {scalefont} bind def
/sw {stringwidth} bind def
/tr {translate} bind def
/tnt {dup dup currentrgbcolor
  4 -2 roll dup 1 exch sub 3 -1 roll mul add
  4 -2 roll dup 1 exch sub 3 -1 roll mul add
  4 -2 roll dup 1 exch sub 3 -1 roll mul add srgb}
  bind def
/shd {dup dup currentrgbcolor 4 -2 roll mul 4 -2 roll mul
  4 -2 roll mul srgb} bind def
/reencdict 12 dict def /ReEncode { reencdict begin
/newcodesandnames exch def /newfontname exch def /basefontname exch def
/basefontdict basefontname findfont def /newfont basefontdict maxlength dict def
basefontdict { exch dup /FID ne { dup /Encoding eq
{ exch dup length array copy newfont 3 1 roll put }
{ exch newfont 3 1 roll put } ifelse } { pop pop } ifelse } forall
newfont /FontName newfontname put newcodesandnames aload pop
128 1 255 { newfont /Encoding get exch /.notdef put } for
newcodesandnames length 2 idiv { newfont /Encoding get 3 1 roll put } repeat
newfontname newfont definefont pop end } def
/isovec [
8#200 /grave 8#201 /acute 8#202 /circumflex 8#203 /tilde
8#204 /macron 8#205 /breve 8#206 /dotaccent 8#207 /dieresis
8#210 /ring 8#211 /cedilla 8#212 /hungarumlaut 8#213 /ogonek 8#214 /caron
8#220 /dotlessi 8#230 /oe 8#231 /OE
8#240 /space 8#241 /exclamdown 8#242 /cent 8#243 /sterling
8#244 /currency 8#245 /yen 8#246 /brokenbar 8#247 /section 8#250 /dieresis
8#251 /copyright 8#252 /ordfeminine 8#253 /guillemotleft 8#254 /logicalnot
8#255 /endash 8#256 /registered 8#257 /macron 8#260 /degree 8#261 /plusminus
8#262 /twosuperior 8#263 /threesuperior 8#264 /acute 8#265 /mu 8#266 /paragraph
8#267 /periodcentered 8#270 /cedilla 8#271 /onesuperior 8#272 /ordmasculine
8#273 /guillemotright 8#274 /onequarter 8#275 /onehalf
8#276 /threequarters 8#277 /questiondown 8#300 /Agrave 8#301 /Aacute
8#302 /Acircumflex 8#303 /Atilde 8#304 /Adieresis 8#305 /Aring
8#306 /AE 8#307 /Ccedilla 8#310 /Egrave 8#311 /Eacute
8#312 /Ecircumflex 8#313 /Edieresis 8#314 /Igrave 8#315 /Iacute
8#316 /Icircumflex 8#317 /Idieresis 8#320 /Eth 8#321 /Ntilde 8#322 /Ograve
8#323 /Oacute 8#324 /Ocircumflex 8#325 /Otilde 8#326 /Odieresis 8#327 /multiply
8#330 /Oslash 8#331 /Ugrave 8#332 /Uacute 8#333 /Ucircumflex
8#334 /Udieresis 8#335 /Yacute 8#336 /Thorn 8#337 /germandbls 8#340 /agrave
8#341 /aacute 8#342 /acircumflex 8#343 /atilde 8#344 /adieresis 8#345 /aring
8#346 /ae 8#347 /ccedilla 8#350 /egrave 8#351 /eacute
8#352 /ecircumflex 8#353 /edieresis 8#354 /igrave 8#355 /iacute
8#356 /icircumflex 8#357 /idieresis 8#360 /eth 8#361 /ntilde 8#362 /ograve
8#363 /oacute 8#364 /ocircumflex 8#365 /otilde 8#366 /odieresis 8#367 /divide
8#370 /oslash 8#371 /ugrave 8#372 /uacute 8#373 /ucircumflex
8#374 /udieresis 8#375 /yacute 8#376 /thorn 8#377 /ydieresis] def
/Helvetica /Helvetica-iso isovec ReEncode
 /DrawEllipse {
	/endangle exch def
	/startangle exch def
	/yrad exch def
	/xrad exch def
	/y exch def
	/x exch def
	/savematrix mtrx currentmatrix def
	x y tr xrad yrad sc 0 0 1 startangle endangle arc
	closepath
	savematrix setmatrix
	} def

/$F2psBegin {$F2psDict begin /$F2psEnteredState save def} def
/$F2psEnd {$F2psEnteredState restore end} def
%%EndProlog

$F2psBegin
10 setmiterlimit
n -1000 4012 m -1000 -1000 l 6487 -1000 l 6487 4012 l cp clip
 0.06000 0.06000 sc
7.500 slw
% Ellipse
n 4200 1800 75 75 0 360 DrawEllipse gs 0.00 setgray ef gr gs col0 s gr

% Ellipse
n 4575 1290 75 75 0 360 DrawEllipse gs 0.55 setgray ef gr gs col0 s gr

% Ellipse
n 4927 1642 75 75 0 360 DrawEllipse gs 0.55 setgray ef gr gs col0 s gr

% Polyline
n 3900 600 m 5400 600 l 5400 2100 l 3900 2100 l cp gs col0 s gr 
% Polyline
15.000 slw
gs  clippath
4400 1471 m 4504 1400 l 4459 1518 l 4568 1381 l 4509 1334 l cp
clip
n 4220 1756 m 4520 1381 l gs col0 s gr gr

% arrowhead
n 4400 1471 m 4504 1400 l 4459 1518 l  col0 s
% Polyline
7.500 slw
gs  clippath
4818 1464 m 4858 1556 l 4773 1503 l 4862 1606 l 4907 1567 l cp
clip
n 4672 1342 m 4875 1575 l gs 0.40 setgray ef gr gs col0 s gr gr

% arrowhead
15.000 slw
n 4818 1464 m 4858 1556 l 4773 1503 l 4780 1466 l 4818 1464 l  cp gs col7 1.00 shd ef gr  col0 s
% Polyline
7.500 slw
gs  clippath
4569 1834 m 4609 1926 l 4524 1873 l 4613 1976 l 4658 1937 l cp
clip
n 4423 1712 m 4626 1945 l gs 0.40 setgray ef gr gs col0 s gr gr

% arrowhead
15.000 slw
n 4569 1834 m 4609 1926 l 4524 1873 l 4531 1836 l 4569 1834 l  cp gs col7 1.00 shd ef gr  col0 s
% Polyline
7.500 slw
gs  clippath
4840 1861 m 4880 1953 l 4795 1900 l 4884 2003 l 4929 1964 l cp
clip
n 4694 1739 m 4897 1972 l gs 0.40 setgray ef gr gs col0 s gr gr

% arrowhead
15.000 slw
n 4840 1861 m 4880 1953 l 4795 1900 l 4802 1863 l 4840 1861 l  cp gs col7 1.00 shd ef gr  col0 s
% Polyline
7.500 slw
gs  clippath
5028 1299 m 5068 1391 l 4983 1338 l 5072 1441 l 5117 1402 l cp
clip
n 4882 1177 m 5085 1410 l gs 0.40 setgray ef gr gs col0 s gr gr

% arrowhead
15.000 slw
n 5028 1299 m 5068 1391 l 4983 1338 l 4990 1301 l 5028 1299 l  cp gs col7 1.00 shd ef gr  col0 s
% Polyline
7.500 slw
gs  clippath
4180 1074 m 4220 1166 l 4135 1113 l 4224 1216 l 4269 1177 l cp
clip
n 4034 952 m 4237 1185 l gs 0.40 setgray ef gr gs col0 s gr gr

% arrowhead
15.000 slw
n 4180 1074 m 4220 1166 l 4135 1113 l 4142 1076 l 4180 1074 l  cp gs col7 1.00 shd ef gr  col0 s
% Polyline
7.500 slw
gs  clippath
4435 804 m 4475 896 l 4390 843 l 4479 946 l 4524 907 l cp
clip
n 4289 682 m 4492 915 l gs 0.40 setgray ef gr gs col0 s gr gr

% arrowhead
15.000 slw
n 4435 804 m 4475 896 l 4390 843 l 4397 806 l 4435 804 l  cp gs col7 1.00 shd ef gr  col0 s
% Polyline
7.500 slw
gs  clippath
4968 796 m 5008 888 l 4923 835 l 5012 938 l 5057 899 l cp
clip
n 4822 674 m 5025 907 l gs 0.40 setgray ef gr gs col0 s gr gr

% arrowhead
15.000 slw
n 4968 796 m 5008 888 l 4923 835 l 4930 798 l 4968 796 l  cp gs col7 1.00 shd ef gr  col0 s
% Polyline
7.500 slw
gs  clippath
5238 1104 m 5278 1196 l 5193 1143 l 5282 1246 l 5327 1207 l cp
clip
n 5092 982 m 5295 1215 l gs 0.40 setgray ef gr gs col0 s gr gr

% arrowhead
15.000 slw
n 5238 1104 m 5278 1196 l 5193 1143 l 5200 1106 l 5238 1104 l  cp gs col7 1.00 shd ef gr  col0 s
% Polyline
7.500 slw
gs  clippath
5230 1824 m 5270 1916 l 5185 1863 l 5274 1966 l 5319 1927 l cp
clip
n 5084 1702 m 5287 1935 l gs 0.40 setgray ef gr gs col0 s gr gr

% arrowhead
15.000 slw
n 5230 1824 m 5270 1916 l 5185 1863 l 5192 1826 l 5230 1824 l  cp gs col7 1.00 shd ef gr  col0 s
% Polyline
7.500 slw
gs  clippath
4098 1426 m 4138 1518 l 4053 1465 l 4142 1568 l 4187 1529 l cp
clip
n 3952 1304 m 4155 1537 l gs 0.40 setgray ef gr gs col0 s gr gr

% arrowhead
15.000 slw
n 4098 1426 m 4138 1518 l 4053 1465 l 4060 1428 l 4098 1426 l  cp gs col7 1.00 shd ef gr  col0 s
% Polyline
7.500 slw
gs  clippath
4705 916 m 4745 1008 l 4660 955 l 4749 1058 l 4794 1019 l cp
clip
n 4559 794 m 4762 1027 l gs 0.40 setgray ef gr gs col0 s gr gr

% arrowhead
15.000 slw
n 4705 916 m 4745 1008 l 4660 955 l 4667 918 l 4705 916 l  cp gs col7 1.00 shd ef gr  col0 s
7.500 slw
% Ellipse
n 1050 1350 75 75 0 360 DrawEllipse gs 0.00 setgray ef gr gs col0 s gr

% Ellipse
n 1425 900 75 75 0 360 DrawEllipse gs 0.55 setgray ef gr gs col0 s gr

% Ellipse
n 2400 1800 75 75 0 360 DrawEllipse gs 0.00 setgray ef gr gs col0 s gr

% Ellipse
n 2775 1290 75 75 0 360 DrawEllipse gs 0.00 setgray ef gr gs col0 s gr

% Ellipse
n 3127 1642 75 75 0 360 DrawEllipse gs 0.00 setgray ef gr gs col0 s gr

% Ellipse
n 375 2850 75 75 0 360 DrawEllipse gs 0.55 setgray ef gr gs col0 s gr

% Ellipse
n 375 2475 75 75 0 360 DrawEllipse gs 0.00 setgray ef gr gs col0 s gr

% Polyline
n 300 600 m 1800 600 l 1800 2100 l 300 2100 l cp gs col0 s gr 
% Polyline
n 1271 1050 m 1279 1050 l gs col0 s gr
% Polyline
15.000 slw
gs  clippath
1230 1065 m 1334 994 l 1289 1112 l 1398 975 l 1339 928 l cp
clip
n 1050 1350 m 1350 975 l gs col0 s gr gr

% arrowhead
n 1230 1065 m 1334 994 l 1289 1112 l  col0 s
% Polyline
7.500 slw
n 2100 600 m 3600 600 l 3600 2100 l 2100 2100 l cp gs col0 s gr 
% Polyline
15.000 slw
gs  clippath
2600 1471 m 2704 1400 l 2659 1518 l 2768 1381 l 2709 1334 l cp
clip
n 2420 1756 m 2720 1381 l gs col0 s gr gr

% arrowhead
n 2600 1471 m 2704 1400 l 2659 1518 l  col0 s
% Polyline
7.500 slw
gs  clippath
3018 1464 m 3058 1556 l 2973 1503 l 3062 1606 l 3107 1567 l cp
clip
n 2872 1342 m 3075 1575 l gs 0.40 setgray ef gr gs col0 s gr gr

% arrowhead
15.000 slw
n 3018 1464 m 3058 1556 l 2973 1503 l 2980 1466 l 3018 1464 l  cp gs col7 1.00 shd ef gr  col0 s
% Polyline
7.500 slw
gs  clippath
2769 1834 m 2809 1926 l 2724 1873 l 2813 1976 l 2858 1937 l cp
clip
n 2623 1712 m 2826 1945 l gs 0.40 setgray ef gr gs col0 s gr gr

% arrowhead
15.000 slw
n 2769 1834 m 2809 1926 l 2724 1873 l 2731 1836 l 2769 1834 l  cp gs col7 1.00 shd ef gr  col0 s
% Polyline
7.500 slw
gs  clippath
3040 1861 m 3080 1953 l 2995 1900 l 3084 2003 l 3129 1964 l cp
clip
n 2894 1739 m 3097 1972 l gs 0.40 setgray ef gr gs col0 s gr gr

% arrowhead
15.000 slw
n 3040 1861 m 3080 1953 l 2995 1900 l 3002 1863 l 3040 1861 l  cp gs col7 1.00 shd ef gr  col0 s
% Polyline
7.500 slw
gs  clippath
3228 1299 m 3268 1391 l 3183 1338 l 3272 1441 l 3317 1402 l cp
clip
n 3082 1177 m 3285 1410 l gs 0.40 setgray ef gr gs col0 s gr gr

% arrowhead
15.000 slw
n 3228 1299 m 3268 1391 l 3183 1338 l 3190 1301 l 3228 1299 l  cp gs col7 1.00 shd ef gr  col0 s
% Polyline
7.500 slw
gs  clippath
2380 1074 m 2420 1166 l 2335 1113 l 2424 1216 l 2469 1177 l cp
clip
n 2234 952 m 2437 1185 l gs 0.40 setgray ef gr gs col0 s gr gr

% arrowhead
15.000 slw
n 2380 1074 m 2420 1166 l 2335 1113 l 2342 1076 l 2380 1074 l  cp gs col7 1.00 shd ef gr  col0 s
% Polyline
7.500 slw
gs  clippath
2635 804 m 2675 896 l 2590 843 l 2679 946 l 2724 907 l cp
clip
n 2489 682 m 2692 915 l gs 0.40 setgray ef gr gs col0 s gr gr

% arrowhead
15.000 slw
n 2635 804 m 2675 896 l 2590 843 l 2597 806 l 2635 804 l  cp gs col7 1.00 shd ef gr  col0 s
% Polyline
7.500 slw
gs  clippath
3168 796 m 3208 888 l 3123 835 l 3212 938 l 3257 899 l cp
clip
n 3022 674 m 3225 907 l gs 0.40 setgray ef gr gs col0 s gr gr

% arrowhead
15.000 slw
n 3168 796 m 3208 888 l 3123 835 l 3130 798 l 3168 796 l  cp gs col7 1.00 shd ef gr  col0 s
% Polyline
7.500 slw
gs  clippath
3438 1104 m 3478 1196 l 3393 1143 l 3482 1246 l 3527 1207 l cp
clip
n 3292 982 m 3495 1215 l gs 0.40 setgray ef gr gs col0 s gr gr

% arrowhead
15.000 slw
n 3438 1104 m 3478 1196 l 3393 1143 l 3400 1106 l 3438 1104 l  cp gs col7 1.00 shd ef gr  col0 s
% Polyline
7.500 slw
gs  clippath
3430 1824 m 3470 1916 l 3385 1863 l 3474 1966 l 3519 1927 l cp
clip
n 3284 1702 m 3487 1935 l gs 0.40 setgray ef gr gs col0 s gr gr

% arrowhead
15.000 slw
n 3430 1824 m 3470 1916 l 3385 1863 l 3392 1826 l 3430 1824 l  cp gs col7 1.00 shd ef gr  col0 s
% Polyline
7.500 slw
gs  clippath
2298 1426 m 2338 1518 l 2253 1465 l 2342 1568 l 2387 1529 l cp
clip
n 2152 1304 m 2355 1537 l gs 0.40 setgray ef gr gs col0 s gr gr

% arrowhead
15.000 slw
n 2298 1426 m 2338 1518 l 2253 1465 l 2260 1428 l 2298 1426 l  cp gs col7 1.00 shd ef gr  col0 s
% Polyline
7.500 slw
gs  clippath
2905 916 m 2945 1008 l 2860 955 l 2949 1058 l 2994 1019 l cp
clip
n 2759 794 m 2962 1027 l gs 0.40 setgray ef gr gs col0 s gr gr

% arrowhead
15.000 slw
n 2905 916 m 2945 1008 l 2860 955 l 2867 918 l 2905 916 l  cp gs col7 1.00 shd ef gr  col0 s
% Polyline
7.500 slw
n 330 2250 m 225 2250 225 2895 105 arcto 4 {pop} repeat
  225 3000 5370 3000 105 arcto 4 {pop} repeat
  5475 3000 5475 2355 105 arcto 4 {pop} repeat
  5475 2250 330 2250 105 arcto 4 {pop} repeat
 cp gs col0 s gr 
% Polyline
gs  clippath
3649 2850 m 3689 2942 l 3604 2889 l 3693 2992 l 3738 2953 l cp
clip
n 3503 2728 m 3706 2961 l gs 0.40 setgray ef gr gs col0 s gr gr

% arrowhead
15.000 slw
n 3649 2850 m 3689 2942 l 3604 2889 l 3611 2852 l 3649 2850 l  cp gs col7 1.00 shd ef gr  col0 s
% Polyline
gs  clippath
3555 2415 m 3659 2344 l 3614 2462 l 3723 2325 l 3664 2278 l cp
clip
n 3375 2700 m 3675 2325 l gs col0 s gr gr

% arrowhead
n 3555 2415 m 3659 2344 l 3614 2462 l  col0 s
% Polyline
7.500 slw
n 885 2460 m 900 2445 l gs col0 s gr 
% Polyline
n 877 2752 m 900 2745 l gs col0 s gr 
% Polyline
n 892 2467 m 915 2437 l gs col0 s gr 
% Polyline
n 870 2745 m 907 2730 l gs col0 s gr 
/Helvetica-iso ff 120.00 scf sf
300 525 m
gs 1 -1 sc ( Variacional Metropolis                   Variacional Fokker-Planck   ) col0 sh gr
/Helvetica-iso ff 120.00 scf sf
4650 540 m
gs 1 -1 sc (y Fokker-Planck) dup sw pop 2 div neg 0 rm  col0 sh gr
/Helvetica-iso ff 120.00 scf sf
525 2850 m
gs 1 -1 sc (Posicion Condicional) col0 sh gr
/Helvetica-iso ff 120.00 scf sf
525 2550 m
gs 1 -1 sc (Posicion fija) col0 sh gr
/Helvetica-iso ff 120.00 scf sf
3825 2550 m
gs 1 -1 sc (Vector  aleatorio) col0 sh gr
/Helvetica-iso ff 120.00 scf sf
3825 2850 m
gs 1 -1 sc (Vector de arrastre) col0 sh gr
/Helvetica-iso ff 120.00 scf sf
4650 375 m
gs 1 -1 sc (Variacional Metropolis) dup sw pop 2 div neg 0 rm  col0 sh gr
$F2psEnd
rs
