%!PS-Adobe-2.0 EPSF-2.0
%%Creator: gnuplot
%%DocumentFonts: Helvetica
%%BoundingBox: 50 50 410 302
%%EndComments
/gnudict 40 dict def
gnudict begin
/Color false def
/Solid false def
/gnulinewidth 5.000 def
/vshift -46 def
/dl {10 mul} def
/hpt 31.5 def
/vpt 31.5 def
/M {moveto} bind def
/L {lineto} bind def
/R {rmoveto} bind def
/V {rlineto} bind def
/vpt2 vpt 2 mul def
/hpt2 hpt 2 mul def
/Lshow { currentpoint stroke M
  0 vshift R show } def
/Rshow { currentpoint stroke M
  dup stringwidth pop neg vshift R show } def
/Cshow { currentpoint stroke M
  dup stringwidth pop -2 div vshift R show } def
/DL { Color {setrgbcolor Solid {pop []} if 0 setdash }
 {pop pop pop Solid {pop []} if 0 setdash} ifelse } def
/BL { stroke gnulinewidth 2 mul setlinewidth } def
/AL { stroke gnulinewidth 2 div setlinewidth } def
/PL { stroke gnulinewidth setlinewidth } def
/LTb { BL [] 0 0 0 DL } def
/LTa { AL [1 dl 2 dl] 0 setdash 0 0 0 setrgbcolor } def
/LT0 { PL [] 0 1 0 DL } def
/LT1 { PL [4 dl 2 dl] 0 0 1 DL } def
/LT2 { PL [2 dl 3 dl] 1 0 0 DL } def
/LT3 { PL [1 dl 1.5 dl] 1 0 1 DL } def
/LT4 { PL [5 dl 2 dl 1 dl 2 dl] 0 1 1 DL } def
/LT5 { PL [4 dl 3 dl 1 dl 3 dl] 1 1 0 DL } def
/LT6 { PL [2 dl 2 dl 2 dl 4 dl] 0 0 0 DL } def
/LT7 { PL [2 dl 2 dl 2 dl 2 dl 2 dl 4 dl] 1 0.3 0 DL } def
/LT8 { PL [2 dl 2 dl 2 dl 2 dl 2 dl 2 dl 2 dl 4 dl] 0.5 0.5 0.5 DL } def
/P { stroke [] 0 setdash
  currentlinewidth 2 div sub M
  0 currentlinewidth V stroke } def
/D { stroke [] 0 setdash 2 copy vpt add M
  hpt neg vpt neg V hpt vpt neg V
  hpt vpt V hpt neg vpt V closepath stroke
  P } def
/A { stroke [] 0 setdash vpt sub M 0 vpt2 V
  currentpoint stroke M
  hpt neg vpt neg R hpt2 0 V stroke
  } def
/B { stroke [] 0 setdash 2 copy exch hpt sub exch vpt add M
  0 vpt2 neg V hpt2 0 V 0 vpt2 V
  hpt2 neg 0 V closepath stroke
  P } def
/C { stroke [] 0 setdash exch hpt sub exch vpt add M
  hpt2 vpt2 neg V currentpoint stroke M
  hpt2 neg 0 R hpt2 vpt2 V stroke } def
/T { stroke [] 0 setdash 2 copy vpt 1.12 mul add M
  hpt neg vpt -1.62 mul V
  hpt 2 mul 0 V
  hpt neg vpt 1.62 mul V closepath stroke
  P  } def
/S { 2 copy A C} def
end
%%EndProlog
gnudict begin
gsave
50 50 translate
0.050 0.050 scale
0 setgray
/Helvetica findfont 140 scalefont setfont
newpath
LTa
672 211 M
6297 0 V
-3148 0 R
0 4758 V
LTb
672 211 M
63 0 V
6234 0 R
-63 0 V
588 211 M
(0) Rshow
672 1163 M
63 0 V
6234 0 R
-63 0 V
-6318 0 R
(0.2) Rshow
672 2114 M
63 0 V
6234 0 R
-63 0 V
-6318 0 R
(0.4) Rshow
672 3066 M
63 0 V
6234 0 R
-63 0 V
-6318 0 R
(0.6) Rshow
672 4017 M
63 0 V
6234 0 R
-63 0 V
-6318 0 R
(0.8) Rshow
672 4969 M
63 0 V
6234 0 R
-63 0 V
-6318 0 R
(1) Rshow
672 211 M
0 63 V
0 4695 R
0 -63 V
672 71 M
(-2.5) Cshow
1302 211 M
0 63 V
0 4695 R
0 -63 V
1302 71 M
(-2) Cshow
1931 211 M
0 63 V
0 4695 R
0 -63 V
1931 71 M
(-1.5) Cshow
2561 211 M
0 63 V
0 4695 R
0 -63 V
2561 71 M
(-1) Cshow
3191 211 M
0 63 V
0 4695 R
0 -63 V
3191 71 M
(-0.5) Cshow
3821 211 M
0 63 V
0 4695 R
0 -63 V
3821 71 M
(0) Cshow
4450 211 M
0 63 V
0 4695 R
0 -63 V
4450 71 M
(0.5) Cshow
5080 211 M
0 63 V
0 4695 R
0 -63 V
5080 71 M
(1) Cshow
5710 211 M
0 63 V
0 4695 R
0 -63 V
5710 71 M
(1.5) Cshow
6339 211 M
0 63 V
0 4695 R
0 -63 V
6339 71 M
(2) Cshow
6969 211 M
0 63 V
0 4695 R
0 -63 V
6969 71 M
(2.5) Cshow
672 211 M
6297 0 V
0 4758 V
-6297 0 V
672 211 L
LT0
6486 4766 M
(cos\(x*pi/2\)) Rshow
6570 4766 M
252 0 V
2561 211 M
19 113 V
64 377 V
63 373 V
64 368 V
64 361 V
63 350 V
64 338 V
63 324 V
64 307 V
64 290 V
63 268 V
64 248 V
63 223 V
64 199 V
64 173 V
63 146 V
64 118 V
63 89 V
64 59 V
64 30 V
63 0 V
64 -30 V
64 -59 V
63 -89 V
64 -118 V
63 -146 V
64 -173 V
64 -199 V
63 -223 V
64 -248 V
63 -268 V
64 -290 V
64 -307 V
63 -324 V
64 -338 V
63 -350 V
64 -361 V
64 -368 V
63 -373 V
64 -377 V
19 -113 V
LT1
6486 4626 M
("Vo=1") Rshow
6654 4626 D
685 632 D
760 667 D
836 692 D
911 722 D
987 766 D
1062 798 D
1138 834 D
1214 874 D
1289 922 D
1365 972 D
1440 1023 D
1516 1076 D
1591 1135 D
1667 1203 D
1742 1278 D
1818 1345 D
1894 1422 D
1969 1510 D
2045 1588 D
2120 1689 D
2196 1782 D
2271 1892 D
2347 2014 D
2423 2111 D
2498 2220 D
2574 2411 D
2649 2576 D
2725 2701 D
2800 2815 D
2876 2921 D
2952 3043 D
3027 3136 D
3103 3220 D
3178 3312 D
3254 3386 D
3329 3450 D
3405 3504 D
3480 3547 D
3556 3595 D
3632 3622 D
3707 3644 D
3783 3663 D
3858 3656 D
3934 3643 D
4009 3634 D
4085 3580 D
4161 3539 D
4236 3498 D
4312 3439 D
4387 3375 D
4463 3290 D
4538 3214 D
4614 3134 D
4689 3024 D
4765 2917 D
4841 2794 D
4916 2687 D
4992 2568 D
5067 2408 D
5143 2227 D
5218 2106 D
5294 1993 D
5370 1888 D
5445 1780 D
5521 1689 D
5596 1594 D
5672 1507 D
5747 1418 D
5823 1347 D
5899 1267 D
5974 1198 D
6050 1145 D
6125 1080 D
6201 1018 D
6276 976 D
6352 925 D
6427 879 D
6503 835 D
6579 796 D
6654 753 D
6730 723 D
6805 688 D
6881 660 D
6956 634 D
LT2
6486 4486 M
("Vo=5") Rshow
6654 4486 A
685 231 A
760 234 A
836 241 A
911 244 A
987 252 A
1062 259 A
1138 268 A
1214 281 A
1289 293 A
1365 310 A
1440 325 A
1516 349 A
1591 378 A
1667 409 A
1742 446 A
1818 492 A
1894 548 A
1969 612 A
2045 690 A
2120 777 A
2196 873 A
2271 996 A
2347 1124 A
2423 1255 A
2498 1414 A
2574 1839 A
2649 2186 A
2725 2398 A
2800 2618 A
2876 2834 A
2952 3037 A
3027 3231 A
3103 3431 A
3178 3581 A
3254 3746 A
3329 3870 A
3405 4003 A
3480 4091 A
3556 4169 A
3632 4225 A
3707 4282 A
3783 4291 A
3858 4295 A
3934 4265 A
4009 4223 A
4085 4180 A
4161 4088 A
4236 4002 A
4312 3883 A
4387 3752 A
4463 3585 A
4538 3416 A
4614 3234 A
4689 3043 A
4765 2817 A
4841 2623 A
4916 2397 A
4992 2175 A
5067 1838 A
5143 1414 A
5218 1271 A
5294 1121 A
5370 992 A
5445 877 A
5521 775 A
5596 690 A
5672 609 A
5747 545 A
5823 496 A
5899 447 A
5974 410 A
6050 380 A
6125 350 A
6201 327 A
6276 307 A
6352 292 A
6427 279 A
6503 268 A
6579 260 A
6654 250 A
6730 245 A
6805 239 A
6881 234 A
6956 230 A
LT3
6486 4346 M
("Vo=15") Rshow
6654 4346 B
685 211 B
760 211 B
836 211 B
911 214 B
987 212 B
1062 213 B
1138 214 B
1214 215 B
1289 216 B
1365 222 B
1440 220 B
1516 227 B
1591 231 B
1667 236 B
1742 252 B
1818 263 B
1894 290 B
1969 313 B
2045 347 B
2120 404 B
2196 447 B
2271 521 B
2347 613 B
2423 691 B
2498 807 B
2574 1448 B
2649 1938 B
2725 2197 B
2800 2434 B
2876 2768 B
2952 2942 B
3027 3227 B
3103 3388 B
3178 3657 B
3254 3811 B
3329 4036 B
3405 4160 B
3480 4241 B
3556 4403 B
3632 4396 B
3707 4479 B
3783 4541 B
3858 4534 B
3934 4468 B
4009 4407 B
4085 4258 B
4161 4281 B
4236 4128 B
4312 3972 B
4387 3801 B
4463 3588 B
4538 3359 B
4614 3123 B
4689 2888 B
4765 2656 B
4841 2400 B
4916 2156 B
4992 1892 B
5067 1398 B
5143 782 B
5218 684 B
5294 580 B
5370 514 B
5445 446 B
5521 402 B
5596 346 B
5672 313 B
5747 288 B
5823 262 B
5899 250 B
5974 238 B
6050 231 B
6125 223 B
6201 223 B
6276 219 B
6352 217 B
6427 215 B
6503 214 B
6579 213 B
6654 213 B
6730 212 B
6805 211 B
6881 212 B
6956 212 B
LT4
6486 4206 M
("Vo=20") Rshow
6654 4206 C
685 211 C
760 211 C
836 211 C
911 211 C
987 212 C
1062 212 C
1138 212 C
1214 212 C
1289 214 C
1365 215 C
1440 217 C
1516 219 C
1591 222 C
1667 231 C
1742 235 C
1818 243 C
1894 261 C
1969 288 C
2045 307 C
2120 347 C
2196 386 C
2271 427 C
2347 491 C
2423 572 C
2498 640 C
2574 1327 C
2649 1889 C
2725 2187 C
2800 2445 C
2876 2655 C
2952 3055 C
3027 3255 C
3103 3478 C
3178 3711 C
3254 3867 C
3329 4078 C
3405 4167 C
3480 4211 C
3556 4432 C
3632 4470 C
3707 4421 C
3783 4516 C
3858 4475 C
3934 4573 C
4009 4446 C
4085 4290 C
4161 4247 C
4236 4070 C
4312 3965 C
4387 3813 C
4463 3533 C
4538 3403 C
4614 3142 C
4689 2925 C
4765 2585 C
4841 2340 C
4916 2089 C
4992 1884 C
5067 1328 C
5143 610 C
5218 566 C
5294 483 C
5370 425 C
5445 375 C
5521 338 C
5596 284 C
5672 278 C
5747 259 C
5823 246 C
5899 234 C
5974 224 C
6050 224 C
6125 218 C
6201 215 C
6276 215 C
6352 214 C
6427 211 C
6503 213 C
6579 211 C
6654 212 C
6730 211 C
6805 211 C
6881 211 C
6956 211 C
stroke
grestore
end
showpage
%%Trailer
