%!PS-Adobe-3.0 EPSF
%%Title: Maple plot
%%Creator: MapleV 
%%Pages:  1
%%BoundingBox: (atend)
%%DocumentNeededResources: font Helvetica
%%EndComments
20 dict begin
gsave
/drawborder false def
/m {moveto} def
/l {lineto} def
/C {setrgbcolor} def
/Y /setcmykcolor where { %%ifelse Use built-in operator
       /setcmykcolor get
   }{ %%ifelse Emulate setcmykcolor with setrgbcolor
       { %%def
           1 sub 3 { %%repeat
               3 index add neg dup 0 lt { pop 0 } if 3 1 roll
           } repeat setrgbcolor
       } bind
   } ifelse def
/G {setgray} def
/S {stroke} def
/NP {newpath} def
%%%%This draws a filled polygon and avoids bugs/features
%%%%   of some postscript interpreters
%%%%GHOSTSCRIPT: has a bug in reversepath - removing
%%%%the call to reversepath is a sufficient work around
/P {gsave fill grestore reversepath stroke} def
%%%%This function is needed for drawing text
/stringbbox {gsave NP 0 0 m false charpath flattenpath
   pathbbox 4 2 roll pop pop 1.1 mul cvi exch 1.1 mul 
   cvi exch grestore} def
/thin 3 def
/medium 7 def
/thick 16 def
/boundarythick 20 def % thichess of bounding box
%%IncludeResource: font Helvetica
288.000000 288.000000 translate
/defaultTitleFont {/Helvetica findfont 602 scalefont setfont} def
/defaultFont {/Helvetica findfont 249 scalefont setfont} def
0.034 0.034 scale
1 setlinejoin
1 setlinecap
0.0 setgray
/inch {72 mul} def
/fheight 0.35 inch neg def
    0 G
medium setlinewidth
[] 0 setdash defaultFont
  0.3 G
NP 4413 4297 m 4499 4421 l
S
NP 4332 4184 m 4413 4297 l
S
NP 4247 4067 m 4332 4184 l
S
NP 4168 3959 m 4247 4067 l
S
NP 4079 3840 m 4168 3959 l
S
NP 4002 3738 m 4079 3840 l
S
NP 3918 3628 m 4002 3738 l
S
NP 3833 3519 m 3918 3628 l
S
NP 3750 3414 m 3833 3519 l
S
NP 3664 3306 m 3750 3414 l
S
NP 3582 3206 m 3664 3306 l
S
NP 3498 3104 m 3582 3206 l
S
NP 3417 3009 m 3498 3104 l
S
NP 3331 2909 m 3417 3009 l
S
NP 3253 2819 m 3331 2909 l
S
NP 3167 2721 m 3253 2819 l
S
NP 3086 2632 m 3167 2721 l
S
NP 2996 2534 m 3086 2632 l
S
NP 2915 2447 m 2996 2534 l
S
NP 2831 2359 m 2915 2447 l
S
NP 2745 2271 m 2831 2359 l
S
NP 2662 2187 m 2745 2271 l
S
NP 2586 2111 m 2662 2187 l
S
NP 2498 2026 m 2586 2111 l
S
NP 2413 1945 m 2498 2026 l
S
NP 2334 1872 m 2413 1945 l
S
NP 2248 1793 m 2334 1872 l
S
NP 2166 1720 m 2248 1793 l
S
NP 2080 1645 m 2166 1720 l
S
NP 2001 1578 m 2080 1645 l
S
NP 1912 1504 m 2001 1578 l
S
NP 1836 1442 m 1912 1504 l
S
NP 1746 1370 m 1836 1442 l
S
NP 1670 1311 m 1746 1370 l
S
NP 1587 1248 m 1670 1311 l
S
NP 1500 1184 m 1587 1248 l
S
NP 1414 1123 m 1500 1184 l
S
NP 1337 1069 m 1414 1123 l
S
NP 1250 1010 m 1337 1069 l
S
NP 1165 955 m 1250 1010 l
S
NP 1081 901 m 1165 955 l
S
NP 998 850 m 1081 901 l
S
NP 919 803 m 998 850 l
S
NP 834 753 m 919 803 l
S
NP 748 705 m 834 753 l
S
NP 663 659 m 748 705 l
S
NP 587 620 m 663 659 l
S
NP 500 576 m 587 620 l
S
    0 G
medium setlinewidth
NP 500 500 m 500 4500 l
S
thin setlinewidth
NP 458 556 m 500 556 l
S
NP 458 638 m 500 638 l
S
NP 458 719 m 500 719 l
S
NP 458 800 m 500 800 l
S
NP 417 882 m 500 882 l
S
NP 458 963 m 500 963 l
S
NP 458 1045 m 500 1045 l
S
NP 458 1126 m 500 1126 l
S
NP 458 1208 m 500 1208 l
S
NP 417 1289 m 500 1289 l
S
NP 458 1371 m 500 1371 l
S
NP 458 1452 m 500 1452 l
S
NP 458 1534 m 500 1534 l
S
NP 458 1615 m 500 1615 l
S
NP 417 1697 m 500 1697 l
S
NP 458 1778 m 500 1778 l
S
NP 458 1860 m 500 1860 l
S
NP 458 1941 m 500 1941 l
S
NP 458 2023 m 500 2023 l
S
NP 417 2104 m 500 2104 l
S
NP 458 2186 m 500 2186 l
S
NP 458 2267 m 500 2267 l
S
NP 458 2349 m 500 2349 l
S
NP 458 2430 m 500 2430 l
S
NP 417 2511 m 500 2511 l
S
NP 458 2593 m 500 2593 l
S
NP 458 2674 m 500 2674 l
S
NP 458 2756 m 500 2756 l
S
NP 458 2837 m 500 2837 l
S
NP 417 2919 m 500 2919 l
S
NP 458 3000 m 500 3000 l
S
NP 458 3082 m 500 3082 l
S
NP 458 3163 m 500 3163 l
S
NP 458 3245 m 500 3245 l
S
NP 417 3326 m 500 3326 l
S
NP 458 3408 m 500 3408 l
S
NP 458 3489 m 500 3489 l
S
NP 458 3571 m 500 3571 l
S
NP 458 3652 m 500 3652 l
S
NP 417 3734 m 500 3734 l
S
NP 458 3815 m 500 3815 l
S
NP 458 3897 m 500 3897 l
S
NP 458 3978 m 500 3978 l
S
NP 458 4060 m 500 4060 l
S
NP 417 4141 m 500 4141 l
S
NP 458 4223 m 500 4223 l
S
NP 458 4304 m 500 4304 l
S
NP 458 4385 m 500 4385 l
S
NP 458 4467 m 500 4467 l
S
medium setlinewidth
NP 500 500 m 4500 500 l
S
thin setlinewidth
NP 583 469 m 583 500 l
S
NP 749 469 m 749 500 l
S
NP 915 438 m 915 500 l
S
NP 1082 469 m 1082 500 l
S
NP 1248 469 m 1248 500 l
S
NP 1414 469 m 1414 500 l
S
NP 1581 469 m 1581 500 l
S
NP 1747 438 m 1747 500 l
S
NP 1913 469 m 1913 500 l
S
NP 2080 469 m 2080 500 l
S
NP 2246 469 m 2246 500 l
S
NP 2412 469 m 2412 500 l
S
NP 2578 438 m 2578 500 l
S
NP 2745 469 m 2745 500 l
S
NP 2911 469 m 2911 500 l
S
NP 3077 469 m 3077 500 l
S
NP 3244 469 m 3244 500 l
S
NP 3410 438 m 3410 500 l
S
NP 3576 469 m 3576 500 l
S
NP 3743 469 m 3743 500 l
S
NP 3909 469 m 3909 500 l
S
NP 4075 469 m 4075 500 l
S
NP 4242 438 m 4242 500 l
S
NP 4408 469 m 4408 500 l
S
medium setlinewidth
(0.4) dup stringbbox 2 idiv 882 exch sub exch 382 exch sub exch m show
(0.6) dup stringbbox 2 idiv 1289 exch sub exch 382 exch sub exch m show
(0.8) dup stringbbox 2 idiv 1697 exch sub exch 382 exch sub exch m show
(1) dup stringbbox 2 idiv 2104 exch sub exch 382 exch sub exch m show
(1.2) dup stringbbox 2 idiv 2511 exch sub exch 382 exch sub exch m show
(1.4) dup stringbbox 2 idiv 2919 exch sub exch 382 exch sub exch m show
(1.6) dup stringbbox 2 idiv 3326 exch sub exch 382 exch sub exch m show
(1.8) dup stringbbox 2 idiv 3734 exch sub exch 382 exch sub exch m show
(2) dup stringbbox 2 idiv 4141 exch sub exch 382 exch sub exch m show
(y) dup stringbbox 2 idiv 2500 exch sub exch 60 exch sub exch m show
(0.6) dup stringbbox 411 exch sub exch 2 idiv 915 exch sub exch m show
(0.8) dup stringbbox 411 exch sub exch 2 idiv 1747 exch sub exch m show
(1) dup stringbbox 411 exch sub exch 2 idiv 2578 exch sub exch m show
(1.2) dup stringbbox 411 exch sub exch 2 idiv 3410 exch sub exch m show
(1.4) dup stringbbox 411 exch sub exch 2 idiv 4242 exch sub exch m show
(x) dup stringbbox 220 exch sub exch 2 idiv 2500 exch sub exch m show
boundarythick setlinewidth
% The following draws a box around the plot,
% if the variable drawborder is true
drawborder { 
/bd boundarythick 2 idiv def
[] 0 setdash 
NP bd bd m bd 5000 bd sub l 
5000 bd sub 5000 bd sub l 
5000 bd sub bd l 
bd bd l S
} if % end of if to draw the border

showpage
grestore
end
%%Trailer
%%BoundingBox: 289 285 441 441 
%%EOF
